%YAML 1.1
%TAG !u! tag:unity3d.com,2011:
--- !u!74 &7400000
AnimationClip:
  m_ObjectHideFlags: 0
  m_PrefabParentObject: {fileID: 0}
  m_PrefabInternal: {fileID: 0}
  m_Name: movement
  serializedVersion: 6
  m_Legacy: 0
  m_Compressed: 0
  m_UseHighQualityCurve: 1
  m_RotationCurves:
  - curve:
      serializedVersion: 2
      m_Curve:
      - time: 0
        value: {x: -0, y: -0, z: 0.0047968677, w: -0.9999885}
        inSlope: {x: 0, y: 0, z: 5.222926, w: 0.25291443}
        outSlope: {x: 0, y: 0, z: 5.222926, w: 0.25291443}
        tangentMode: 0
      - time: 0.016666668
        value: {x: -0, y: -0, z: 0.09184565, w: -0.99577326}
        inSlope: {x: 0, y: 0, z: 5.1961393, w: 0.47874925}
        outSlope: {x: 0, y: 0, z: 5.1961393, w: 0.47874925}
        tangentMode: 0
      - time: 0.033333335
        value: {x: -0, y: -0, z: 0.17800152, w: -0.9840302}
        inSlope: {x: 0, y: 0, z: 5.124381, w: 0.92653143}
        outSlope: {x: 0, y: 0, z: 5.124381, w: 0.92653143}
        tangentMode: 0
      - time: 0.050000004
        value: {x: -0, y: -0, z: 0.26265836, w: -0.9648889}
        inSlope: {x: 0, y: 0, z: 5.016696, w: 1.3653033}
        outSlope: {x: 0, y: 0, z: 5.016696, w: 1.3653033}
        tangentMode: 0
      - time: 0.06666667
        value: {x: -0, y: -0, z: 0.34522474, w: -0.9385201}
        inSlope: {x: 0, y: 0, z: 4.874022, w: 1.7926366}
        outSlope: {x: 0, y: 0, z: 4.874022, w: 1.7926366}
        tangentMode: 0
      - time: 0.083333336
        value: {x: -0, y: -0, z: 0.42512575, w: -0.9051343}
        inSlope: {x: 0, y: 0, z: 4.697394, w: 2.2061708}
        outSlope: {x: 0, y: 0, z: 4.697394, w: 2.2061708}
        tangentMode: 0
      - time: 0.1
        value: {x: -0, y: -0, z: 0.50180453, w: -0.86498106}
        inSlope: {x: 0, y: 0, z: 4.4879413, w: 2.6036062}
        outSlope: {x: 0, y: 0, z: 4.4879413, w: 2.6036062}
        tangentMode: 0
      - time: 0.11666667
        value: {x: -0, y: -0, z: 0.5747238, w: -0.81834745}
        inSlope: {x: 0, y: 0, z: 4.2468967, w: 2.9827125}
        outSlope: {x: 0, y: 0, z: 4.2468967, w: 2.9827125}
        tangentMode: 0
      - time: 0.13333334
        value: {x: -0, y: -0, z: 0.64336777, w: -0.7655573}
        inSlope: {x: 0, y: 0, z: 3.9755838, w: 3.3413148}
        outSlope: {x: 0, y: 0, z: 3.9755838, w: 3.3413148}
        tangentMode: 0
      - time: 0.15
        value: {x: -0, y: -0, z: 0.70724326, w: -0.7069703}
        inSlope: {x: 0, y: 0, z: 3.6754348, w: 3.6772945}
        outSlope: {x: 0, y: 0, z: 3.6754348, w: 3.6772945}
        tangentMode: 0
      - time: 0.16666667
        value: {x: -0, y: -0, z: 0.76588225, w: -0.6429808}
        inSlope: {x: 0, y: 0, z: 3.347989, w: 3.9885757}
        outSlope: {x: 0, y: 0, z: 3.347989, w: 3.9885757}
        tangentMode: 0
      - time: 0.18333334
        value: {x: -0, y: -0, z: 0.8188429, w: -0.57401776}
        inSlope: {x: 0, y: 0, z: 2.9948869, w: 4.27314}
        outSlope: {x: 0, y: 0, z: 2.9948869, w: 4.27314}
        tangentMode: 0
      - time: 0.2
        value: {x: -0, y: -0, z: 0.8657118, w: -0.5005428}
        inSlope: {x: 0, y: 0, z: 2.617899, w: 4.529022}
        outSlope: {x: 0, y: 0, z: 2.617899, w: 4.529022}
        tangentMode: 0
      - time: 0.21666667
        value: {x: -0, y: -0, z: 0.9061062, w: -0.42305037}
        inSlope: {x: 0, y: 0, z: 2.2189238, w: 4.7543025}
        outSlope: {x: 0, y: 0, z: 2.2189238, w: 4.7543025}
        tangentMode: 0
      - time: 0.23333333
        value: {x: -0, y: -0, z: 0.9396759, w: -0.34206608}
        inSlope: {x: 0, y: 0, z: 1.799993, w: 4.947133}
        outSlope: {x: 0, y: 0, z: 1.799993, w: 4.947133}
        tangentMode: 0
      - time: 0.25
        value: {x: -0, y: -0, z: 0.96610594, w: -0.25814596}
        inSlope: {x: 0, y: 0, z: 1.3632824, w: 5.1057205}
        outSlope: {x: 0, y: 0, z: 1.3632824, w: 5.1057205}
        tangentMode: 0
      - time: 0.26666668
        value: {x: -0, y: -0, z: 0.9851187, w: -0.17187534}
        inSlope: {x: 0, y: 0, z: 0.91112775, w: 5.2283363}
        outSlope: {x: 0, y: 0, z: 0.91112775, w: 5.2283363}
        tangentMode: 0
      - time: 0.28333336
        value: {x: -0, y: -0, z: 0.9964769, w: -0.08386794}
        inSlope: {x: 0, y: 0, z: 0.44602773, w: 5.3133445}
        outSlope: {x: 0, y: 0, z: 0.44602773, w: 5.3133445}
        tangentMode: 0
      - time: 0.30000004
        value: {x: -0, y: -0, z: 0.9999863, w: 0.0052362876}
        inSlope: {x: 0, y: 0, z: -0.029341549, w: 5.359237}
        outSlope: {x: 0, y: 0, z: -0.029341549, w: 5.359237}
        tangentMode: 0
      - time: 0.31666672
        value: {x: -0, y: -0, z: 0.99549884, w: 0.09477346}
        inSlope: {x: 0, y: 0, z: -0.51180613, w: 5.362937}
        outSlope: {x: 0, y: 0, z: -0.51180613, w: 5.362937}
        tangentMode: 0
      - time: 0.3333334
        value: {x: -0, y: -0, z: 0.9829261, w: 0.18400101}
        inSlope: {x: 0, y: 0, z: -0.9971837, w: 5.320815}
        outSlope: {x: 0, y: 0, z: -0.9971837, w: 5.320815}
        tangentMode: 0
      - time: 0.35000008
        value: {x: -0, y: -0, z: 0.96225935, w: 0.2721341}
        inSlope: {x: 0, y: 0, z: -1.4805496, w: 5.231474}
        outSlope: {x: 0, y: 0, z: -1.4805496, w: 5.231474}
        tangentMode: 0
      - time: 0.36666676
        value: {x: -0, y: -0, z: 0.9335744, w: 0.35838363}
        inSlope: {x: 0, y: 0, z: -1.9568111, w: 5.094926}
        outSlope: {x: 0, y: 0, z: -1.9568111, w: 5.094926}
        tangentMode: 0
      - time: 0.38333344
        value: {x: -0, y: -0, z: 0.89703226, w: 0.4419651}
        inSlope: {x: 0, y: 0, z: -2.4208722, w: 4.911767}
        outSlope: {x: 0, y: 0, z: -2.4208722, w: 4.911767}
        tangentMode: 0
      - time: 0.40000013
        value: {x: -0, y: -0, z: 0.8528786, w: 0.5221093}
        inSlope: {x: 0, y: 0, z: -2.8676975, w: 4.6832066}
        outSlope: {x: 0, y: 0, z: -2.8676975, w: 4.6832066}
        tangentMode: 0
      - time: 0.4166668
        value: {x: -0, y: -0, z: 0.80144227, w: 0.5980721}
        inSlope: {x: 0, y: 0, z: -3.292398, w: 4.411066}
        outSlope: {x: 0, y: 0, z: -3.292398, w: 4.411066}
        tangentMode: 0
      - time: 0.4333335
        value: {x: -0, y: -0, z: 0.7431319, w: 0.669145}
        inSlope: {x: 0, y: 0, z: -3.6903071, w: 4.0977306}
        outSlope: {x: 0, y: 0, z: -3.6903071, w: 4.0977306}
        tangentMode: 0
      - time: 0.45000017
        value: {x: -0, y: -0, z: 0.6784319, w: 0.73466325}
        inSlope: {x: 0, y: 0, z: -4.0570364, w: 3.7461185}
        outSlope: {x: 0, y: 0, z: -4.0570364, w: 3.7461185}
        tangentMode: 0
      - time: 0.46666685
        value: {x: -0, y: -0, z: 0.6078972, w: 0.7940157}
        inSlope: {x: 0, y: 0, z: -4.388566, w: 3.3596733}
        outSlope: {x: 0, y: 0, z: -4.388566, w: 3.3596733}
        tangentMode: 0
      - time: 0.48333353
        value: {x: -0, y: -0, z: 0.5321463, w: 0.84665245}
        inSlope: {x: 0, y: 0, z: -4.68128, w: 2.942278}
        outSlope: {x: 0, y: 0, z: -4.68128, w: 2.942278}
        tangentMode: 0
      - time: 0.5000002
        value: {x: -0, y: -0, z: 0.45185456, w: 0.89209163}
        inSlope: {x: 0, y: 0, z: -4.9320545, w: 2.4982333}
        outSlope: {x: 0, y: 0, z: -4.9320545, w: 2.4982333}
        tangentMode: 0
      - time: 0.5166668
        value: {x: -0, y: -0, z: 0.36774462, w: 0.9299268}
        inSlope: {x: 0, y: 0, z: -5.138313, w: 2.0321937}
        outSlope: {x: 0, y: 0, z: -5.138313, w: 2.0321937}
        tangentMode: 0
      - time: 0.5333335
        value: {x: -0, y: -0, z: 0.28057763, w: 0.95983136}
        inSlope: {x: 0, y: 0, z: -5.2980127, w: 1.5490558}
        outSlope: {x: 0, y: 0, z: -5.2980127, w: 1.5490558}
        tangentMode: 0
      - time: 0.55000013
        value: {x: -0, y: -0, z: 0.19114438, w: 0.98156196}
        inSlope: {x: 0, y: 0, z: -5.4096975, w: 1.0539142}
        outSlope: {x: 0, y: 0, z: -5.4096975, w: 1.0539142}
        tangentMode: 0
      - time: 0.5666668
        value: {x: -0, y: -0, z: 0.10025454, w: 0.9949618}
        inSlope: {x: 0, y: 0, z: -5.4725714, w: 0.5520002}
        outSlope: {x: 0, y: 0, z: -5.4725714, w: 0.5520002}
        tangentMode: 0
      - time: 0.5833333
        value: {x: -0, y: -0, z: 0.00872616, w: 0.9999619}
        inSlope: {x: 0, y: 0, z: -5.491748, w: 0.3000093}
        outSlope: {x: 0, y: 0, z: -5.491748, w: 0.3000093}
        tangentMode: 0
      m_PreInfinity: 2
      m_PostInfinity: 2
      m_RotationOrder: 4
    path: Base/Lent_12/Whell1
  - curve:
      serializedVersion: 2
      m_Curve:
      - time: 0
        value: {x: -0, y: -0, z: -0.026176952, w: -0.99965733}
        inSlope: {x: 0, y: 0, z: 5.334017, w: 0.09758233}
        outSlope: {x: 0, y: 0, z: 5.334017, w: 0.09758233}
        tangentMode: 0
      - time: 0.016666668
        value: {x: -0, y: -0, z: 0.06272333, w: -0.99803096}
        inSlope: {x: 0, y: 0, z: 5.315616, w: 0.33375442}
        outSlope: {x: 0, y: 0, z: 5.315616, w: 0.33375442}
        tangentMode: 0
      - time: 0.033333335
        value: {x: -0, y: -0, z: 0.15101026, w: -0.9885322}
        inSlope: {x: 0, y: 0, z: 5.258725, w: 0.80307835}
        outSlope: {x: 0, y: 0, z: 5.258725, w: 0.80307835}
        tangentMode: 0
      - time: 0.050000004
        value: {x: -0, y: -0, z: 0.23801419, w: -0.9712617}
        inSlope: {x: 0, y: 0, z: 5.16203, w: 1.2647957}
        outSlope: {x: 0, y: 0, z: 5.16203, w: 1.2647957}
        tangentMode: 0
      - time: 0.06666667
        value: {x: -0, y: -0, z: 0.32307795, w: -0.94637233}
        inSlope: {x: 0, y: 0, z: 5.026385, w: 1.7158021}
        outSlope: {x: 0, y: 0, z: 5.026385, w: 1.7158021}
        tangentMode: 0
      - time: 0.083333336
        value: {x: -0, y: -0, z: 0.40556034, w: -0.9140683}
        inSlope: {x: 0, y: 0, z: 4.8528514, w: 2.1530774}
        outSlope: {x: 0, y: 0, z: 4.8528514, w: 2.1530774}
        tangentMode: 0
      - time: 0.1
        value: {x: -0, y: -0, z: 0.48483965, w: -0.8746031}
        inSlope: {x: 0, y: 0, z: 4.6426816, w: 2.573689}
        outSlope: {x: 0, y: 0, z: 4.6426816, w: 2.573689}
        tangentMode: 0
      - time: 0.11666667
        value: {x: -0, y: -0, z: 0.5603164, w: -0.82827866}
        inSlope: {x: 0, y: 0, z: 4.3973303, w: 2.9747963}
        outSlope: {x: 0, y: 0, z: 4.3973303, w: 2.9747963}
        tangentMode: 0
      - time: 0.13333334
        value: {x: -0, y: -0, z: 0.63141733, w: -0.7754432}
        inSlope: {x: 0, y: 0, z: 4.118433, w: 3.353664}
        outSlope: {x: 0, y: 0, z: 4.118433, w: 3.353664}
        tangentMode: 0
      - time: 0.15
        value: {x: -0, y: -0, z: 0.6975975, w: -0.71648985}
        inSlope: {x: 0, y: 0, z: 3.8078108, w: 3.7076714}
        outSlope: {x: 0, y: 0, z: 3.8078108, w: 3.7076714}
        tangentMode: 0
      - time: 0.16666667
        value: {x: -0, y: -0, z: 0.75834435, w: -0.65185416}
        inSlope: {x: 0, y: 0, z: 3.4674726, w: 4.0343237}
        outSlope: {x: 0, y: 0, z: 3.4674726, w: 4.0343237}
        tangentMode: 0
      - time: 0.18333334
        value: {x: -0, y: -0, z: 0.8131799, w: -0.5820124}
        inSlope: {x: 0, y: 0, z: 3.0995913, w: 4.331251}
        outSlope: {x: 0, y: 0, z: 3.0995913, w: 4.331251}
        tangentMode: 0
      - time: 0.2
        value: {x: -0, y: -0, z: 0.86166406, w: -0.50747913}
        inSlope: {x: 0, y: 0, z: 2.706512, w: 4.5962167}
        outSlope: {x: 0, y: 0, z: 2.706512, w: 4.5962167}
        tangentMode: 0
      - time: 0.21666667
        value: {x: -0, y: -0, z: 0.90339696, w: -0.4288052}
        inSlope: {x: 0, y: 0, z: 2.2907586, w: 4.8271585}
        outSlope: {x: 0, y: 0, z: 2.2907586, w: 4.8271585}
        tangentMode: 0
      - time: 0.23333333
        value: {x: -0, y: -0, z: 0.9380227, w: -0.34657386}
        inSlope: {x: 0, y: 0, z: 1.8550053, w: 5.022147}
        outSlope: {x: 0, y: 0, z: 1.8550053, w: 5.022147}
        tangentMode: 0
      - time: 0.25
        value: {x: -0, y: -0, z: 0.96523046, w: -0.2614003}
        inSlope: {x: 0, y: 0, z: 1.4020796, w: 5.1794276}
        outSlope: {x: 0, y: 0, z: 1.4020796, w: 5.1794276}
        tangentMode: 0
      - time: 0.26666668
        value: {x: -0, y: -0, z: 0.9847587, w: -0.1739262}
        inSlope: {x: 0, y: 0, z: 0.93497974, w: 5.2974625}
        outSlope: {x: 0, y: 0, z: 0.93497974, w: 5.2974625}
        tangentMode: 0
      - time: 0.28333336
        value: {x: -0, y: -0, z: 0.9963965, w: -0.084818095}
        inSlope: {x: 0, y: 0, z: 0.4568281, w: 5.3748703}
        outSlope: {x: 0, y: 0, z: 0.4568281, w: 5.3748703}
        tangentMode: 0
      - time: 0.30000004
        value: {x: -0, y: -0, z: 0.9999863, w: 0.0052362876}
        inSlope: {x: 0, y: 0, z: -0.029103726, w: 5.4105053}
        outSlope: {x: 0, y: 0, z: -0.029103726, w: 5.4105053}
        tangentMode: 0
      - time: 0.31666672
        value: {x: -0, y: -0, z: 0.99542636, w: 0.09553222}
        inSlope: {x: 0, y: 0, z: -0.5192287, w: 5.402439}
        outSlope: {x: 0, y: 0, z: -0.5192287, w: 5.402439}
        tangentMode: 0
      - time: 0.3333334
        value: {x: -0, y: -0, z: 0.98267865, w: 0.18531775}
        inSlope: {x: 0, y: 0, z: -1.0093484, w: 5.348582}
        outSlope: {x: 0, y: 0, z: -1.0093484, w: 5.348582}
        tangentMode: 0
      - time: 0.35000008
        value: {x: -0, y: -0, z: 0.9617814, w: 0.27381843}
        inSlope: {x: 0, y: 0, z: -1.4948225, w: 5.2483215}
        outSlope: {x: 0, y: 0, z: -1.4948225, w: 5.2483215}
        tangentMode: 0
      - time: 0.36666676
        value: {x: -0, y: -0, z: 0.9328512, w: 0.36026195}
        inSlope: {x: 0, y: 0, z: -1.970957, w: 5.1020517}
        outSlope: {x: 0, y: 0, z: -1.970957, w: 5.1020517}
        tangentMode: 0
      - time: 0.38333344
        value: {x: -0, y: -0, z: 0.89608276, w: 0.44388697}
        inSlope: {x: 0, y: 0, z: -2.4330924, w: 4.910687}
        outSlope: {x: 0, y: 0, z: -2.4330924, w: 4.910687}
        tangentMode: 0
      - time: 0.40000013
        value: {x: -0, y: -0, z: 0.85174805, w: 0.52395165}
        inSlope: {x: 0, y: 0, z: -2.8766632, w: 4.675629}
        outSlope: {x: 0, y: 0, z: -2.8766632, w: 4.675629}
        tangentMode: 0
      - time: 0.4166668
        value: {x: -0, y: -0, z: 0.8001939, w: 0.5997414}
        inSlope: {x: 0, y: 0, z: -3.2972584, w: 4.398776}
        outSlope: {x: 0, y: 0, z: -3.2972584, w: 4.398776}
        tangentMode: 0
      - time: 0.4333335
        value: {x: -0, y: -0, z: 0.74183935, w: 0.67057765}
        inSlope: {x: 0, y: 0, z: -3.6906934, w: 4.0825334}
        outSlope: {x: 0, y: 0, z: -3.6906934, w: 4.0825334}
        tangentMode: 0
      - time: 0.45000017
        value: {x: -0, y: -0, z: 0.6771707, w: 0.73582596}
        inSlope: {x: 0, y: 0, z: -4.0530415, w: 3.7297282}
        outSlope: {x: 0, y: 0, z: -4.0530415, w: 3.7297282}
        tangentMode: 0
      - time: 0.46666685
        value: {x: -0, y: -0, z: 0.60673785, w: 0.794902}
        inSlope: {x: 0, y: 0, z: -4.3806925, w: 3.3435998}
        outSlope: {x: 0, y: 0, z: -4.3806925, w: 3.3435998}
        tangentMode: 0
      - time: 0.48333353
        value: {x: -0, y: -0, z: 0.5311475, w: 0.84727937}
        inSlope: {x: 0, y: 0, z: -4.670419, w: 2.9277902}
        outSlope: {x: 0, y: 0, z: -4.670419, w: 2.9277902}
        tangentMode: 0
      - time: 0.5000002
        value: {x: -0, y: -0, z: 0.45105723, w: 0.89249504}
        inSlope: {x: 0, y: 0, z: -4.919379, w: 2.4862564}
        outSlope: {x: 0, y: 0, z: -4.919379, w: 2.4862564}
        tangentMode: 0
      - time: 0.5166668
        value: {x: -0, y: -0, z: 0.36716834, w: 0.9301545}
        inSlope: {x: 0, y: 0, z: -5.1251993, w: 2.0232477}
        outSlope: {x: 0, y: 0, z: -5.1251993, w: 2.0232477}
        tangentMode: 0
      - time: 0.5333335
        value: {x: -0, y: -0, z: 0.2802174, w: 0.95993656}
        inSlope: {x: 0, y: 0, z: -5.2859964, w: 1.5432497}
        outSlope: {x: 0, y: 0, z: -5.2859964, w: 1.5432497}
        tangentMode: 0
      - time: 0.55000013
        value: {x: -0, y: -0, z: 0.19096862, w: 0.9815961}
        inSlope: {x: 0, y: 0, z: -5.400322, w: 1.050903}
        outSlope: {x: 0, y: 0, z: -5.400322, w: 1.050903}
        tangentMode: 0
      - time: 0.5666668
        value: {x: -0, y: -0, z: 0.10020686, w: 0.9949666}
        inSlope: {x: 0, y: 0, z: -5.4672985, w: 0.5509756}
        outSlope: {x: 0, y: 0, z: -5.4672985, w: 0.5509756}
        tangentMode: 0
      - time: 0.5833333
        value: {x: -0, y: -0, z: 0.00872616, w: 0.9999619}
        inSlope: {x: 0, y: 0, z: -5.488887, w: 0.29971963}
        outSlope: {x: 0, y: 0, z: -5.488887, w: 0.29971963}
        tangentMode: 0
      m_PreInfinity: 2
      m_PostInfinity: 2
      m_RotationOrder: 4
    path: Base/Lent_12/Whell2
  m_CompressedRotationCurves: []
  m_EulerCurves: []
  m_PositionCurves:
  - curve:
      serializedVersion: 2
      m_Curve:
      - time: 0
        value: {x: -1.867, y: -0.105000496, z: -0.0009999999}
        inSlope: {x: 0, y: 0, z: -0.0000003005511}
        outSlope: {x: 0, y: 0, z: -0.0000003005511}
        tangentMode: 0
      - time: 0.5833333
        value: {x: -1.867, y: -0.105000496, z: -0.0010001753}
        inSlope: {x: 0, y: 0, z: -0.0000003005511}
        outSlope: {x: 0, y: 0, z: -0.0000003005511}
        tangentMode: 0
      m_PreInfinity: 2
      m_PostInfinity: 2
      m_RotationOrder: 4
    path: Base/Lent_12/Whell1
  m_ScaleCurves:
  - curve:
      serializedVersion: 2
      m_Curve:
      - time: 0
        value: {x: 1, y: 1, z: 1}
        inSlope: {x: 1.2000003, y: 0, z: 0}
        outSlope: {x: 1.2000003, y: 0, z: 0}
        tangentMode: 0
      - time: 0.083333336
        value: {x: 1.1, y: 1, z: 1}
        inSlope: {x: 0, y: 0, z: 0}
        outSlope: {x: 0, y: 0, z: 0}
        tangentMode: 0
      - time: 0.16666667
        value: {x: 1, y: 1, z: 1}
        inSlope: {x: -0.60000014, y: 0.6000002, z: 0}
        outSlope: {x: -0.60000014, y: 0.6000002, z: 0}
        tangentMode: 0
      - time: 0.25
        value: {x: 1, y: 1.1, z: 1}
        inSlope: {x: 0, y: 0.00000011920929, z: 0}
        outSlope: {x: 0, y: 0.00000011920929, z: 0}
        tangentMode: 0
      - time: 0.33333334
        value: {x: 1, y: 1, z: 1}
        inSlope: {x: 0.29999977, y: -0.3000003, z: 0}
        outSlope: {x: 0.29999977, y: -0.3000003, z: 0}
        tangentMode: 0
      - time: 0.41666666
        value: {x: 1.05, y: 1.05, z: 1}
        inSlope: {x: 0.00000008940697, y: 0.00000008940697, z: 0}
        outSlope: {x: 0.00000008940697, y: 0.00000008940697, z: 0}
        tangentMode: 0
      - time: 0.5
        value: {x: 1, y: 1, z: 1}
        inSlope: {x: -0.29999968, y: 0.30000058, z: 0}
        outSlope: {x: -0.29999968, y: 0.30000058, z: 0}
        tangentMode: 0
      - time: 0.5833333
        value: {x: 1, y: 1.1, z: 1}
        inSlope: {x: 0, y: 1.2000005, z: 0}
        outSlope: {x: 0, y: 1.2000005, z: 0}
        tangentMode: 0
      m_PreInfinity: 2
      m_PostInfinity: 2
      m_RotationOrder: 4
    path: Base/Generator
  m_FloatCurves: []
  m_PPtrCurves:
  - curve:
    - time: 0
      value: {fileID: 21300000, guid: a8368547a2ccd51499f79944d8a9f2b5, type: 3}
    - time: 0.083333336
      value: {fileID: 21300002, guid: a8368547a2ccd51499f79944d8a9f2b5, type: 3}
    - time: 0.16666667
      value: {fileID: 21300004, guid: a8368547a2ccd51499f79944d8a9f2b5, type: 3}
    - time: 0.25
      value: {fileID: 21300006, guid: a8368547a2ccd51499f79944d8a9f2b5, type: 3}
    - time: 0.33333334
      value: {fileID: 21300008, guid: a8368547a2ccd51499f79944d8a9f2b5, type: 3}
    - time: 0.41666666
      value: {fileID: 21300010, guid: a8368547a2ccd51499f79944d8a9f2b5, type: 3}
    - time: 0.5
      value: {fileID: 21300012, guid: a8368547a2ccd51499f79944d8a9f2b5, type: 3}
    - time: 0.5833333
      value: {fileID: 21300014, guid: a8368547a2ccd51499f79944d8a9f2b5, type: 3}
    attribute: m_Sprite
    path: Base/Lent_12/MovementPart
    classID: 212
    script: {fileID: 0}
  m_SampleRate: 60
  m_WrapMode: 0
  m_Bounds:
    m_Center: {x: 0, y: 0, z: 0}
    m_Extent: {x: 0, y: 0, z: 0}
  m_ClipBindingConstant:
    genericBindings:
    - path: 1451029906
      attribute: 2
      script: {fileID: 0}
      classID: 4
      customType: 0
      isPPtrCurve: 0
    - path: 3480593448
      attribute: 2
      script: {fileID: 0}
      classID: 4
      customType: 0
      isPPtrCurve: 0
    - path: 3227424030
      attribute: 3
      script: {fileID: 0}
      classID: 4
      customType: 0
      isPPtrCurve: 0
    - path: 1789656501
      attribute: 0
      script: {fileID: 0}
      classID: 212
      customType: 23
      isPPtrCurve: 1
    - path: 1451029906
      attribute: 1
      script: {fileID: 0}
      classID: 4
      customType: 0
      isPPtrCurve: 0
    pptrCurveMapping:
    - {fileID: 21300000, guid: a8368547a2ccd51499f79944d8a9f2b5, type: 3}
    - {fileID: 21300002, guid: a8368547a2ccd51499f79944d8a9f2b5, type: 3}
    - {fileID: 21300004, guid: a8368547a2ccd51499f79944d8a9f2b5, type: 3}
    - {fileID: 21300006, guid: a8368547a2ccd51499f79944d8a9f2b5, type: 3}
    - {fileID: 21300008, guid: a8368547a2ccd51499f79944d8a9f2b5, type: 3}
    - {fileID: 21300010, guid: a8368547a2ccd51499f79944d8a9f2b5, type: 3}
    - {fileID: 21300012, guid: a8368547a2ccd51499f79944d8a9f2b5, type: 3}
    - {fileID: 21300014, guid: a8368547a2ccd51499f79944d8a9f2b5, type: 3}
  m_AnimationClipSettings:
    serializedVersion: 2
    m_AdditiveReferencePoseClip: {fileID: 0}
    m_AdditiveReferencePoseTime: 0
    m_StartTime: 0
    m_StopTime: 0.59999996
    m_OrientationOffsetY: 0
    m_Level: 0
    m_CycleOffset: 0
    m_HasAdditiveReferencePose: 0
    m_LoopTime: 1
    m_LoopBlend: 0
    m_LoopBlendOrientation: 0
    m_LoopBlendPositionY: 0
    m_LoopBlendPositionXZ: 0
    m_KeepOriginalOrientation: 0
    m_KeepOriginalPositionY: 1
    m_KeepOriginalPositionXZ: 0
    m_HeightFromFeet: 0
    m_Mirror: 0
  m_EditorCurves:
  - curve:
      serializedVersion: 2
      m_Curve:
      - time: 0
        value: 1
        inSlope: 1.2000003
        outSlope: 1.2000003
        tangentMode: 10
      - time: 0.083333336
        value: 1.1
        inSlope: 0
        outSlope: 0
        tangentMode: 10
      - time: 0.16666667
        value: 1
        inSlope: -0.60000014
        outSlope: -0.60000014
        tangentMode: 10
      - time: 0.25
        value: 1
        inSlope: 0
        outSlope: 0
        tangentMode: 10
      - time: 0.33333334
        value: 1
        inSlope: 0.29999977
        outSlope: 0.29999977
        tangentMode: 10
      - time: 0.41666666
        value: 1.05
        inSlope: 0.00000008940697
        outSlope: 0.00000008940697
        tangentMode: 10
      - time: 0.5
        value: 1
        inSlope: -0.29999968
        outSlope: -0.29999968
        tangentMode: 10
      - time: 0.5833333
        value: 1
        inSlope: 0
        outSlope: 0
        tangentMode: 10
      m_PreInfinity: 2
      m_PostInfinity: 2
      m_RotationOrder: 4
    attribute: m_LocalScale.x
    path: Base/Generator
    classID: 4
    script: {fileID: 0}
  - curve:
      serializedVersion: 2
      m_Curve:
      - time: 0
        value: 1
        inSlope: 0
        outSlope: 0
        tangentMode: 10
      - time: 0.083333336
        value: 1
        inSlope: 0
        outSlope: 0
        tangentMode: 10
      - time: 0.16666667
        value: 1
        inSlope: 0.6000002
        outSlope: 0.6000002
        tangentMode: 10
      - time: 0.25
        value: 1.1
        inSlope: 0.00000011920929
        outSlope: 0.00000011920929
        tangentMode: 10
      - time: 0.33333334
        value: 1
        inSlope: -0.3000003
        outSlope: -0.3000003
        tangentMode: 10
      - time: 0.41666666
        value: 1.05
        inSlope: 0.00000008940697
        outSlope: 0.00000008940697
        tangentMode: 10
      - time: 0.5
        value: 1
        inSlope: 0.30000058
        outSlope: 0.30000058
        tangentMode: 10
      - time: 0.5833333
        value: 1.1
        inSlope: 1.2000005
        outSlope: 1.2000005
        tangentMode: 10
      m_PreInfinity: 2
      m_PostInfinity: 2
      m_RotationOrder: 4
    attribute: m_LocalScale.y
    path: Base/Generator
    classID: 4
    script: {fileID: 0}
  - curve:
      serializedVersion: 2
      m_Curve:
      - time: 0
        value: 1
        inSlope: 0
        outSlope: 0
        tangentMode: 10
      - time: 0.083333336
        value: 1
        inSlope: 0
        outSlope: 0
        tangentMode: 10
      - time: 0.16666667
        value: 1
        inSlope: 0
        outSlope: 0
        tangentMode: 10
      - time: 0.25
        value: 1
        inSlope: 0
        outSlope: 0
        tangentMode: 10
      - time: 0.33333334
        value: 1
        inSlope: 0
        outSlope: 0
        tangentMode: 10
      - time: 0.41666666
        value: 1
        inSlope: 0
        outSlope: 0
        tangentMode: 10
      - time: 0.5
        value: 1
        inSlope: 0
        outSlope: 0
        tangentMode: 10
      - time: 0.5833333
        value: 1
        inSlope: 0
        outSlope: 0
        tangentMode: 10
      m_PreInfinity: 2
      m_PostInfinity: 2
      m_RotationOrder: 4
    attribute: m_LocalScale.z
    path: Base/Generator
    classID: 4
    script: {fileID: 0}
  - curve:
      serializedVersion: 2
      m_Curve:
      - time: 0
        value: -1.867
        inSlope: 0
        outSlope: 0
        tangentMode: 10
      - time: 0.5833333
        value: -1.867
        inSlope: 0
        outSlope: 0
        tangentMode: 10
      m_PreInfinity: 2
      m_PostInfinity: 2
      m_RotationOrder: 4
    attribute: m_LocalPosition.x
    path: Base/Lent_12/Whell1
    classID: 4
    script: {fileID: 0}
  - curve:
      serializedVersion: 2
      m_Curve:
      - time: 0
        value: -0.105000496
        inSlope: 0
        outSlope: 0
        tangentMode: 10
      - time: 0.5833333
        value: -0.105000496
        inSlope: 0
        outSlope: 0
        tangentMode: 10
      m_PreInfinity: 2
      m_PostInfinity: 2
      m_RotationOrder: 4
    attribute: m_LocalPosition.y
    path: Base/Lent_12/Whell1
    classID: 4
    script: {fileID: 0}
  - curve:
      serializedVersion: 2
      m_Curve:
      - time: 0
        value: -0.0009999999
        inSlope: -0.0000003005511
        outSlope: -0.0000003005511
        tangentMode: 10
      - time: 0.5833333
        value: -0.0010001753
        inSlope: -0.0000003005511
        outSlope: -0.0000003005511
        tangentMode: 10
      m_PreInfinity: 2
      m_PostInfinity: 2
      m_RotationOrder: 4
    attribute: m_LocalPosition.z
    path: Base/Lent_12/Whell1
    classID: 4
    script: {fileID: 0}
  - curve:
      serializedVersion: 2
      m_Curve:
      - time: 0
        value: -0
        inSlope: 0
        outSlope: 0
        tangentMode: 0
      - time: 0.016666668
        value: -0
        inSlope: 0
        outSlope: 0
        tangentMode: 0
      - time: 0.033333335
        value: -0
        inSlope: 0
        outSlope: 0
        tangentMode: 0
      - time: 0.050000004
        value: -0
        inSlope: 0
        outSlope: 0
        tangentMode: 0
      - time: 0.06666667
        value: -0
        inSlope: 0
        outSlope: 0
        tangentMode: 0
      - time: 0.083333336
        value: -0
        inSlope: 0
        outSlope: 0
        tangentMode: 0
      - time: 0.1
        value: -0
        inSlope: 0
        outSlope: 0
        tangentMode: 0
      - time: 0.11666667
        value: -0
        inSlope: 0
        outSlope: 0
        tangentMode: 0
      - time: 0.13333334
        value: -0
        inSlope: 0
        outSlope: 0
        tangentMode: 0
      - time: 0.15
        value: -0
        inSlope: 0
        outSlope: 0
        tangentMode: 0
      - time: 0.16666667
        value: -0
        inSlope: 0
        outSlope: 0
        tangentMode: 0
      - time: 0.18333334
        value: -0
        inSlope: 0
        outSlope: 0
        tangentMode: 0
      - time: 0.2
        value: -0
        inSlope: 0
        outSlope: 0
        tangentMode: 0
      - time: 0.21666667
        value: -0
        inSlope: 0
        outSlope: 0
        tangentMode: 0
      - time: 0.23333333
        value: -0
        inSlope: 0
        outSlope: 0
        tangentMode: 0
      - time: 0.25
        value: -0
        inSlope: 0
        outSlope: 0
        tangentMode: 0
      - time: 0.26666668
        value: -0
        inSlope: 0
        outSlope: 0
        tangentMode: 0
      - time: 0.28333336
        value: -0
        inSlope: 0
        outSlope: 0
        tangentMode: 0
      - time: 0.30000004
        value: -0
        inSlope: 0
        outSlope: 0
        tangentMode: 0
      - time: 0.31666672
        value: -0
        inSlope: 0
        outSlope: 0
        tangentMode: 0
      - time: 0.3333334
        value: -0
        inSlope: 0
        outSlope: 0
        tangentMode: 0
      - time: 0.35000008
        value: -0
        inSlope: 0
        outSlope: 0
        tangentMode: 0
      - time: 0.36666676
        value: -0
        inSlope: 0
        outSlope: 0
        tangentMode: 0
      - time: 0.38333344
        value: -0
        inSlope: 0
        outSlope: 0
        tangentMode: 0
      - time: 0.40000013
        value: -0
        inSlope: 0
        outSlope: 0
        tangentMode: 0
      - time: 0.4166668
        value: -0
        inSlope: 0
        outSlope: 0
        tangentMode: 0
      - time: 0.4333335
        value: -0
        inSlope: 0
        outSlope: 0
        tangentMode: 0
      - time: 0.45000017
        value: -0
        inSlope: 0
        outSlope: 0
        tangentMode: 0
      - time: 0.46666685
        value: -0
        inSlope: 0
        outSlope: 0
        tangentMode: 0
      - time: 0.48333353
        value: -0
        inSlope: 0
        outSlope: 0
        tangentMode: 0
      - time: 0.5000002
        value: -0
        inSlope: 0
        outSlope: 0
        tangentMode: 0
      - time: 0.5166668
        value: -0
        inSlope: 0
        outSlope: 0
        tangentMode: 0
      - time: 0.5333335
        value: -0
        inSlope: 0
        outSlope: 0
        tangentMode: 0
      - time: 0.55000013
        value: -0
        inSlope: 0
        outSlope: 0
        tangentMode: 0
      - time: 0.5666668
        value: -0
        inSlope: 0
        outSlope: 0
        tangentMode: 0
      - time: 0.5833333
        value: -0
        inSlope: 0
        outSlope: 0
        tangentMode: 0
      m_PreInfinity: 2
      m_PostInfinity: 2
      m_RotationOrder: 4
    attribute: m_LocalRotation.x
    path: Base/Lent_12/Whell1
    classID: 4
    script: {fileID: 0}
  - curve:
      serializedVersion: 2
      m_Curve:
      - time: 0
        value: -0
        inSlope: 0
        outSlope: 0
        tangentMode: 0
      - time: 0.016666668
        value: -0
        inSlope: 0
        outSlope: 0
        tangentMode: 0
      - time: 0.033333335
        value: -0
        inSlope: 0
        outSlope: 0
        tangentMode: 0
      - time: 0.050000004
        value: -0
        inSlope: 0
        outSlope: 0
        tangentMode: 0
      - time: 0.06666667
        value: -0
        inSlope: 0
        outSlope: 0
        tangentMode: 0
      - time: 0.083333336
        value: -0
        inSlope: 0
        outSlope: 0
        tangentMode: 0
      - time: 0.1
        value: -0
        inSlope: 0
        outSlope: 0
        tangentMode: 0
      - time: 0.11666667
        value: -0
        inSlope: 0
        outSlope: 0
        tangentMode: 0
      - time: 0.13333334
        value: -0
        inSlope: 0
        outSlope: 0
        tangentMode: 0
      - time: 0.15
        value: -0
        inSlope: 0
        outSlope: 0
        tangentMode: 0
      - time: 0.16666667
        value: -0
        inSlope: 0
        outSlope: 0
        tangentMode: 0
      - time: 0.18333334
        value: -0
        inSlope: 0
        outSlope: 0
        tangentMode: 0
      - time: 0.2
        value: -0
        inSlope: 0
        outSlope: 0
        tangentMode: 0
      - time: 0.21666667
        value: -0
        inSlope: 0
        outSlope: 0
        tangentMode: 0
      - time: 0.23333333
        value: -0
        inSlope: 0
        outSlope: 0
        tangentMode: 0
      - time: 0.25
        value: -0
        inSlope: 0
        outSlope: 0
        tangentMode: 0
      - time: 0.26666668
        value: -0
        inSlope: 0
        outSlope: 0
        tangentMode: 0
      - time: 0.28333336
        value: -0
        inSlope: 0
        outSlope: 0
        tangentMode: 0
      - time: 0.30000004
        value: -0
        inSlope: 0
        outSlope: 0
        tangentMode: 0
      - time: 0.31666672
        value: -0
        inSlope: 0
        outSlope: 0
        tangentMode: 0
      - time: 0.3333334
        value: -0
        inSlope: 0
        outSlope: 0
        tangentMode: 0
      - time: 0.35000008
        value: -0
        inSlope: 0
        outSlope: 0
        tangentMode: 0
      - time: 0.36666676
        value: -0
        inSlope: 0
        outSlope: 0
        tangentMode: 0
      - time: 0.38333344
        value: -0
        inSlope: 0
        outSlope: 0
        tangentMode: 0
      - time: 0.40000013
        value: -0
        inSlope: 0
        outSlope: 0
        tangentMode: 0
      - time: 0.4166668
        value: -0
        inSlope: 0
        outSlope: 0
        tangentMode: 0
      - time: 0.4333335
        value: -0
        inSlope: 0
        outSlope: 0
        tangentMode: 0
      - time: 0.45000017
        value: -0
        inSlope: 0
        outSlope: 0
        tangentMode: 0
      - time: 0.46666685
        value: -0
        inSlope: 0
        outSlope: 0
        tangentMode: 0
      - time: 0.48333353
        value: -0
        inSlope: 0
        outSlope: 0
        tangentMode: 0
      - time: 0.5000002
        value: -0
        inSlope: 0
        outSlope: 0
        tangentMode: 0
      - time: 0.5166668
        value: -0
        inSlope: 0
        outSlope: 0
        tangentMode: 0
      - time: 0.5333335
        value: -0
        inSlope: 0
        outSlope: 0
        tangentMode: 0
      - time: 0.55000013
        value: -0
        inSlope: 0
        outSlope: 0
        tangentMode: 0
      - time: 0.5666668
        value: -0
        inSlope: 0
        outSlope: 0
        tangentMode: 0
      - time: 0.5833333
        value: -0
        inSlope: 0
        outSlope: 0
        tangentMode: 0
      m_PreInfinity: 2
      m_PostInfinity: 2
      m_RotationOrder: 4
    attribute: m_LocalRotation.y
    path: Base/Lent_12/Whell1
    classID: 4
    script: {fileID: 0}
  - curve:
      serializedVersion: 2
      m_Curve:
      - time: 0
        value: 0.0047968677
        inSlope: 5.222926
        outSlope: 5.222926
        tangentMode: 0
      - time: 0.016666668
        value: 0.09184565
        inSlope: 5.1961393
        outSlope: 5.1961393
        tangentMode: 0
      - time: 0.033333335
        value: 0.17800152
        inSlope: 5.124381
        outSlope: 5.124381
        tangentMode: 0
      - time: 0.050000004
        value: 0.26265836
        inSlope: 5.016696
        outSlope: 5.016696
        tangentMode: 0
      - time: 0.06666667
        value: 0.34522474
        inSlope: 4.874022
        outSlope: 4.874022
        tangentMode: 0
      - time: 0.083333336
        value: 0.42512575
        inSlope: 4.697394
        outSlope: 4.697394
        tangentMode: 0
      - time: 0.1
        value: 0.50180453
        inSlope: 4.4879413
        outSlope: 4.4879413
        tangentMode: 0
      - time: 0.11666667
        value: 0.5747238
        inSlope: 4.2468967
        outSlope: 4.2468967
        tangentMode: 0
      - time: 0.13333334
        value: 0.64336777
        inSlope: 3.9755838
        outSlope: 3.9755838
        tangentMode: 0
      - time: 0.15
        value: 0.70724326
        inSlope: 3.6754348
        outSlope: 3.6754348
        tangentMode: 0
      - time: 0.16666667
        value: 0.76588225
        inSlope: 3.347989
        outSlope: 3.347989
        tangentMode: 0
      - time: 0.18333334
        value: 0.8188429
        inSlope: 2.9948869
        outSlope: 2.9948869
        tangentMode: 0
      - time: 0.2
        value: 0.8657118
        inSlope: 2.617899
        outSlope: 2.617899
        tangentMode: 0
      - time: 0.21666667
        value: 0.9061062
        inSlope: 2.2189238
        outSlope: 2.2189238
        tangentMode: 0
      - time: 0.23333333
        value: 0.9396759
        inSlope: 1.799993
        outSlope: 1.799993
        tangentMode: 0
      - time: 0.25
        value: 0.96610594
        inSlope: 1.3632824
        outSlope: 1.3632824
        tangentMode: 0
      - time: 0.26666668
        value: 0.9851187
        inSlope: 0.91112775
        outSlope: 0.91112775
        tangentMode: 0
      - time: 0.28333336
        value: 0.9964769
        inSlope: 0.44602773
        outSlope: 0.44602773
        tangentMode: 0
      - time: 0.30000004
        value: 0.9999863
        inSlope: -0.029341549
        outSlope: -0.029341549
        tangentMode: 0
      - time: 0.31666672
        value: 0.99549884
        inSlope: -0.51180613
        outSlope: -0.51180613
        tangentMode: 0
      - time: 0.3333334
        value: 0.9829261
        inSlope: -0.9971837
        outSlope: -0.9971837
        tangentMode: 0
      - time: 0.35000008
        value: 0.96225935
        inSlope: -1.4805496
        outSlope: -1.4805496
        tangentMode: 0
      - time: 0.36666676
        value: 0.9335744
        inSlope: -1.9568111
        outSlope: -1.9568111
        tangentMode: 0
      - time: 0.38333344
        value: 0.89703226
        inSlope: -2.4208722
        outSlope: -2.4208722
        tangentMode: 0
      - time: 0.40000013
        value: 0.8528786
        inSlope: -2.8676975
        outSlope: -2.8676975
        tangentMode: 0
      - time: 0.4166668
        value: 0.80144227
        inSlope: -3.292398
        outSlope: -3.292398
        tangentMode: 0
      - time: 0.4333335
        value: 0.7431319
        inSlope: -3.6903071
        outSlope: -3.6903071
        tangentMode: 0
      - time: 0.45000017
        value: 0.6784319
        inSlope: -4.0570364
        outSlope: -4.0570364
        tangentMode: 0
      - time: 0.46666685
        value: 0.6078972
        inSlope: -4.388566
        outSlope: -4.388566
        tangentMode: 0
      - time: 0.48333353
        value: 0.5321463
        inSlope: -4.68128
        outSlope: -4.68128
        tangentMode: 0
      - time: 0.5000002
        value: 0.45185456
        inSlope: -4.9320545
        outSlope: -4.9320545
        tangentMode: 0
      - time: 0.5166668
        value: 0.36774462
        inSlope: -5.138313
        outSlope: -5.138313
        tangentMode: 0
      - time: 0.5333335
        value: 0.28057763
        inSlope: -5.2980127
        outSlope: -5.2980127
        tangentMode: 0
      - time: 0.55000013
        value: 0.19114438
        inSlope: -5.4096975
        outSlope: -5.4096975
        tangentMode: 0
      - time: 0.5666668
        value: 0.10025454
        inSlope: -5.4725714
        outSlope: -5.4725714
        tangentMode: 0
      - time: 0.5833333
        value: 0.00872616
        inSlope: -5.491748
        outSlope: -5.491748
        tangentMode: 0
      m_PreInfinity: 2
      m_PostInfinity: 2
      m_RotationOrder: 4
    attribute: m_LocalRotation.z
    path: Base/Lent_12/Whell1
    classID: 4
    script: {fileID: 0}
  - curve:
      serializedVersion: 2
      m_Curve:
      - time: 0
        value: -0.9999885
        inSlope: 0.25291443
        outSlope: 0.25291443
        tangentMode: 0
      - time: 0.016666668
        value: -0.99577326
        inSlope: 0.47874925
        outSlope: 0.47874925
        tangentMode: 0
      - time: 0.033333335
        value: -0.9840302
        inSlope: 0.92653143
        outSlope: 0.92653143
        tangentMode: 0
      - time: 0.050000004
        value: -0.9648889
        inSlope: 1.3653033
        outSlope: 1.3653033
        tangentMode: 0
      - time: 0.06666667
        value: -0.9385201
        inSlope: 1.7926366
        outSlope: 1.7926366
        tangentMode: 0
      - time: 0.083333336
        value: -0.9051343
        inSlope: 2.2061708
        outSlope: 2.2061708
        tangentMode: 0
      - time: 0.1
        value: -0.86498106
        inSlope: 2.6036062
        outSlope: 2.6036062
        tangentMode: 0
      - time: 0.11666667
        value: -0.81834745
        inSlope: 2.9827125
        outSlope: 2.9827125
        tangentMode: 0
      - time: 0.13333334
        value: -0.7655573
        inSlope: 3.3413148
        outSlope: 3.3413148
        tangentMode: 0
      - time: 0.15
        value: -0.7069703
        inSlope: 3.6772945
        outSlope: 3.6772945
        tangentMode: 0
      - time: 0.16666667
        value: -0.6429808
        inSlope: 3.9885757
        outSlope: 3.9885757
        tangentMode: 0
      - time: 0.18333334
        value: -0.57401776
        inSlope: 4.27314
        outSlope: 4.27314
        tangentMode: 0
      - time: 0.2
        value: -0.5005428
        inSlope: 4.529022
        outSlope: 4.529022
        tangentMode: 0
      - time: 0.21666667
        value: -0.42305037
        inSlope: 4.7543025
        outSlope: 4.7543025
        tangentMode: 0
      - time: 0.23333333
        value: -0.34206608
        inSlope: 4.947133
        outSlope: 4.947133
        tangentMode: 0
      - time: 0.25
        value: -0.25814596
        inSlope: 5.1057205
        outSlope: 5.1057205
        tangentMode: 0
      - time: 0.26666668
        value: -0.17187534
        inSlope: 5.2283363
        outSlope: 5.2283363
        tangentMode: 0
      - time: 0.28333336
        value: -0.08386794
        inSlope: 5.3133445
        outSlope: 5.3133445
        tangentMode: 0
      - time: 0.30000004
        value: 0.0052362876
        inSlope: 5.359237
        outSlope: 5.359237
        tangentMode: 0
      - time: 0.31666672
        value: 0.09477346
        inSlope: 5.362937
        outSlope: 5.362937
        tangentMode: 0
      - time: 0.3333334
        value: 0.18400101
        inSlope: 5.320815
        outSlope: 5.320815
        tangentMode: 0
      - time: 0.35000008
        value: 0.2721341
        inSlope: 5.231474
        outSlope: 5.231474
        tangentMode: 0
      - time: 0.36666676
        value: 0.35838363
        inSlope: 5.094926
        outSlope: 5.094926
        tangentMode: 0
      - time: 0.38333344
        value: 0.4419651
        inSlope: 4.911767
        outSlope: 4.911767
        tangentMode: 0
      - time: 0.40000013
        value: 0.5221093
        inSlope: 4.6832066
        outSlope: 4.6832066
        tangentMode: 0
      - time: 0.4166668
        value: 0.5980721
        inSlope: 4.411066
        outSlope: 4.411066
        tangentMode: 0
      - time: 0.4333335
        value: 0.669145
        inSlope: 4.0977306
        outSlope: 4.0977306
        tangentMode: 0
      - time: 0.45000017
        value: 0.73466325
        inSlope: 3.7461185
        outSlope: 3.7461185
        tangentMode: 0
      - time: 0.46666685
        value: 0.7940157
        inSlope: 3.3596733
        outSlope: 3.3596733
        tangentMode: 0
      - time: 0.48333353
        value: 0.84665245
        inSlope: 2.942278
        outSlope: 2.942278
        tangentMode: 0
      - time: 0.5000002
        value: 0.89209163
        inSlope: 2.4982333
        outSlope: 2.4982333
        tangentMode: 0
      - time: 0.5166668
        value: 0.9299268
        inSlope: 2.0321937
        outSlope: 2.0321937
        tangentMode: 0
      - time: 0.5333335
        value: 0.95983136
        inSlope: 1.5490558
        outSlope: 1.5490558
        tangentMode: 0
      - time: 0.55000013
        value: 0.98156196
        inSlope: 1.0539142
        outSlope: 1.0539142
        tangentMode: 0
      - time: 0.5666668
        value: 0.9949618
        inSlope: 0.5520002
        outSlope: 0.5520002
        tangentMode: 0
      - time: 0.5833333
        value: 0.9999619
        inSlope: 0.3000093
        outSlope: 0.3000093
        tangentMode: 0
      m_PreInfinity: 2
      m_PostInfinity: 2
      m_RotationOrder: 4
    attribute: m_LocalRotation.w
    path: Base/Lent_12/Whell1
    classID: 4
    script: {fileID: 0}
  - curve:
      serializedVersion: 2
      m_Curve:
      - time: 0
        value: -0
        inSlope: 0
        outSlope: 0
        tangentMode: 0
      - time: 0.016666668
        value: -0
        inSlope: 0
        outSlope: 0
        tangentMode: 0
      - time: 0.033333335
        value: -0
        inSlope: 0
        outSlope: 0
        tangentMode: 0
      - time: 0.050000004
        value: -0
        inSlope: 0
        outSlope: 0
        tangentMode: 0
      - time: 0.06666667
        value: -0
        inSlope: 0
        outSlope: 0
        tangentMode: 0
      - time: 0.083333336
        value: -0
        inSlope: 0
        outSlope: 0
        tangentMode: 0
      - time: 0.1
        value: -0
        inSlope: 0
        outSlope: 0
        tangentMode: 0
      - time: 0.11666667
        value: -0
        inSlope: 0
        outSlope: 0
        tangentMode: 0
      - time: 0.13333334
        value: -0
        inSlope: 0
        outSlope: 0
        tangentMode: 0
      - time: 0.15
        value: -0
        inSlope: 0
        outSlope: 0
        tangentMode: 0
      - time: 0.16666667
        value: -0
        inSlope: 0
        outSlope: 0
        tangentMode: 0
      - time: 0.18333334
        value: -0
        inSlope: 0
        outSlope: 0
        tangentMode: 0
      - time: 0.2
        value: -0
        inSlope: 0
        outSlope: 0
        tangentMode: 0
      - time: 0.21666667
        value: -0
        inSlope: 0
        outSlope: 0
        tangentMode: 0
      - time: 0.23333333
        value: -0
        inSlope: 0
        outSlope: 0
        tangentMode: 0
      - time: 0.25
        value: -0
        inSlope: 0
        outSlope: 0
        tangentMode: 0
      - time: 0.26666668
        value: -0
        inSlope: 0
        outSlope: 0
        tangentMode: 0
      - time: 0.28333336
        value: -0
        inSlope: 0
        outSlope: 0
        tangentMode: 0
      - time: 0.30000004
        value: -0
        inSlope: 0
        outSlope: 0
        tangentMode: 0
      - time: 0.31666672
        value: -0
        inSlope: 0
        outSlope: 0
        tangentMode: 0
      - time: 0.3333334
        value: -0
        inSlope: 0
        outSlope: 0
        tangentMode: 0
      - time: 0.35000008
        value: -0
        inSlope: 0
        outSlope: 0
        tangentMode: 0
      - time: 0.36666676
        value: -0
        inSlope: 0
        outSlope: 0
        tangentMode: 0
      - time: 0.38333344
        value: -0
        inSlope: 0
        outSlope: 0
        tangentMode: 0
      - time: 0.40000013
        value: -0
        inSlope: 0
        outSlope: 0
        tangentMode: 0
      - time: 0.4166668
        value: -0
        inSlope: 0
        outSlope: 0
        tangentMode: 0
      - time: 0.4333335
        value: -0
        inSlope: 0
        outSlope: 0
        tangentMode: 0
      - time: 0.45000017
        value: -0
        inSlope: 0
        outSlope: 0
        tangentMode: 0
      - time: 0.46666685
        value: -0
        inSlope: 0
        outSlope: 0
        tangentMode: 0
      - time: 0.48333353
        value: -0
        inSlope: 0
        outSlope: 0
        tangentMode: 0
      - time: 0.5000002
        value: -0
        inSlope: 0
        outSlope: 0
        tangentMode: 0
      - time: 0.5166668
        value: -0
        inSlope: 0
        outSlope: 0
        tangentMode: 0
      - time: 0.5333335
        value: -0
        inSlope: 0
        outSlope: 0
        tangentMode: 0
      - time: 0.55000013
        value: -0
        inSlope: 0
        outSlope: 0
        tangentMode: 0
      - time: 0.5666668
        value: -0
        inSlope: 0
        outSlope: 0
        tangentMode: 0
      - time: 0.5833333
        value: -0
        inSlope: 0
        outSlope: 0
        tangentMode: 0
      m_PreInfinity: 2
      m_PostInfinity: 2
      m_RotationOrder: 4
    attribute: m_LocalRotation.x
    path: Base/Lent_12/Whell2
    classID: 4
    script: {fileID: 0}
  - curve:
      serializedVersion: 2
      m_Curve:
      - time: 0
        value: -0
        inSlope: 0
        outSlope: 0
        tangentMode: 0
      - time: 0.016666668
        value: -0
        inSlope: 0
        outSlope: 0
        tangentMode: 0
      - time: 0.033333335
        value: -0
        inSlope: 0
        outSlope: 0
        tangentMode: 0
      - time: 0.050000004
        value: -0
        inSlope: 0
        outSlope: 0
        tangentMode: 0
      - time: 0.06666667
        value: -0
        inSlope: 0
        outSlope: 0
        tangentMode: 0
      - time: 0.083333336
        value: -0
        inSlope: 0
        outSlope: 0
        tangentMode: 0
      - time: 0.1
        value: -0
        inSlope: 0
        outSlope: 0
        tangentMode: 0
      - time: 0.11666667
        value: -0
        inSlope: 0
        outSlope: 0
        tangentMode: 0
      - time: 0.13333334
        value: -0
        inSlope: 0
        outSlope: 0
        tangentMode: 0
      - time: 0.15
        value: -0
        inSlope: 0
        outSlope: 0
        tangentMode: 0
      - time: 0.16666667
        value: -0
        inSlope: 0
        outSlope: 0
        tangentMode: 0
      - time: 0.18333334
        value: -0
        inSlope: 0
        outSlope: 0
        tangentMode: 0
      - time: 0.2
        value: -0
        inSlope: 0
        outSlope: 0
        tangentMode: 0
      - time: 0.21666667
        value: -0
        inSlope: 0
        outSlope: 0
        tangentMode: 0
      - time: 0.23333333
        value: -0
        inSlope: 0
        outSlope: 0
        tangentMode: 0
      - time: 0.25
        value: -0
        inSlope: 0
        outSlope: 0
        tangentMode: 0
      - time: 0.26666668
        value: -0
        inSlope: 0
        outSlope: 0
        tangentMode: 0
      - time: 0.28333336
        value: -0
        inSlope: 0
        outSlope: 0
        tangentMode: 0
      - time: 0.30000004
        value: -0
        inSlope: 0
        outSlope: 0
        tangentMode: 0
      - time: 0.31666672
        value: -0
        inSlope: 0
        outSlope: 0
        tangentMode: 0
      - time: 0.3333334
        value: -0
        inSlope: 0
        outSlope: 0
        tangentMode: 0
      - time: 0.35000008
        value: -0
        inSlope: 0
        outSlope: 0
        tangentMode: 0
      - time: 0.36666676
        value: -0
        inSlope: 0
        outSlope: 0
        tangentMode: 0
      - time: 0.38333344
        value: -0
        inSlope: 0
        outSlope: 0
        tangentMode: 0
      - time: 0.40000013
        value: -0
        inSlope: 0
        outSlope: 0
        tangentMode: 0
      - time: 0.4166668
        value: -0
        inSlope: 0
        outSlope: 0
        tangentMode: 0
      - time: 0.4333335
        value: -0
        inSlope: 0
        outSlope: 0
        tangentMode: 0
      - time: 0.45000017
        value: -0
        inSlope: 0
        outSlope: 0
        tangentMode: 0
      - time: 0.46666685
        value: -0
        inSlope: 0
        outSlope: 0
        tangentMode: 0
      - time: 0.48333353
        value: -0
        inSlope: 0
        outSlope: 0
        tangentMode: 0
      - time: 0.5000002
        value: -0
        inSlope: 0
        outSlope: 0
        tangentMode: 0
      - time: 0.5166668
        value: -0
        inSlope: 0
        outSlope: 0
        tangentMode: 0
      - time: 0.5333335
        value: -0
        inSlope: 0
        outSlope: 0
        tangentMode: 0
      - time: 0.55000013
        value: -0
        inSlope: 0
        outSlope: 0
        tangentMode: 0
      - time: 0.5666668
        value: -0
        inSlope: 0
        outSlope: 0
        tangentMode: 0
      - time: 0.5833333
        value: -0
        inSlope: 0
        outSlope: 0
        tangentMode: 0
      m_PreInfinity: 2
      m_PostInfinity: 2
      m_RotationOrder: 4
    attribute: m_LocalRotation.y
    path: Base/Lent_12/Whell2
    classID: 4
    script: {fileID: 0}
  - curve:
      serializedVersion: 2
      m_Curve:
      - time: 0
        value: -0.026176952
        inSlope: 5.334017
        outSlope: 5.334017
        tangentMode: 0
      - time: 0.016666668
        value: 0.06272333
        inSlope: 5.315616
        outSlope: 5.315616
        tangentMode: 0
      - time: 0.033333335
        value: 0.15101026
        inSlope: 5.258725
        outSlope: 5.258725
        tangentMode: 0
      - time: 0.050000004
        value: 0.23801419
        inSlope: 5.16203
        outSlope: 5.16203
        tangentMode: 0
      - time: 0.06666667
        value: 0.32307795
        inSlope: 5.026385
        outSlope: 5.026385
        tangentMode: 0
      - time: 0.083333336
        value: 0.40556034
        inSlope: 4.8528514
        outSlope: 4.8528514
        tangentMode: 0
      - time: 0.1
        value: 0.48483965
        inSlope: 4.6426816
        outSlope: 4.6426816
        tangentMode: 0
      - time: 0.11666667
        value: 0.5603164
        inSlope: 4.3973303
        outSlope: 4.3973303
        tangentMode: 0
      - time: 0.13333334
        value: 0.63141733
        inSlope: 4.118433
        outSlope: 4.118433
        tangentMode: 0
      - time: 0.15
        value: 0.6975975
        inSlope: 3.8078108
        outSlope: 3.8078108
        tangentMode: 0
      - time: 0.16666667
        value: 0.75834435
        inSlope: 3.4674726
        outSlope: 3.4674726
        tangentMode: 0
      - time: 0.18333334
        value: 0.8131799
        inSlope: 3.0995913
        outSlope: 3.0995913
        tangentMode: 0
      - time: 0.2
        value: 0.86166406
        inSlope: 2.706512
        outSlope: 2.706512
        tangentMode: 0
      - time: 0.21666667
        value: 0.90339696
        inSlope: 2.2907586
        outSlope: 2.2907586
        tangentMode: 0
      - time: 0.23333333
        value: 0.9380227
        inSlope: 1.8550053
        outSlope: 1.8550053
        tangentMode: 0
      - time: 0.25
        value: 0.96523046
        inSlope: 1.4020796
        outSlope: 1.4020796
        tangentMode: 0
      - time: 0.26666668
        value: 0.9847587
        inSlope: 0.93497974
        outSlope: 0.93497974
        tangentMode: 0
      - time: 0.28333336
        value: 0.9963965
        inSlope: 0.4568281
        outSlope: 0.4568281
        tangentMode: 0
      - time: 0.30000004
        value: 0.9999863
        inSlope: -0.029103726
        outSlope: -0.029103726
        tangentMode: 0
      - time: 0.31666672
        value: 0.99542636
        inSlope: -0.5192287
        outSlope: -0.5192287
        tangentMode: 0
      - time: 0.3333334
        value: 0.98267865
        inSlope: -1.0093484
        outSlope: -1.0093484
        tangentMode: 0
      - time: 0.35000008
        value: 0.9617814
        inSlope: -1.4948225
        outSlope: -1.4948225
        tangentMode: 0
      - time: 0.36666676
        value: 0.9328512
        inSlope: -1.970957
        outSlope: -1.970957
        tangentMode: 0
      - time: 0.38333344
        value: 0.89608276
        inSlope: -2.4330924
        outSlope: -2.4330924
        tangentMode: 0
      - time: 0.40000013
        value: 0.85174805
        inSlope: -2.8766632
        outSlope: -2.8766632
        tangentMode: 0
      - time: 0.4166668
        value: 0.8001939
        inSlope: -3.2972584
        outSlope: -3.2972584
        tangentMode: 0
      - time: 0.4333335
        value: 0.74183935
        inSlope: -3.6906934
        outSlope: -3.6906934
        tangentMode: 0
      - time: 0.45000017
        value: 0.6771707
        inSlope: -4.0530415
        outSlope: -4.0530415
        tangentMode: 0
      - time: 0.46666685
        value: 0.60673785
        inSlope: -4.3806925
        outSlope: -4.3806925
        tangentMode: 0
      - time: 0.48333353
        value: 0.5311475
        inSlope: -4.670419
        outSlope: -4.670419
        tangentMode: 0
      - time: 0.5000002
        value: 0.45105723
        inSlope: -4.919379
        outSlope: -4.919379
        tangentMode: 0
      - time: 0.5166668
        value: 0.36716834
        inSlope: -5.1251993
        outSlope: -5.1251993
        tangentMode: 0
      - time: 0.5333335
        value: 0.2802174
        inSlope: -5.2859964
        outSlope: -5.2859964
        tangentMode: 0
      - time: 0.55000013
        value: 0.19096862
        inSlope: -5.400322
        outSlope: -5.400322
        tangentMode: 0
      - time: 0.5666668
        value: 0.10020686
        inSlope: -5.4672985
        outSlope: -5.4672985
        tangentMode: 0
      - time: 0.5833333
        value: 0.00872616
        inSlope: -5.488887
        outSlope: -5.488887
        tangentMode: 0
      m_PreInfinity: 2
      m_PostInfinity: 2
      m_RotationOrder: 4
    attribute: m_LocalRotation.z
    path: Base/Lent_12/Whell2
    classID: 4
    script: {fileID: 0}
  - curve:
      serializedVersion: 2
      m_Curve:
      - time: 0
        value: -0.99965733
        inSlope: 0.09758233
        outSlope: 0.09758233
        tangentMode: 0
      - time: 0.016666668
        value: -0.99803096
        inSlope: 0.33375442
        outSlope: 0.33375442
        tangentMode: 0
      - time: 0.033333335
        value: -0.9885322
        inSlope: 0.80307835
        outSlope: 0.80307835
        tangentMode: 0
      - time: 0.050000004
        value: -0.9712617
        inSlope: 1.2647957
        outSlope: 1.2647957
        tangentMode: 0
      - time: 0.06666667
        value: -0.94637233
        inSlope: 1.7158021
        outSlope: 1.7158021
        tangentMode: 0
      - time: 0.083333336
        value: -0.9140683
        inSlope: 2.1530774
        outSlope: 2.1530774
        tangentMode: 0
      - time: 0.1
        value: -0.8746031
        inSlope: 2.573689
        outSlope: 2.573689
        tangentMode: 0
      - time: 0.11666667
        value: -0.82827866
        inSlope: 2.9747963
        outSlope: 2.9747963
        tangentMode: 0
      - time: 0.13333334
        value: -0.7754432
        inSlope: 3.353664
        outSlope: 3.353664
        tangentMode: 0
      - time: 0.15
        value: -0.71648985
        inSlope: 3.7076714
        outSlope: 3.7076714
        tangentMode: 0
      - time: 0.16666667
        value: -0.65185416
        inSlope: 4.0343237
        outSlope: 4.0343237
        tangentMode: 0
      - time: 0.18333334
        value: -0.5820124
        inSlope: 4.331251
        outSlope: 4.331251
        tangentMode: 0
      - time: 0.2
        value: -0.50747913
        inSlope: 4.5962167
        outSlope: 4.5962167
        tangentMode: 0
      - time: 0.21666667
        value: -0.4288052
        inSlope: 4.8271585
        outSlope: 4.8271585
        tangentMode: 0
      - time: 0.23333333
        value: -0.34657386
        inSlope: 5.022147
        outSlope: 5.022147
        tangentMode: 0
      - time: 0.25
        value: -0.2614003
        inSlope: 5.1794276
        outSlope: 5.1794276
        tangentMode: 0
      - time: 0.26666668
        value: -0.1739262
        inSlope: 5.2974625
        outSlope: 5.2974625
        tangentMode: 0
      - time: 0.28333336
        value: -0.084818095
        inSlope: 5.3748703
        outSlope: 5.3748703
        tangentMode: 0
      - time: 0.30000004
        value: 0.0052362876
        inSlope: 5.4105053
        outSlope: 5.4105053
        tangentMode: 0
      - time: 0.31666672
        value: 0.09553222
        inSlope: 5.402439
        outSlope: 5.402439
        tangentMode: 0
      - time: 0.3333334
        value: 0.18531775
        inSlope: 5.348582
        outSlope: 5.348582
        tangentMode: 0
      - time: 0.35000008
        value: 0.27381843
        inSlope: 5.2483215
        outSlope: 5.2483215
        tangentMode: 0
      - time: 0.36666676
        value: 0.36026195
        inSlope: 5.1020517
        outSlope: 5.1020517
        tangentMode: 0
      - time: 0.38333344
        value: 0.44388697
        inSlope: 4.910687
        outSlope: 4.910687
        tangentMode: 0
      - time: 0.40000013
        value: 0.52395165
        inSlope: 4.675629
        outSlope: 4.675629
        tangentMode: 0
      - time: 0.4166668
        value: 0.5997414
        inSlope: 4.398776
        outSlope: 4.398776
        tangentMode: 0
      - time: 0.4333335
        value: 0.67057765
        inSlope: 4.0825334
        outSlope: 4.0825334
        tangentMode: 0
      - time: 0.45000017
        value: 0.73582596
        inSlope: 3.7297282
        outSlope: 3.7297282
        tangentMode: 0
      - time: 0.46666685
        value: 0.794902
        inSlope: 3.3435998
        outSlope: 3.3435998
        tangentMode: 0
      - time: 0.48333353
        value: 0.84727937
        inSlope: 2.9277902
        outSlope: 2.9277902
        tangentMode: 0
      - time: 0.5000002
        value: 0.89249504
        inSlope: 2.4862564
        outSlope: 2.4862564
        tangentMode: 0
      - time: 0.5166668
        value: 0.9301545
        inSlope: 2.0232477
        outSlope: 2.0232477
        tangentMode: 0
      - time: 0.5333335
        value: 0.95993656
        inSlope: 1.5432497
        outSlope: 1.5432497
        tangentMode: 0
      - time: 0.55000013
        value: 0.9815961
        inSlope: 1.050903
        outSlope: 1.050903
        tangentMode: 0
      - time: 0.5666668
        value: 0.9949666
        inSlope: 0.5509756
        outSlope: 0.5509756
        tangentMode: 0
      - time: 0.5833333
        value: 0.9999619
        inSlope: 0.29971963
        outSlope: 0.29971963
        tangentMode: 0
      m_PreInfinity: 2
      m_PostInfinity: 2
      m_RotationOrder: 4
    attribute: m_LocalRotation.w
    path: Base/Lent_12/Whell2
    classID: 4
    script: {fileID: 0}
  m_EulerEditorCurves:
  - curve:
      serializedVersion: 2
      m_Curve:
      - time: 0
        value: 0
        inSlope: 0
        outSlope: 0
        tangentMode: 10
      - time: 0.3
        value: 0
        inSlope: 0
        outSlope: 0
        tangentMode: 10
      - time: 0.5833333
        value: 0
        inSlope: 0
        outSlope: 0
        tangentMode: 10
      m_PreInfinity: 2
      m_PostInfinity: 2
      m_RotationOrder: 4
    attribute: localEulerAnglesBaked.x
    path: Base/Lent_12/Whell1
    classID: 4
    script: {fileID: 0}
  - curve:
      serializedVersion: 2
      m_Curve:
      - time: 0
        value: 0
        inSlope: 0
        outSlope: 0
        tangentMode: 10
      - time: 0.3
        value: 0
        inSlope: 0
        outSlope: 0
        tangentMode: 10
      - time: 0.5833333
        value: 0
        inSlope: 0
        outSlope: 0
        tangentMode: 10
      m_PreInfinity: 2
      m_PostInfinity: 2
      m_RotationOrder: 4
    attribute: localEulerAnglesBaked.y
    path: Base/Lent_12/Whell1
    classID: 4
    script: {fileID: 0}
  - curve:
      serializedVersion: 2
      m_Curve:
      - time: 0
        value: -0.5496826
        inSlope: -600.1677
        outSlope: -600.1677
        tangentMode: 10
      - time: 0.3
        value: -180.6
        inSlope: -614.9074
        outSlope: -614.9074
        tangentMode: 10
      - time: 0.5833333
        value: -359
        inSlope: -629.6471
        outSlope: -629.6471
        tangentMode: 10
      m_PreInfinity: 2
      m_PostInfinity: 2
      m_RotationOrder: 4
    attribute: localEulerAnglesBaked.z
    path: Base/Lent_12/Whell1
    classID: 4
    script: {fileID: 0}
  - curve:
      serializedVersion: 2
      m_Curve:
      - time: 0
        value: 0
        inSlope: 0
        outSlope: 0
        tangentMode: 10
      - time: 0.3
        value: 0
        inSlope: 0
        outSlope: 0
        tangentMode: 10
      - time: 0.5833333
        value: 0
        inSlope: 0
        outSlope: 0
        tangentMode: 10
      m_PreInfinity: 2
      m_PostInfinity: 2
      m_RotationOrder: 4
    attribute: localEulerAnglesBaked.x
    path: Base/Lent_12/Whell2
    classID: 4
    script: {fileID: 0}
  - curve:
      serializedVersion: 2
      m_Curve:
      - time: 0
        value: 0
        inSlope: 0
        outSlope: 0
        tangentMode: 10
      - time: 0.3
        value: 0
        inSlope: 0
        outSlope: 0
        tangentMode: 10
      - time: 0.5833333
        value: 0
        inSlope: 0
        outSlope: 0
        tangentMode: 10
      m_PreInfinity: 2
      m_PostInfinity: 2
      m_RotationOrder: 4
    attribute: localEulerAnglesBaked.y
    path: Base/Lent_12/Whell2
    classID: 4
    script: {fileID: 0}
  - curve:
      serializedVersion: 2
      m_Curve:
      - time: 0
        value: 3
        inSlope: -612
        outSlope: -612
        tangentMode: 10
      - time: 0.3
        value: -180.6
        inSlope: -620.82355
        outSlope: -620.82355
        tangentMode: 10
      - time: 0.5833333
        value: -359
        inSlope: -629.6471
        outSlope: -629.6471
        tangentMode: 10
      m_PreInfinity: 2
      m_PostInfinity: 2
      m_RotationOrder: 4
    attribute: localEulerAnglesBaked.z
    path: Base/Lent_12/Whell2
    classID: 4
    script: {fileID: 0}
  m_HasGenericRootTransform: 0
  m_HasMotionFloatCurves: 0
  m_GenerateMotionCurves: 0
  m_Events: []
