%YAML 1.1
%TAG !u! tag:unity3d.com,2011:
--- !u!74 &7400000
AnimationClip:
  m_ObjectHideFlags: 0
  m_PrefabParentObject: {fileID: 0}
  m_PrefabInternal: {fileID: 0}
  m_Name: exit
  serializedVersion: 6
  m_Legacy: 0
  m_Compressed: 0
  m_UseHighQualityCurve: 1
  m_RotationCurves: []
  m_CompressedRotationCurves: []
  m_EulerCurves:
  - curve:
      serializedVersion: 2
      m_Curve:
      - time: 1
        value: {x: -0, y: 0, z: 0}
        inSlope: {x: 0, y: 0, z: 60.00001}
        outSlope: {x: 0, y: 0, z: 60.00001}
        tangentMode: 0
      - time: 4
        value: {x: -0, y: 0, z: 180.00003}
        inSlope: {x: 0, y: 0, z: 60.00001}
        outSlope: {x: 0, y: 0, z: 60.00001}
        tangentMode: 0
      m_PreInfinity: 2
      m_PostInfinity: 2
      m_RotationOrder: 4
    path: blue-factory exit_2/blue-factory exit_1
  m_PositionCurves:
  - curve:
      serializedVersion: 2
      m_Curve:
      - time: 1
        value: {x: -0.013999939, y: 0.11100006, z: -0.02}
        inSlope: {x: 0.37813944, y: -0.24139543, z: 0}
        outSlope: {x: 0.37813944, y: -0.24139543, z: 0}
        tangentMode: 0
      - time: 1.7166667
        value: {x: 0.257, y: -0.062, z: -0.02}
        inSlope: {x: 0.21587823, y: -0.1889956, z: 0}
        outSlope: {x: 0.21587823, y: -0.1889956, z: 0}
        tangentMode: 0
      - time: 2.5
        value: {x: 0.299, y: -0.169, z: -0.02}
        inSlope: {x: -0.018524816, y: -0.18829788, z: 0}
        outSlope: {x: -0.018524816, y: -0.18829788, z: 0}
        tangentMode: 0
      - time: 3.25
        value: {x: 0.231, y: -0.349, z: -0.02}
        inSlope: {x: -0.19, y: -0.20000002, z: 0}
        outSlope: {x: -0.19, y: -0.20000002, z: 0}
        tangentMode: 0
      - time: 4
        value: {x: 0.014, y: -0.469, z: -0.02}
        inSlope: {x: -0.28933334, y: -0.16000001, z: 0}
        outSlope: {x: -0.28933334, y: -0.16000001, z: 0}
        tangentMode: 0
      m_PreInfinity: 2
      m_PostInfinity: 2
      m_RotationOrder: 4
    path: blue-factory exit_2/blue-factory exit_1
  - curve:
      serializedVersion: 2
      m_Curve:
      - time: 5.483333
        value: {x: 0, y: 0, z: 0}
        inSlope: {x: 0, y: 2.5153205, z: 0}
        outSlope: {x: 0, y: 2.5153205, z: 0}
        tangentMode: 0
      - time: 11.466666
        value: {x: 0, y: 15.05, z: 0}
        inSlope: {x: 0, y: 2.5153205, z: 0}
        outSlope: {x: 0, y: 2.5153205, z: 0}
        tangentMode: 0
      m_PreInfinity: 2
      m_PostInfinity: 2
      m_RotationOrder: 4
    path: blue-factory exit_0
  - curve:
      serializedVersion: 2
      m_Curve:
      - time: 6.5
        value: {x: 3.540001, y: 1.2600002, z: -0.01}
        inSlope: {x: -0.6972069, y: 0, z: 0}
        outSlope: {x: -0.6972069, y: 0, z: 0}
        tangentMode: 0
      - time: 9.483334
        value: {x: 1.46, y: 1.2600002, z: -0.01}
        inSlope: {x: -0.6972069, y: 0, z: 0}
        outSlope: {x: -0.6972069, y: 0, z: 0}
        tangentMode: 0
      m_PreInfinity: 2
      m_PostInfinity: 2
      m_RotationOrder: 4
    path: blue-factory exit_2/blue-factory exit_3
  - curve:
      serializedVersion: 2
      m_Curve:
      - time: 6.5
        value: {x: -3.550003, y: 1.2399998, z: -0.01}
        inSlope: {x: 0.7340791, y: 0, z: 0}
        outSlope: {x: 0.7340791, y: 0, z: 0}
        tangentMode: 0
      - time: 9.483334
        value: {x: -1.36, y: 1.2399998, z: -0.01}
        inSlope: {x: 0.7340791, y: 0, z: 0}
        outSlope: {x: 0.7340791, y: 0, z: 0}
        tangentMode: 0
      m_PreInfinity: 2
      m_PostInfinity: 2
      m_RotationOrder: 4
    path: blue-factory exit_2/blue-factory exit_4
  m_ScaleCurves:
  - curve:
      serializedVersion: 2
      m_Curve:
      - time: 0
        value: {x: 1, y: 1, z: 1}
        inSlope: {x: 0, y: 0, z: 0}
        outSlope: {x: 0, y: 0, z: 0}
        tangentMode: 0
      - time: 0.33333334
        value: {x: 1, y: 1, z: 1}
        inSlope: {x: 0.029999973, y: 0.029999973, z: 0.029999973}
        outSlope: {x: 0.029999973, y: 0.029999973, z: 0.029999973}
        tangentMode: 0
      - time: 0.5
        value: {x: 1.01, y: 1.01, z: 1.01}
        inSlope: {x: 0.059999947, y: 0.059999947, z: 0.059999947}
        outSlope: {x: 0.059999947, y: 0.059999947, z: 0.059999947}
        tangentMode: 0
      m_PreInfinity: 2
      m_PostInfinity: 2
      m_RotationOrder: 4
    path: blue-factory exit_2/blue-factory exit_1
  m_FloatCurves: []
  m_PPtrCurves: []
  m_SampleRate: 60
  m_WrapMode: 0
  m_Bounds:
    m_Center: {x: 0, y: 0, z: 0}
    m_Extent: {x: 0, y: 0, z: 0}
  m_ClipBindingConstant:
    genericBindings:
    - path: 1634963404
      attribute: 1
      script: {fileID: 0}
      classID: 4
      customType: 0
      isPPtrCurve: 0
    - path: 841660821
      attribute: 1
      script: {fileID: 0}
      classID: 4
      customType: 0
      isPPtrCurve: 0
    - path: 2407395040
      attribute: 1
      script: {fileID: 0}
      classID: 4
      customType: 0
      isPPtrCurve: 0
    - path: 286882627
      attribute: 1
      script: {fileID: 0}
      classID: 4
      customType: 0
      isPPtrCurve: 0
    - path: 1634963404
      attribute: 4
      script: {fileID: 0}
      classID: 4
      customType: 14
      isPPtrCurve: 0
    - path: 1634963404
      attribute: 3
      script: {fileID: 0}
      classID: 4
      customType: 0
      isPPtrCurve: 0
    pptrCurveMapping: []
  m_AnimationClipSettings:
    serializedVersion: 2
    m_AdditiveReferencePoseClip: {fileID: 0}
    m_AdditiveReferencePoseTime: 0
    m_StartTime: 0
    m_StopTime: 11.466666
    m_OrientationOffsetY: 0
    m_Level: 0
    m_CycleOffset: 0
    m_HasAdditiveReferencePose: 0
    m_LoopTime: 0
    m_LoopBlend: 0
    m_LoopBlendOrientation: 0
    m_LoopBlendPositionY: 0
    m_LoopBlendPositionXZ: 0
    m_KeepOriginalOrientation: 0
    m_KeepOriginalPositionY: 1
    m_KeepOriginalPositionXZ: 0
    m_HeightFromFeet: 0
    m_Mirror: 0
  m_EditorCurves:
  - curve:
      serializedVersion: 2
      m_Curve:
      - time: 0
        value: 1
        inSlope: 0
        outSlope: 0
        tangentMode: 10
      - time: 0.33333334
        value: 1
        inSlope: 0.029999973
        outSlope: 0.029999973
        tangentMode: 10
      - time: 0.5
        value: 1.01
        inSlope: 0.059999947
        outSlope: 0.059999947
        tangentMode: 10
      m_PreInfinity: 2
      m_PostInfinity: 2
      m_RotationOrder: 4
    attribute: m_LocalScale.x
    path: blue-factory exit_2/blue-factory exit_1
    classID: 4
    script: {fileID: 0}
  - curve:
      serializedVersion: 2
      m_Curve:
      - time: 0
        value: 1
        inSlope: 0
        outSlope: 0
        tangentMode: 10
      - time: 0.33333334
        value: 1
        inSlope: 0.029999973
        outSlope: 0.029999973
        tangentMode: 10
      - time: 0.5
        value: 1.01
        inSlope: 0.059999947
        outSlope: 0.059999947
        tangentMode: 10
      m_PreInfinity: 2
      m_PostInfinity: 2
      m_RotationOrder: 4
    attribute: m_LocalScale.y
    path: blue-factory exit_2/blue-factory exit_1
    classID: 4
    script: {fileID: 0}
  - curve:
      serializedVersion: 2
      m_Curve:
      - time: 0
        value: 1
        inSlope: 0
        outSlope: 0
        tangentMode: 10
      - time: 0.33333334
        value: 1
        inSlope: 0.029999973
        outSlope: 0.029999973
        tangentMode: 10
      - time: 0.5
        value: 1.01
        inSlope: 0.059999947
        outSlope: 0.059999947
        tangentMode: 10
      m_PreInfinity: 2
      m_PostInfinity: 2
      m_RotationOrder: 4
    attribute: m_LocalScale.z
    path: blue-factory exit_2/blue-factory exit_1
    classID: 4
    script: {fileID: 0}
  - curve:
      serializedVersion: 2
      m_Curve:
      - time: 1
        value: -0
        inSlope: 0
        outSlope: 0
        tangentMode: 10
      - time: 4
        value: -0
        inSlope: 0
        outSlope: 0
        tangentMode: 10
      m_PreInfinity: 2
      m_PostInfinity: 2
      m_RotationOrder: 4
    attribute: localEulerAnglesRaw.x
    path: blue-factory exit_2/blue-factory exit_1
    classID: 4
    script: {fileID: 0}
  - curve:
      serializedVersion: 2
      m_Curve:
      - time: 1
        value: 0
        inSlope: 0
        outSlope: 0
        tangentMode: 10
      - time: 4
        value: 0
        inSlope: 0
        outSlope: 0
        tangentMode: 10
      m_PreInfinity: 2
      m_PostInfinity: 2
      m_RotationOrder: 4
    attribute: localEulerAnglesRaw.y
    path: blue-factory exit_2/blue-factory exit_1
    classID: 4
    script: {fileID: 0}
  - curve:
      serializedVersion: 2
      m_Curve:
      - time: 1
        value: 0
        inSlope: 60.00001
        outSlope: 60.00001
        tangentMode: 10
      - time: 4
        value: 180.00003
        inSlope: 60.00001
        outSlope: 60.00001
        tangentMode: 10
      m_PreInfinity: 2
      m_PostInfinity: 2
      m_RotationOrder: 4
    attribute: localEulerAnglesRaw.z
    path: blue-factory exit_2/blue-factory exit_1
    classID: 4
    script: {fileID: 0}
  - curve:
      serializedVersion: 2
      m_Curve:
      - time: 1
        value: -0.013999939
        inSlope: 0.37813944
        outSlope: 0.37813944
        tangentMode: 10
      - time: 1.7166667
        value: 0.257
        inSlope: 0.21587823
        outSlope: 0.21587823
        tangentMode: 10
      - time: 2.5
        value: 0.299
        inSlope: -0.018524816
        outSlope: -0.018524816
        tangentMode: 10
      - time: 3.25
        value: 0.231
        inSlope: -0.19
        outSlope: -0.19
        tangentMode: 10
      - time: 4
        value: 0.014
        inSlope: -0.28933334
        outSlope: -0.28933334
        tangentMode: 10
      m_PreInfinity: 2
      m_PostInfinity: 2
      m_RotationOrder: 4
    attribute: m_LocalPosition.x
    path: blue-factory exit_2/blue-factory exit_1
    classID: 4
    script: {fileID: 0}
  - curve:
      serializedVersion: 2
      m_Curve:
      - time: 1
        value: 0.11100006
        inSlope: -0.24139543
        outSlope: -0.24139543
        tangentMode: 10
      - time: 1.7166667
        value: -0.062
        inSlope: -0.1889956
        outSlope: -0.1889956
        tangentMode: 10
      - time: 2.5
        value: -0.169
        inSlope: -0.18829788
        outSlope: -0.18829788
        tangentMode: 10
      - time: 3.25
        value: -0.349
        inSlope: -0.20000002
        outSlope: -0.20000002
        tangentMode: 10
      - time: 4
        value: -0.469
        inSlope: -0.16000001
        outSlope: -0.16000001
        tangentMode: 10
      m_PreInfinity: 2
      m_PostInfinity: 2
      m_RotationOrder: 4
    attribute: m_LocalPosition.y
    path: blue-factory exit_2/blue-factory exit_1
    classID: 4
    script: {fileID: 0}
  - curve:
      serializedVersion: 2
      m_Curve:
      - time: 1
        value: -0.02
        inSlope: 0
        outSlope: 0
        tangentMode: 10
      - time: 1.7166667
        value: -0.02
        inSlope: 0
        outSlope: 0
        tangentMode: 10
      - time: 2.5
        value: -0.02
        inSlope: 0
        outSlope: 0
        tangentMode: 10
      - time: 3.25
        value: -0.02
        inSlope: 0
        outSlope: 0
        tangentMode: 10
      - time: 4
        value: -0.02
        inSlope: 0
        outSlope: 0
        tangentMode: 10
      m_PreInfinity: 2
      m_PostInfinity: 2
      m_RotationOrder: 4
    attribute: m_LocalPosition.z
    path: blue-factory exit_2/blue-factory exit_1
    classID: 4
    script: {fileID: 0}
  - curve:
      serializedVersion: 2
      m_Curve:
      - time: 5.483333
        value: 0
        inSlope: 0
        outSlope: 0
        tangentMode: 10
      - time: 11.466666
        value: 0
        inSlope: 0
        outSlope: 0
        tangentMode: 10
      m_PreInfinity: 2
      m_PostInfinity: 2
      m_RotationOrder: 4
    attribute: m_LocalPosition.x
    path: blue-factory exit_0
    classID: 4
    script: {fileID: 0}
  - curve:
      serializedVersion: 2
      m_Curve:
      - time: 5.483333
        value: 0
        inSlope: 2.5153205
        outSlope: 2.5153205
        tangentMode: 10
      - time: 11.466666
        value: 15.05
        inSlope: 2.5153205
        outSlope: 2.5153205
        tangentMode: 10
      m_PreInfinity: 2
      m_PostInfinity: 2
      m_RotationOrder: 4
    attribute: m_LocalPosition.y
    path: blue-factory exit_0
    classID: 4
    script: {fileID: 0}
  - curve:
      serializedVersion: 2
      m_Curve:
      - time: 5.483333
        value: 0
        inSlope: 0
        outSlope: 0
        tangentMode: 10
      - time: 11.466666
        value: 0
        inSlope: 0
        outSlope: 0
        tangentMode: 10
      m_PreInfinity: 2
      m_PostInfinity: 2
      m_RotationOrder: 4
    attribute: m_LocalPosition.z
    path: blue-factory exit_0
    classID: 4
    script: {fileID: 0}
  - curve:
      serializedVersion: 2
      m_Curve:
      - time: 6.5
        value: 3.540001
        inSlope: -0.6972069
        outSlope: -0.6972069
        tangentMode: 10
      - time: 9.483334
        value: 1.46
        inSlope: -0.6972069
        outSlope: -0.6972069
        tangentMode: 10
      m_PreInfinity: 2
      m_PostInfinity: 2
      m_RotationOrder: 4
    attribute: m_LocalPosition.x
    path: blue-factory exit_2/blue-factory exit_3
    classID: 4
    script: {fileID: 0}
  - curve:
      serializedVersion: 2
      m_Curve:
      - time: 6.5
        value: 1.2600002
        inSlope: 0
        outSlope: 0
        tangentMode: 10
      - time: 9.483334
        value: 1.2600002
        inSlope: 0
        outSlope: 0
        tangentMode: 10
      m_PreInfinity: 2
      m_PostInfinity: 2
      m_RotationOrder: 4
    attribute: m_LocalPosition.y
    path: blue-factory exit_2/blue-factory exit_3
    classID: 4
    script: {fileID: 0}
  - curve:
      serializedVersion: 2
      m_Curve:
      - time: 6.5
        value: -0.01
        inSlope: 0
        outSlope: 0
        tangentMode: 10
      - time: 9.483334
        value: -0.01
        inSlope: 0
        outSlope: 0
        tangentMode: 10
      m_PreInfinity: 2
      m_PostInfinity: 2
      m_RotationOrder: 4
    attribute: m_LocalPosition.z
    path: blue-factory exit_2/blue-factory exit_3
    classID: 4
    script: {fileID: 0}
  - curve:
      serializedVersion: 2
      m_Curve:
      - time: 6.5
        value: -3.550003
        inSlope: 0.7340791
        outSlope: 0.7340791
        tangentMode: 10
      - time: 9.483334
        value: -1.36
        inSlope: 0.7340791
        outSlope: 0.7340791
        tangentMode: 10
      m_PreInfinity: 2
      m_PostInfinity: 2
      m_RotationOrder: 4
    attribute: m_LocalPosition.x
    path: blue-factory exit_2/blue-factory exit_4
    classID: 4
    script: {fileID: 0}
  - curve:
      serializedVersion: 2
      m_Curve:
      - time: 6.5
        value: 1.2399998
        inSlope: 0
        outSlope: 0
        tangentMode: 10
      - time: 9.483334
        value: 1.2399998
        inSlope: 0
        outSlope: 0
        tangentMode: 10
      m_PreInfinity: 2
      m_PostInfinity: 2
      m_RotationOrder: 4
    attribute: m_LocalPosition.y
    path: blue-factory exit_2/blue-factory exit_4
    classID: 4
    script: {fileID: 0}
  - curve:
      serializedVersion: 2
      m_Curve:
      - time: 6.5
        value: -0.01
        inSlope: 0
        outSlope: 0
        tangentMode: 10
      - time: 9.483334
        value: -0.01
        inSlope: 0
        outSlope: 0
        tangentMode: 10
      m_PreInfinity: 2
      m_PostInfinity: 2
      m_RotationOrder: 4
    attribute: m_LocalPosition.z
    path: blue-factory exit_2/blue-factory exit_4
    classID: 4
    script: {fileID: 0}
  m_EulerEditorCurves:
  - curve:
      serializedVersion: 2
      m_Curve: []
      m_PreInfinity: 2
      m_PostInfinity: 2
      m_RotationOrder: 4
    attribute: m_LocalEulerAngles.x
    path: blue-factory exit_2/blue-factory exit_1
    classID: 4
    script: {fileID: 0}
  - curve:
      serializedVersion: 2
      m_Curve: []
      m_PreInfinity: 2
      m_PostInfinity: 2
      m_RotationOrder: 4
    attribute: m_LocalEulerAngles.y
    path: blue-factory exit_2/blue-factory exit_1
    classID: 4
    script: {fileID: 0}
  - curve:
      serializedVersion: 2
      m_Curve: []
      m_PreInfinity: 2
      m_PostInfinity: 2
      m_RotationOrder: 4
    attribute: m_LocalEulerAngles.z
    path: blue-factory exit_2/blue-factory exit_1
    classID: 4
    script: {fileID: 0}
  m_HasGenericRootTransform: 0
  m_HasMotionFloatCurves: 0
  m_GenerateMotionCurves: 0
  m_Events: []
