%YAML 1.1
%TAG !u! tag:unity3d.com,2011:
--- !u!74 &7400000
AnimationClip:
  m_ObjectHideFlags: 0
  m_PrefabParentObject: {fileID: 0}
  m_PrefabInternal: {fileID: 0}
  m_Name: ladderUp
  serializedVersion: 6
  m_Legacy: 0
  m_Compressed: 0
  m_UseHighQualityCurve: 1
  m_RotationCurves: []
  m_CompressedRotationCurves: []
  m_EulerCurves: []
  m_PositionCurves:
  - curve:
      serializedVersion: 2
      m_Curve:
      - time: 0
        value: {x: 0.796, y: 0.284, z: -0.14038277}
        inSlope: {x: -0.28199995, y: -1.227, z: 0}
        outSlope: {x: -0.28199995, y: -1.227, z: 0}
        tangentMode: 0
      - time: 0.33333334
        value: {x: 0.702, y: -0.125, z: -0.14038277}
        inSlope: {x: -0.2925, y: 1.1715001, z: 0}
        outSlope: {x: -0.2925, y: 1.1715001, z: 0}
        tangentMode: 0
      - time: 0.6666667
        value: {x: 0.601, y: 1.065, z: -0.14038277}
        inSlope: {x: -0.028499983, y: 0.6329999, z: 0}
        outSlope: {x: -0.028499983, y: 0.6329999, z: 0}
        tangentMode: 0
      - time: 1
        value: {x: 0.683, y: 0.297, z: -0.14038277}
        inSlope: {x: 0.2925, y: -1.1715002, z: 0}
        outSlope: {x: 0.2925, y: -1.1715002, z: 0}
        tangentMode: 0
      - time: 1.3333334
        value: {x: 0.796, y: 0.284, z: -0.14038277}
        inSlope: {x: 0.3389999, y: -0.03899994, z: 0}
        outSlope: {x: 0.3389999, y: -0.03899994, z: 0}
        tangentMode: 0
      m_PreInfinity: 2
      m_PostInfinity: 2
      m_RotationOrder: 4
    path: IK/Right_Arm_IK
  - curve:
      serializedVersion: 2
      m_Curve:
      - time: 0
        value: {x: 0.395, y: 0.921, z: -0.14}
        inSlope: {x: -0.039000034, y: -1.341, z: 0}
        outSlope: {x: -0.039000034, y: -1.341, z: 0}
        tangentMode: 0
      - time: 0.33333334
        value: {x: 0.382, y: 0.474, z: -0.14}
        inSlope: {x: -0.1425, y: -1.2179999, z: 0}
        outSlope: {x: -0.1425, y: -1.2179999, z: 0}
        tangentMode: 0
      - time: 0.6666667
        value: {x: 0.3, y: 0.109, z: -0.14}
        inSlope: {x: -0.028499983, y: 0.8310001, z: 0}
        outSlope: {x: -0.028499983, y: 0.8310001, z: 0}
        tangentMode: 0
      - time: 1
        value: {x: 0.363, y: 1.028, z: -0.14}
        inSlope: {x: 0.1425, y: 1.2180002, z: 0}
        outSlope: {x: 0.1425, y: 1.2180002, z: 0}
        tangentMode: 0
      - time: 1.3333334
        value: {x: 0.395, y: 0.921, z: -0.14}
        inSlope: {x: 0.096, y: -0.32099995, z: 0}
        outSlope: {x: 0.096, y: -0.32099995, z: 0}
        tangentMode: 0
      m_PreInfinity: 2
      m_PostInfinity: 2
      m_RotationOrder: 4
    path: IK/Left_Arm_IK
  - curve:
      serializedVersion: 2
      m_Curve:
      - time: 0
        value: {x: 0.532, y: -0.936, z: 0}
        inSlope: {x: -0.28200004, y: -1.2270001, z: 0}
        outSlope: {x: -0.28200004, y: -1.2270001, z: 0}
        tangentMode: 0
      - time: 0.33333334
        value: {x: 0.438, y: -1.345, z: 0}
        inSlope: {x: -0.38700002, y: -0.79350007, z: 0}
        outSlope: {x: -0.38700002, y: -0.79350007, z: 0}
        tangentMode: 0
      - time: 0.6666667
        value: {x: 0.274, y: -1.465, z: 0}
        inSlope: {x: -0.765, y: -0.22650003, z: 0}
        outSlope: {x: -0.765, y: -0.22650003, z: 0}
        tangentMode: 0
      - time: 1
        value: {x: -0.072, y: -1.496, z: 0}
        inSlope: {x: 0.38699985, y: 0.79349995, z: 0}
        outSlope: {x: 0.38699985, y: 0.79349995, z: 0}
        tangentMode: 0
      - time: 1.3333334
        value: {x: 0.532, y: -0.936, z: 0}
        inSlope: {x: 1.8119997, y: 1.68, z: 0}
        outSlope: {x: 1.8119997, y: 1.68, z: 0}
        tangentMode: 0
      m_PreInfinity: 2
      m_PostInfinity: 2
      m_RotationOrder: 4
    path: IK/Right_Leg-IK
  - curve:
      serializedVersion: 2
      m_Curve:
      - time: 0
        value: {x: -0.42999983, y: -1.552, z: 0}
        inSlope: {x: 1.5479995, y: 1.6620001, z: 0}
        outSlope: {x: 1.5479995, y: 1.6620001, z: 0}
        tangentMode: 0
      - time: 0.33333334
        value: {x: 0.086, y: -0.998, z: 0}
        inSlope: {x: 1.1039997, y: 0.96300006, z: 0}
        outSlope: {x: 1.1039997, y: 0.96300006, z: 0}
        tangentMode: 0
      - time: 0.6666667
        value: {x: 0.306, y: -0.91, z: 0}
        inSlope: {x: 0.5385, y: 0.0090000555, z: 0}
        outSlope: {x: 0.5385, y: 0.0090000555, z: 0}
        tangentMode: 0
      - time: 1
        value: {x: 0.445, y: -0.992, z: 0}
        inSlope: {x: -1.1039995, y: -0.96299994, z: 0}
        outSlope: {x: -1.1039995, y: -0.96299994, z: 0}
        tangentMode: 0
      - time: 1.3333334
        value: {x: -0.42999983, y: -1.552, z: 0}
        inSlope: {x: -2.624999, y: -1.68, z: 0}
        outSlope: {x: -2.624999, y: -1.68, z: 0}
        tangentMode: 0
      m_PreInfinity: 2
      m_PostInfinity: 2
      m_RotationOrder: 4
    path: IK/Left_Leg-IK
  m_ScaleCurves: []
  m_FloatCurves: []
  m_PPtrCurves: []
  m_SampleRate: 60
  m_WrapMode: 0
  m_Bounds:
    m_Center: {x: 0, y: 0, z: 0}
    m_Extent: {x: 0, y: 0, z: 0}
  m_ClipBindingConstant:
    genericBindings:
    - path: 168045543
      attribute: 1
      script: {fileID: 0}
      classID: 4
      customType: 0
      isPPtrCurve: 0
    - path: 517530000
      attribute: 1
      script: {fileID: 0}
      classID: 4
      customType: 0
      isPPtrCurve: 0
    - path: 1553084401
      attribute: 1
      script: {fileID: 0}
      classID: 4
      customType: 0
      isPPtrCurve: 0
    - path: 1213130118
      attribute: 1
      script: {fileID: 0}
      classID: 4
      customType: 0
      isPPtrCurve: 0
    pptrCurveMapping: []
  m_AnimationClipSettings:
    serializedVersion: 2
    m_AdditiveReferencePoseClip: {fileID: 0}
    m_AdditiveReferencePoseTime: 0
    m_StartTime: 0
    m_StopTime: 1.3333334
    m_OrientationOffsetY: 0
    m_Level: 0
    m_CycleOffset: 0
    m_HasAdditiveReferencePose: 0
    m_LoopTime: 1
    m_LoopBlend: 0
    m_LoopBlendOrientation: 0
    m_LoopBlendPositionY: 0
    m_LoopBlendPositionXZ: 0
    m_KeepOriginalOrientation: 0
    m_KeepOriginalPositionY: 1
    m_KeepOriginalPositionXZ: 0
    m_HeightFromFeet: 0
    m_Mirror: 0
  m_EditorCurves:
  - curve:
      serializedVersion: 2
      m_Curve:
      - time: 0
        value: 0.796
        inSlope: -0.28199995
        outSlope: -0.28199995
        tangentMode: 10
      - time: 0.33333334
        value: 0.702
        inSlope: -0.2925
        outSlope: -0.2925
        tangentMode: 10
      - time: 0.6666667
        value: 0.601
        inSlope: -0.028499983
        outSlope: -0.028499983
        tangentMode: 10
      - time: 1
        value: 0.683
        inSlope: 0.2925
        outSlope: 0.2925
        tangentMode: 10
      - time: 1.3333334
        value: 0.796
        inSlope: 0.3389999
        outSlope: 0.3389999
        tangentMode: 10
      m_PreInfinity: 2
      m_PostInfinity: 2
      m_RotationOrder: 4
    attribute: m_LocalPosition.x
    path: IK/Right_Arm_IK
    classID: 4
    script: {fileID: 0}
  - curve:
      serializedVersion: 2
      m_Curve:
      - time: 0
        value: 0.284
        inSlope: -1.227
        outSlope: -1.227
        tangentMode: 10
      - time: 0.33333334
        value: -0.125
        inSlope: 1.1715001
        outSlope: 1.1715001
        tangentMode: 10
      - time: 0.6666667
        value: 1.065
        inSlope: 0.6329999
        outSlope: 0.6329999
        tangentMode: 10
      - time: 1
        value: 0.297
        inSlope: -1.1715002
        outSlope: -1.1715002
        tangentMode: 10
      - time: 1.3333334
        value: 0.284
        inSlope: -0.03899994
        outSlope: -0.03899994
        tangentMode: 10
      m_PreInfinity: 2
      m_PostInfinity: 2
      m_RotationOrder: 4
    attribute: m_LocalPosition.y
    path: IK/Right_Arm_IK
    classID: 4
    script: {fileID: 0}
  - curve:
      serializedVersion: 2
      m_Curve:
      - time: 0
        value: -0.14038277
        inSlope: 0
        outSlope: 0
        tangentMode: 10
      - time: 0.33333334
        value: -0.14038277
        inSlope: 0
        outSlope: 0
        tangentMode: 10
      - time: 0.6666667
        value: -0.14038277
        inSlope: 0
        outSlope: 0
        tangentMode: 10
      - time: 1
        value: -0.14038277
        inSlope: 0
        outSlope: 0
        tangentMode: 10
      - time: 1.3333334
        value: -0.14038277
        inSlope: 0
        outSlope: 0
        tangentMode: 10
      m_PreInfinity: 2
      m_PostInfinity: 2
      m_RotationOrder: 4
    attribute: m_LocalPosition.z
    path: IK/Right_Arm_IK
    classID: 4
    script: {fileID: 0}
  - curve:
      serializedVersion: 2
      m_Curve:
      - time: 0
        value: 0.395
        inSlope: -0.039000034
        outSlope: -0.039000034
        tangentMode: 10
      - time: 0.33333334
        value: 0.382
        inSlope: -0.1425
        outSlope: -0.1425
        tangentMode: 10
      - time: 0.6666667
        value: 0.3
        inSlope: -0.028499983
        outSlope: -0.028499983
        tangentMode: 10
      - time: 1
        value: 0.363
        inSlope: 0.1425
        outSlope: 0.1425
        tangentMode: 10
      - time: 1.3333334
        value: 0.395
        inSlope: 0.096
        outSlope: 0.096
        tangentMode: 10
      m_PreInfinity: 2
      m_PostInfinity: 2
      m_RotationOrder: 4
    attribute: m_LocalPosition.x
    path: IK/Left_Arm_IK
    classID: 4
    script: {fileID: 0}
  - curve:
      serializedVersion: 2
      m_Curve:
      - time: 0
        value: 0.921
        inSlope: -1.341
        outSlope: -1.341
        tangentMode: 10
      - time: 0.33333334
        value: 0.474
        inSlope: -1.2179999
        outSlope: -1.2179999
        tangentMode: 10
      - time: 0.6666667
        value: 0.109
        inSlope: 0.8310001
        outSlope: 0.8310001
        tangentMode: 10
      - time: 1
        value: 1.028
        inSlope: 1.2180002
        outSlope: 1.2180002
        tangentMode: 10
      - time: 1.3333334
        value: 0.921
        inSlope: -0.32099995
        outSlope: -0.32099995
        tangentMode: 10
      m_PreInfinity: 2
      m_PostInfinity: 2
      m_RotationOrder: 4
    attribute: m_LocalPosition.y
    path: IK/Left_Arm_IK
    classID: 4
    script: {fileID: 0}
  - curve:
      serializedVersion: 2
      m_Curve:
      - time: 0
        value: -0.14
        inSlope: 0
        outSlope: 0
        tangentMode: 10
      - time: 0.33333334
        value: -0.14
        inSlope: 0
        outSlope: 0
        tangentMode: 10
      - time: 0.6666667
        value: -0.14
        inSlope: 0
        outSlope: 0
        tangentMode: 10
      - time: 1
        value: -0.14
        inSlope: 0
        outSlope: 0
        tangentMode: 10
      - time: 1.3333334
        value: -0.14
        inSlope: 0
        outSlope: 0
        tangentMode: 10
      m_PreInfinity: 2
      m_PostInfinity: 2
      m_RotationOrder: 4
    attribute: m_LocalPosition.z
    path: IK/Left_Arm_IK
    classID: 4
    script: {fileID: 0}
  - curve:
      serializedVersion: 2
      m_Curve:
      - time: 0
        value: 0.532
        inSlope: -0.28200004
        outSlope: -0.28200004
        tangentMode: 10
      - time: 0.33333334
        value: 0.438
        inSlope: -0.38700002
        outSlope: -0.38700002
        tangentMode: 10
      - time: 0.6666667
        value: 0.274
        inSlope: -0.765
        outSlope: -0.765
        tangentMode: 10
      - time: 1
        value: -0.072
        inSlope: 0.38699985
        outSlope: 0.38699985
        tangentMode: 10
      - time: 1.3333334
        value: 0.532
        inSlope: 1.8119997
        outSlope: 1.8119997
        tangentMode: 10
      m_PreInfinity: 2
      m_PostInfinity: 2
      m_RotationOrder: 4
    attribute: m_LocalPosition.x
    path: IK/Right_Leg-IK
    classID: 4
    script: {fileID: 0}
  - curve:
      serializedVersion: 2
      m_Curve:
      - time: 0
        value: -0.936
        inSlope: -1.2270001
        outSlope: -1.2270001
        tangentMode: 10
      - time: 0.33333334
        value: -1.345
        inSlope: -0.79350007
        outSlope: -0.79350007
        tangentMode: 10
      - time: 0.6666667
        value: -1.465
        inSlope: -0.22650003
        outSlope: -0.22650003
        tangentMode: 10
      - time: 1
        value: -1.496
        inSlope: 0.79349995
        outSlope: 0.79349995
        tangentMode: 10
      - time: 1.3333334
        value: -0.936
        inSlope: 1.68
        outSlope: 1.68
        tangentMode: 10
      m_PreInfinity: 2
      m_PostInfinity: 2
      m_RotationOrder: 4
    attribute: m_LocalPosition.y
    path: IK/Right_Leg-IK
    classID: 4
    script: {fileID: 0}
  - curve:
      serializedVersion: 2
      m_Curve:
      - time: 0
        value: 0
        inSlope: 0
        outSlope: 0
        tangentMode: 10
      - time: 0.33333334
        value: 0
        inSlope: 0
        outSlope: 0
        tangentMode: 10
      - time: 0.6666667
        value: 0
        inSlope: 0
        outSlope: 0
        tangentMode: 10
      - time: 1
        value: 0
        inSlope: 0
        outSlope: 0
        tangentMode: 10
      - time: 1.3333334
        value: 0
        inSlope: 0
        outSlope: 0
        tangentMode: 10
      m_PreInfinity: 2
      m_PostInfinity: 2
      m_RotationOrder: 4
    attribute: m_LocalPosition.z
    path: IK/Right_Leg-IK
    classID: 4
    script: {fileID: 0}
  - curve:
      serializedVersion: 2
      m_Curve:
      - time: 0
        value: -0.42999983
        inSlope: 1.5479995
        outSlope: 1.5479995
        tangentMode: 10
      - time: 0.33333334
        value: 0.086
        inSlope: 1.1039997
        outSlope: 1.1039997
        tangentMode: 10
      - time: 0.6666667
        value: 0.306
        inSlope: 0.5385
        outSlope: 0.5385
        tangentMode: 10
      - time: 1
        value: 0.445
        inSlope: -1.1039995
        outSlope: -1.1039995
        tangentMode: 10
      - time: 1.3333334
        value: -0.42999983
        inSlope: -2.624999
        outSlope: -2.624999
        tangentMode: 10
      m_PreInfinity: 2
      m_PostInfinity: 2
      m_RotationOrder: 4
    attribute: m_LocalPosition.x
    path: IK/Left_Leg-IK
    classID: 4
    script: {fileID: 0}
  - curve:
      serializedVersion: 2
      m_Curve:
      - time: 0
        value: -1.552
        inSlope: 1.6620001
        outSlope: 1.6620001
        tangentMode: 10
      - time: 0.33333334
        value: -0.998
        inSlope: 0.96300006
        outSlope: 0.96300006
        tangentMode: 10
      - time: 0.6666667
        value: -0.91
        inSlope: 0.0090000555
        outSlope: 0.0090000555
        tangentMode: 10
      - time: 1
        value: -0.992
        inSlope: -0.96299994
        outSlope: -0.96299994
        tangentMode: 10
      - time: 1.3333334
        value: -1.552
        inSlope: -1.68
        outSlope: -1.68
        tangentMode: 10
      m_PreInfinity: 2
      m_PostInfinity: 2
      m_RotationOrder: 4
    attribute: m_LocalPosition.y
    path: IK/Left_Leg-IK
    classID: 4
    script: {fileID: 0}
  - curve:
      serializedVersion: 2
      m_Curve:
      - time: 0
        value: 0
        inSlope: 0
        outSlope: 0
        tangentMode: 10
      - time: 0.33333334
        value: 0
        inSlope: 0
        outSlope: 0
        tangentMode: 10
      - time: 0.6666667
        value: 0
        inSlope: 0
        outSlope: 0
        tangentMode: 10
      - time: 1
        value: 0
        inSlope: 0
        outSlope: 0
        tangentMode: 10
      - time: 1.3333334
        value: 0
        inSlope: 0
        outSlope: 0
        tangentMode: 10
      m_PreInfinity: 2
      m_PostInfinity: 2
      m_RotationOrder: 4
    attribute: m_LocalPosition.z
    path: IK/Left_Leg-IK
    classID: 4
    script: {fileID: 0}
  m_EulerEditorCurves: []
  m_HasGenericRootTransform: 0
  m_HasMotionFloatCurves: 0
  m_GenerateMotionCurves: 0
  m_Events: []
