%YAML 1.1
%TAG !u! tag:unity3d.com,2011:
--- !u!74 &7400000
AnimationClip:
  m_ObjectHideFlags: 0
  m_PrefabParentObject: {fileID: 0}
  m_PrefabInternal: {fileID: 0}
  m_Name: menu
  serializedVersion: 6
  m_Legacy: 0
  m_Compressed: 0
  m_UseHighQualityCurve: 1
  m_RotationCurves: []
  m_CompressedRotationCurves: []
  m_EulerCurves: []
  m_PositionCurves:
  - curve:
      serializedVersion: 2
      m_Curve:
      - time: 0
        value: {x: -0.215, y: -0.488, z: 0}
        inSlope: {x: -0.001184207, y: 0.016184215, z: 0}
        outSlope: {x: -0.001184207, y: 0.016184215, z: 0}
        tangentMode: 0
      - time: 2.5333333
        value: {x: -0.218, y: -0.447, z: 0}
        inSlope: {x: 0.0000160028, y: -0.00021870527, z: 0}
        outSlope: {x: 0.0000160028, y: -0.00021870527, z: 0}
        tangentMode: 0
      - time: 5
        value: {x: -0.215, y: -0.488, z: 0}
        inSlope: {x: -0.000021262502, y: 0.00029058848, z: 0}
        outSlope: {x: -0.000021262502, y: 0.00029058848, z: 0}
        tangentMode: 0
      - time: 7.383333
        value: {x: -0.218, y: -0.447, z: 0}
        inSlope: {x: -0.0006293688, y: 0.008601401, z: 0}
        outSlope: {x: -0.0006293688, y: 0.008601401, z: 0}
        tangentMode: 0
      - time: 9.8
        value: {x: -0.218, y: -0.447, z: 0}
        inSlope: {x: 0.00058064354, y: -0.007935487, z: 0}
        outSlope: {x: 0.00058064354, y: -0.007935487, z: 0}
        tangentMode: 0
      - time: 12.383333
        value: {x: -0.215, y: -0.488, z: 0}
        inSlope: {x: 0.0011612871, y: -0.015870973, z: 0}
        outSlope: {x: 0.0011612871, y: -0.015870973, z: 0}
        tangentMode: 0
      m_PreInfinity: 2
      m_PostInfinity: 2
      m_RotationOrder: 4
    path: Root
  m_ScaleCurves: []
  m_FloatCurves: []
  m_PPtrCurves: []
  m_SampleRate: 60
  m_WrapMode: 0
  m_Bounds:
    m_Center: {x: 0, y: 0, z: 0}
    m_Extent: {x: 0, y: 0, z: 0}
  m_ClipBindingConstant:
    genericBindings:
    - path: 3066451557
      attribute: 1
      script: {fileID: 0}
      classID: 4
      customType: 0
      isPPtrCurve: 0
    pptrCurveMapping: []
  m_AnimationClipSettings:
    serializedVersion: 2
    m_AdditiveReferencePoseClip: {fileID: 0}
    m_AdditiveReferencePoseTime: 0
    m_StartTime: 0
    m_StopTime: 12.383333
    m_OrientationOffsetY: 0
    m_Level: 0
    m_CycleOffset: 0
    m_HasAdditiveReferencePose: 0
    m_LoopTime: 1
    m_LoopBlend: 0
    m_LoopBlendOrientation: 0
    m_LoopBlendPositionY: 0
    m_LoopBlendPositionXZ: 0
    m_KeepOriginalOrientation: 0
    m_KeepOriginalPositionY: 1
    m_KeepOriginalPositionXZ: 0
    m_HeightFromFeet: 0
    m_Mirror: 0
  m_EditorCurves:
  - curve:
      serializedVersion: 2
      m_Curve:
      - time: 0
        value: -0.215
        inSlope: -0.001184207
        outSlope: -0.001184207
        tangentMode: 10
      - time: 2.5333333
        value: -0.218
        inSlope: 0.0000160028
        outSlope: 0.0000160028
        tangentMode: 10
      - time: 5
        value: -0.215
        inSlope: -0.000021262502
        outSlope: -0.000021262502
        tangentMode: 10
      - time: 7.383333
        value: -0.218
        inSlope: -0.0006293688
        outSlope: -0.0006293688
        tangentMode: 10
      - time: 9.8
        value: -0.218
        inSlope: 0.00058064354
        outSlope: 0.00058064354
        tangentMode: 10
      - time: 12.383333
        value: -0.215
        inSlope: 0.0011612871
        outSlope: 0.0011612871
        tangentMode: 10
      m_PreInfinity: 2
      m_PostInfinity: 2
      m_RotationOrder: 4
    attribute: m_LocalPosition.x
    path: Root
    classID: 4
    script: {fileID: 0}
  - curve:
      serializedVersion: 2
      m_Curve:
      - time: 0
        value: -0.488
        inSlope: 0.016184215
        outSlope: 0.016184215
        tangentMode: 10
      - time: 2.5333333
        value: -0.447
        inSlope: -0.00021870527
        outSlope: -0.00021870527
        tangentMode: 10
      - time: 5
        value: -0.488
        inSlope: 0.00029058848
        outSlope: 0.00029058848
        tangentMode: 10
      - time: 7.383333
        value: -0.447
        inSlope: 0.008601401
        outSlope: 0.008601401
        tangentMode: 10
      - time: 9.8
        value: -0.447
        inSlope: -0.007935487
        outSlope: -0.007935487
        tangentMode: 10
      - time: 12.383333
        value: -0.488
        inSlope: -0.015870973
        outSlope: -0.015870973
        tangentMode: 10
      m_PreInfinity: 2
      m_PostInfinity: 2
      m_RotationOrder: 4
    attribute: m_LocalPosition.y
    path: Root
    classID: 4
    script: {fileID: 0}
  - curve:
      serializedVersion: 2
      m_Curve:
      - time: 0
        value: 0
        inSlope: 0
        outSlope: 0
        tangentMode: 10
      - time: 2.5333333
        value: 0
        inSlope: 0
        outSlope: 0
        tangentMode: 10
      - time: 5
        value: 0
        inSlope: 0
        outSlope: 0
        tangentMode: 10
      - time: 7.383333
        value: 0
        inSlope: 0
        outSlope: 0
        tangentMode: 10
      - time: 9.8
        value: 0
        inSlope: 0
        outSlope: 0
        tangentMode: 10
      - time: 12.383333
        value: 0
        inSlope: 0
        outSlope: 0
        tangentMode: 10
      m_PreInfinity: 2
      m_PostInfinity: 2
      m_RotationOrder: 4
    attribute: m_LocalPosition.z
    path: Root
    classID: 4
    script: {fileID: 0}
  m_EulerEditorCurves: []
  m_HasGenericRootTransform: 0
  m_HasMotionFloatCurves: 0
  m_GenerateMotionCurves: 0
  m_Events: []
