%YAML 1.1
%TAG !u! tag:unity3d.com,2011:
--- !u!74 &7400000
AnimationClip:
  m_ObjectHideFlags: 0
  m_PrefabParentObject: {fileID: 0}
  m_PrefabInternal: {fileID: 0}
  m_Name: walk
  serializedVersion: 6
  m_Legacy: 0
  m_Compressed: 0
  m_UseHighQualityCurve: 1
  m_RotationCurves:
  - curve:
      serializedVersion: 2
      m_Curve:
      - time: 0
        value: {x: 0, y: 0, z: 0.07410889, w: 0.99725014}
        inSlope: {x: 0, y: 0, z: 0, w: 0}
        outSlope: {x: 0, y: 0, z: 0, w: 0}
        tangentMode: 0
      - time: 0.8666667
        value: {x: 0, y: 0, z: 0.07410889, w: 0.99725014}
        inSlope: {x: 0, y: 0, z: 0, w: 0}
        outSlope: {x: 0, y: 0, z: 0, w: 0}
        tangentMode: 0
      m_PreInfinity: 2
      m_PostInfinity: 2
      m_RotationOrder: 4
    path: Root/body-bone/neck-bone/head-bone
  - curve:
      serializedVersion: 2
      m_Curve:
      - time: 0
        value: {x: 0, y: 0, z: 0.30187032, w: -0.953349}
        inSlope: {x: 0, y: 0, z: 0, w: 0}
        outSlope: {x: 0, y: 0, z: 0.011086464, w: 0.0035762787}
        tangentMode: 0
      - time: 0.083333336
        value: {x: 0, y: 0, z: 0.5409741, w: -0.84103924}
        inSlope: {x: 0, y: 0, z: 0.009298325, w: 0.0064373016}
        outSlope: {x: 0, y: 0, z: -0.003129244, w: -0.0022351744}
        tangentMode: 0
      - time: 0.21666667
        value: {x: 0, y: 0, z: 0.40984297, w: -0.9121561}
        inSlope: {x: 0, y: 0, z: -0.0049173837, w: -0.0022351744}
        outSlope: {x: 0, y: 0, z: 0.0538677, w: 0.024139883}
        tangentMode: 0
      - time: 0.35
        value: {x: -0, y: -0, z: -0.15384872, w: -0.9880944}
        inSlope: {x: -0, y: -0, z: 0.05587936, w: -0.008493663}
        outSlope: {x: -0, y: -0, z: -0.0050067897, w: 0.0007152557}
        tangentMode: 0
      - time: 0.43333334
        value: {x: -0, y: -0, z: -0.29112002, w: -0.95668656}
        inSlope: {x: -0, y: -0, z: -0.0050067897, w: 0.0014305114}
        outSlope: {x: -0, y: -0, z: 0.0071525592, w: -0.0021457677}
        tangentMode: 0
      - time: 0.51666665
        value: {x: -0, y: -0, z: -0.09063258, w: -0.9958844}
        inSlope: {x: -0, y: -0, z: 0.007778408, w: -0.0007152559}
        outSlope: {x: -0, y: -0, z: -0.023437396, w: 0.0022138867}
        tangentMode: 0
      - time: 0.8666667
        value: {x: 0, y: 0, z: 0.30187032, w: -0.953349}
        inSlope: {x: 0, y: 0, z: -0.024012156, w: -0.007663454}
        outSlope: {x: 0, y: 0, z: 0, w: 0}
        tangentMode: 0
      m_PreInfinity: 2
      m_PostInfinity: 2
      m_RotationOrder: 4
    path: Root/leg-bone-L/leg-low-bone-L/foot-bone-L/Foot_L
  - curve:
      serializedVersion: 2
      m_Curve:
      - time: 0
        value: {x: 0, y: 0, z: 0.40753338, w: -0.9131903}
        inSlope: {x: 0, y: 0, z: 0, w: 0}
        outSlope: {x: 0, y: 0, z: 0.0019944631, w: 0.00082529505}
        tangentMode: 0
      - time: 0.43333334
        value: {x: 0, y: 0, z: 0.71994543, w: -0.69403064}
        inSlope: {x: 0, y: 0, z: 0.0017881393, w: 0.0020632376}
        outSlope: {x: 0, y: 0, z: -0.0017881393, w: -0.0020632376}
        tangentMode: 0
      - time: 0.8666667
        value: {x: 0, y: 0, z: 0.40753338, w: -0.9131903}
        inSlope: {x: 0, y: 0, z: -0.0019944631, w: -0.00082529505}
        outSlope: {x: 0, y: 0, z: 0, w: 0}
        tangentMode: 0
      m_PreInfinity: 2
      m_PostInfinity: 2
      m_RotationOrder: 4
    path: Root/body-arm-bone-L/arm-bone-L/arm-low-bone-L/fist-bone-L/Fist_L
  - curve:
      serializedVersion: 2
      m_Curve:
      - time: 0
        value: {x: 0, y: 0, z: 0.5555541, w: -0.8314804}
        inSlope: {x: 0, y: 0, z: 0, w: 0}
        outSlope: {x: 0, y: 0, z: 0.014717762, w: 0.009765992}
        tangentMode: 0
      - time: 0.43333334
        value: {x: -0, y: -0, z: 0.051445764, w: -0.99867576}
        inSlope: {x: -0, y: -0, z: 0.01648011, w: 0.00096284423}
        outSlope: {x: -0, y: -0, z: -0.017984556, w: -0.00096284423}
        tangentMode: 0
      - time: 0.8666667
        value: {x: 0, y: 0, z: 0.5555541, w: -0.8314804}
        inSlope: {x: 0, y: 0, z: -0.013754918, w: -0.009215795}
        outSlope: {x: 0, y: 0, z: 0, w: 0}
        tangentMode: 0
      m_PreInfinity: 2
      m_PostInfinity: 2
      m_RotationOrder: 4
    path: Root/body-arm-bone-R/arm-bone-R/arm-low-bone-R/fist-bone-R/Fist_R
  - curve:
      serializedVersion: 2
      m_Curve:
      - time: 0
        value: {x: 0, y: 0, z: 0.09323902, w: -0.99564373}
        inSlope: {x: 0, y: 0, z: 0, w: 0}
        outSlope: {x: 0, y: 0, z: 0, w: 0}
        tangentMode: 0
      - time: 0.8666667
        value: {x: 0, y: 0, z: 0.09323902, w: -0.99564373}
        inSlope: {x: 0, y: 0, z: 0, w: 0}
        outSlope: {x: 0, y: 0, z: 0, w: 0}
        tangentMode: 0
      m_PreInfinity: 2
      m_PostInfinity: 2
      m_RotationOrder: 4
    path: Root
  - curve:
      serializedVersion: 2
      m_Curve:
      - time: 0
        value: {x: 0, y: 0, z: 0.15885122, w: 0.98730254}
        inSlope: {x: 0, y: 0, z: 0, w: 0}
        outSlope: {x: 0, y: 0, z: 0, w: 0}
        tangentMode: 0
      - time: 0.000000014901161
        value: {x: 0, y: 0, z: 0.15885122, w: 0.98730254}
        inSlope: {x: 0, y: 0, z: 0, w: 0}
        outSlope: {x: 0, y: 0, z: -0.009387733, w: 0.0017881397}
        tangentMode: 0
      - time: 0.06666667
        value: {x: 0, y: 0, z: -0.0516349, w: 0.99866605}
        inSlope: {x: 0, y: 0, z: -0.008437784, w: 0}
        outSlope: {x: 0, y: 0, z: 0, w: 0}
        tangentMode: 0
      - time: 0.083333336
        value: {x: 0, y: 0, z: -0.0499497, w: 0.99875176}
        inSlope: {x: 0, y: 0, z: 0.19311906, w: 0.010728837}
        outSlope: {x: 0, y: 0, z: 0.19362995, w: 0.009707042}
        tangentMode: 0
      - time: 0.2
        value: {x: 0, y: 0, z: -0.012387611, w: 0.9999233}
        inSlope: {x: 0, y: 0, z: 0.00082222477, w: 0}
        outSlope: {x: 0, y: 0, z: 0.03940354, w: 0.00027509834}
        tangentMode: 0
      - time: 0.4166667
        value: {x: -0, y: -0, z: -0.5226438, w: 0.85255116}
        inSlope: {x: -0, y: -0, z: -2.8439667, w: -1.7419227}
        outSlope: {x: -0, y: -0, z: -2.8681781, w: -1.7595308}
        tangentMode: 0
      - time: 0.43333334
        value: {x: -0, y: -0, z: -0.41071853, w: 0.9117622}
        inSlope: {x: -0, y: -0, z: 0.039339103, w: 0.01788141}
        outSlope: {x: -0, y: -0, z: 0.003129244, w: 0.0017881395}
        tangentMode: 0
      - time: 0.5
        value: {x: -0, y: -0, z: -0.33873776, w: 0.94088084}
        inSlope: {x: -0, y: -0, z: 0.003129244, w: 0.00089406973}
        outSlope: {x: -0, y: -0, z: 0.014305129, w: 0.0035762822}
        tangentMode: 0
      - time: 0.51666665
        value: {x: -0, y: -0, z: -0.27647582, w: 0.9610209}
        inSlope: {x: -0, y: -0, z: 0.014305129, w: 0.0035762822}
        outSlope: {x: -0, y: -0, z: 0.0058753146, w: 0.0015326907}
        tangentMode: 0
      - time: 0.6333333
        value: {x: -0, y: -0, z: 0.01483514, w: 0.99988997}
        inSlope: {x: -0, y: -0, z: 0.006130763, w: -0}
        outSlope: {x: -0, y: -0, z: -0, w: -0}
        tangentMode: 0
      - time: 0.65
        value: {x: -0, y: -0, z: -0.0034903535, w: 0.9999939}
        inSlope: {x: -0, y: -0, z: -0, w: -0}
        outSlope: {x: -0, y: -0, z: -0.04529952, w: -0.00029802317}
        tangentMode: 0
      - time: 0.85
        value: {x: 0, y: 0, z: 0.15885122, w: 0.98730254}
        inSlope: {x: 0, y: 0, z: -0.04388391, w: 0.0071525555}
        outSlope: {x: 0, y: 0, z: 0, w: 0}
        tangentMode: 0
      - time: 0.8666667
        value: {x: 0, y: 0, z: 0.15885122, w: 0.98730254}
        inSlope: {x: 0, y: 0, z: 0, w: 0}
        outSlope: {x: 0, y: 0, z: 0, w: 0}
        tangentMode: 0
      m_PreInfinity: 2
      m_PostInfinity: 2
      m_RotationOrder: 4
    path: Root/leg-bone-R/leg-low-bone-R/foot-bone-R/Foot_R
  m_CompressedRotationCurves: []
  m_EulerCurves: []
  m_PositionCurves:
  - curve:
      serializedVersion: 2
      m_Curve:
      - time: 0
        value: {x: -0.278, y: -1.488, z: 0}
        inSlope: {x: -0.86399996, y: -0.059999943, z: 0}
        outSlope: {x: -0.86399996, y: -0.059999943, z: 0}
        tangentMode: 0
      - time: 0.083333336
        value: {x: -0.35, y: -1.493, z: 0}
        inSlope: {x: 1.2367501, y: 0.4800002, z: 0}
        outSlope: {x: 1.2367501, y: 0.4800002, z: 0}
        tangentMode: 0
      - time: 0.21666667
        value: {x: 0.095, y: -1.357, z: 0}
        inSlope: {x: 3.1462502, y: 0.11249989, z: 0}
        outSlope: {x: 3.1462502, y: 0.11249989, z: 0}
        tangentMode: 0
      - time: 0.35
        value: {x: 0.489, y: -1.463, z: 0}
        inSlope: {x: 2.1915, y: -2.0714996, z: 0}
        outSlope: {x: 2.1915, y: -2.0714996, z: 0}
        tangentMode: 0
      - time: 0.43333334
        value: {x: 0.608, y: -1.742, z: 0}
        inSlope: {x: -0.45600033, y: -0.98999935, z: 0}
        outSlope: {x: -0.45600033, y: -0.98999935, z: 0}
        tangentMode: 0
      - time: 0.51666665
        value: {x: 0.413, y: -1.628, z: 0}
        inSlope: {x: -1.7775002, y: 0.819, z: 0}
        outSlope: {x: -1.7775002, y: 0.819, z: 0}
        tangentMode: 0
      - time: 0.65
        value: {x: 0.251, y: -1.592, z: 0}
        inSlope: {x: -1.7812495, y: 0.28125012, z: 0}
        outSlope: {x: -1.7812495, y: 0.28125012, z: 0}
        tangentMode: 0
      - time: 0.78333336
        value: {x: -0.062, y: -1.553, z: 0}
        inSlope: {x: -2.46975, y: 0.53624976, z: 0}
        outSlope: {x: -2.46975, y: 0.53624976, z: 0}
        tangentMode: 0
      - time: 0.8666667
        value: {x: -0.278, y: -1.488, z: 0}
        inSlope: {x: -2.5920005, y: 0.77999943, z: 0}
        outSlope: {x: -2.5920005, y: 0.77999943, z: 0}
        tangentMode: 0
      m_PreInfinity: 2
      m_PostInfinity: 2
      m_RotationOrder: 4
    path: IK/Left_Leg-IK
  - curve:
      serializedVersion: 2
      m_Curve:
      - time: 0
        value: {x: 0, y: 0, z: 0}
        inSlope: {x: 0, y: 0, z: 0}
        outSlope: {x: 0, y: 0, z: 0}
        tangentMode: 0
      - time: 0.083333336
        value: {x: 0, y: 0, z: 0}
        inSlope: {x: -0.0000010011515, y: 0.000013137898, z: 0}
        outSlope: {x: -0.0000010011515, y: 0.000013137898, z: 0}
        tangentMode: 0
      - time: 0.21666667
        value: {x: -0.00000026697373, y: 0.0000035034393, z: 0}
        inSlope: {x: -0.0000010818909, y: 0.00001657854, z: 0}
        outSlope: {x: -0.0000010818909, y: 0.00001657854, z: 0}
        tangentMode: 0
      - time: 0.35
        value: {x: -0.00000028850422, y: 0.0000044209437, z: 0}
        inSlope: {x: -0.00000008073937, y: 0.0000034406416, z: 0}
        outSlope: {x: -0.00000008073937, y: 0.0000034406416, z: 0}
        tangentMode: 0
      - time: 0.43333334
        value: {x: -0.00000028850422, y: 0.0000044209437, z: 0}
        inSlope: {x: 0.0000003328895, y: -0.000005101089, z: 0}
        outSlope: {x: 0.0000003328895, y: -0.000005101089, z: 0}
        tangentMode: 0
      - time: 0.8666667
        value: {x: 0, y: 0, z: 0}
        inSlope: {x: 0.000000665779, y: -0.000010202178, z: 0}
        outSlope: {x: 0.000000665779, y: -0.000010202178, z: 0}
        tangentMode: 0
      m_PreInfinity: 2
      m_PostInfinity: 2
      m_RotationOrder: 4
    path: Root/leg-bone-L/leg-low-bone-L/foot-bone-L/Foot_L
  - curve:
      serializedVersion: 2
      m_Curve:
      - time: 0
        value: {x: 0.778, y: -1.673, z: 0}
        inSlope: {x: -2.5440001, y: 0.31200027, z: 0}
        outSlope: {x: -2.5440001, y: 0.31200027, z: 0}
        tangentMode: 0
      - time: 0.083333336
        value: {x: 0.566, y: -1.647, z: 0}
        inSlope: {x: -2.502, y: -0.21150008, z: 0}
        outSlope: {x: -2.502, y: -0.21150008, z: 0}
        tangentMode: 0
      - time: 0.21666667
        value: {x: 0.238, y: -1.745, z: 0}
        inSlope: {x: -2.3737502, y: 0.6037501, z: 0}
        outSlope: {x: -2.3737502, y: 0.6037501, z: 0}
        tangentMode: 0
      - time: 0.35
        value: {x: -0.067, y: -1.486, z: 0}
        inSlope: {x: -1.97175, y: 0.25125033, z: 0}
        outSlope: {x: -1.97175, y: 0.25125033, z: 0}
        tangentMode: 0
      - time: 0.43333334
        value: {x: -0.205, y: -1.606, z: 0}
        inSlope: {x: 0.072000384, y: 0.120000124, z: 0}
        outSlope: {x: 0.072000384, y: 0.120000124, z: 0}
        tangentMode: 0
      - time: 0.51666665
        value: {x: -0.055, y: -1.466, z: 0}
        inSlope: {x: 1.8300004, y: 2.0625, z: 0}
        outSlope: {x: 1.8300004, y: 2.0625, z: 0}
        tangentMode: 0
      - time: 0.65
        value: {x: 0.193, y: -1.14, z: 0}
        inSlope: {x: 2.2799997, y: -0.007499814, z: 0}
        outSlope: {x: 2.2799997, y: -0.007499814, z: 0}
        tangentMode: 0
      - time: 0.8666667
        value: {x: 0.778, y: -1.673, z: 0}
        inSlope: {x: 2.6999996, y: -2.4599996, z: 0}
        outSlope: {x: 2.6999996, y: -2.4599996, z: 0}
        tangentMode: 0
      m_PreInfinity: 2
      m_PostInfinity: 2
      m_RotationOrder: 4
    path: IK/Right_Leg-IK
  - curve:
      serializedVersion: 2
      m_Curve:
      - time: 0
        value: {x: 0.00000027173317, y: 0.00000042344516, z: 0}
        inSlope: {x: 0.000001203023, y: 0.0000705396, z: 0}
        outSlope: {x: 0.000001203023, y: 0.0000705396, z: 0}
        tangentMode: 0
      - time: 0.35
        value: {x: 0.0000006927912, y: 0.000025112304, z: 0}
        inSlope: {x: 0.00000019403595, y: 0.000011377355, z: 0}
        outSlope: {x: 0.00000019403595, y: 0.000011377355, z: 0}
        tangentMode: 0
      - time: 0.8666667
        value: {x: 0.00000027173317, y: 0.00000042344516, z: 0}
        inSlope: {x: -0.0000008149511, y: -0.00004778489, z: 0}
        outSlope: {x: -0.0000008149511, y: -0.00004778489, z: 0}
        tangentMode: 0
      m_PreInfinity: 2
      m_PostInfinity: 2
      m_RotationOrder: 4
    path: Root/leg-bone-R/leg-low-bone-R/foot-bone-R/Foot_R
  - curve:
      serializedVersion: 2
      m_Curve:
      - time: 0
        value: {x: 0.096, y: -0.633, z: 0}
        inSlope: {x: 0.046153836, y: 0.2400002, z: 0}
        outSlope: {x: 0.046153836, y: 0.2400002, z: 0}
        tangentMode: 0
      - time: 0.21666667
        value: {x: 0.106, y: -0.581, z: 0}
        inSlope: {x: 0, y: 0, z: 0}
        outSlope: {x: 0, y: 0, z: 0}
        tangentMode: 0
      - time: 0.43333334
        value: {x: 0.096, y: -0.633, z: 0}
        inSlope: {x: 0.0000000037252903, y: 0.000000022351742, z: 0}
        outSlope: {x: 0.0000000037252903, y: 0.000000022351742, z: 0}
        tangentMode: 0
      - time: 0.65
        value: {x: 0.106, y: -0.581, z: 0}
        inSlope: {x: 0.000000007450581, y: 0.000000037252903, z: 0}
        outSlope: {x: 0.000000007450581, y: 0.000000037252903, z: 0}
        tangentMode: 0
      - time: 0.8666667
        value: {x: 0.096, y: -0.633, z: 0}
        inSlope: {x: -0.04615383, y: -0.24000017, z: 0}
        outSlope: {x: -0.04615383, y: -0.24000017, z: 0}
        tangentMode: 0
      m_PreInfinity: 2
      m_PostInfinity: 2
      m_RotationOrder: 4
    path: Root
  - curve:
      serializedVersion: 2
      m_Curve:
      - time: 0
        value: {x: 0.327, y: -0.55, z: 0}
        inSlope: {x: -1.3707691, y: -0.18461534, z: 0}
        outSlope: {x: -1.3707691, y: -0.18461534, z: 0}
        tangentMode: 0
      - time: 0.43333334
        value: {x: -0.267, y: -0.63, z: 0}
        inSlope: {x: 0, y: 0, z: 0}
        outSlope: {x: 0, y: 0, z: 0}
        tangentMode: 0
      - time: 0.8666667
        value: {x: 0.327, y: -0.55, z: 0}
        inSlope: {x: 1.3707691, y: 0.18461534, z: 0}
        outSlope: {x: 1.3707691, y: 0.18461534, z: 0}
        tangentMode: 0
      m_PreInfinity: 2
      m_PostInfinity: 2
      m_RotationOrder: 4
    path: IK/Left_Arm_IK
  - curve:
      serializedVersion: 2
      m_Curve:
      - time: 0
        value: {x: -0, y: -0.421, z: 0}
        inSlope: {x: 1.8138461, y: -0.2123077, z: 0}
        outSlope: {x: 1.8138461, y: -0.2123077, z: 0}
        tangentMode: 0
      - time: 0.43333334
        value: {x: 0.786, y: -0.513, z: 0}
        inSlope: {x: 0, y: 0, z: 0}
        outSlope: {x: 0, y: 0, z: 0}
        tangentMode: 0
      - time: 0.8666667
        value: {x: -0, y: -0.421, z: 0}
        inSlope: {x: -1.8138461, y: 0.2123077, z: 0}
        outSlope: {x: -1.8138461, y: 0.2123077, z: 0}
        tangentMode: 0
      m_PreInfinity: 2
      m_PostInfinity: 2
      m_RotationOrder: 4
    path: IK/Right_Arm_IK
  - curve:
      serializedVersion: 2
      m_Curve:
      - time: 0
        value: {x: 0.032, y: 0.666, z: 0}
        inSlope: {x: -0.055384625, y: -0.443077, z: 0}
        outSlope: {x: -0.055384625, y: -0.443077, z: 0}
        tangentMode: 0
      - time: 0.21666667
        value: {x: 0.02, y: 0.57, z: 0}
        inSlope: {x: 0, y: 0, z: 0}
        outSlope: {x: 0, y: 0, z: 0}
        tangentMode: 0
      - time: 0.43333334
        value: {x: 0.032, y: 0.666, z: 0}
        inSlope: {x: 0.023076922, y: 0.046153784, z: 0}
        outSlope: {x: 0.023076922, y: 0.046153784, z: 0}
        tangentMode: 0
      - time: 0.65
        value: {x: 0.03, y: 0.59, z: 0}
        inSlope: {x: -0.0000000013969839, y: -0.000000044703484, z: 0}
        outSlope: {x: -0.0000000013969839, y: -0.000000044703484, z: 0}
        tangentMode: 0
      - time: 0.8666667
        value: {x: 0.032, y: 0.666, z: 0}
        inSlope: {x: 0.009230778, y: 0.35076934, z: 0}
        outSlope: {x: 0.009230778, y: 0.35076934, z: 0}
        tangentMode: 0
      m_PreInfinity: 2
      m_PostInfinity: 2
      m_RotationOrder: 4
    path: Root/body-bone/neck-bone/head-bone
  - curve:
      serializedVersion: 2
      m_Curve:
      - time: 0
        value: {x: -0.251, y: -0.012, z: 0.125}
        inSlope: {x: 0, y: 0, z: 0}
        outSlope: {x: 0, y: 0, z: 0}
        tangentMode: 0
      m_PreInfinity: 2
      m_PostInfinity: 2
      m_RotationOrder: 4
    path: IK
  m_ScaleCurves: []
  m_FloatCurves: []
  m_PPtrCurves: []
  m_SampleRate: 60
  m_WrapMode: 0
  m_Bounds:
    m_Center: {x: 0, y: 0, z: 0}
    m_Extent: {x: 0, y: 0, z: 0}
  m_ClipBindingConstant:
    genericBindings:
    - path: 1213130118
      attribute: 1
      script: {fileID: 0}
      classID: 4
      customType: 0
      isPPtrCurve: 0
    - path: 3648485994
      attribute: 1
      script: {fileID: 0}
      classID: 4
      customType: 0
      isPPtrCurve: 0
    - path: 1553084401
      attribute: 1
      script: {fileID: 0}
      classID: 4
      customType: 0
      isPPtrCurve: 0
    - path: 4196342639
      attribute: 1
      script: {fileID: 0}
      classID: 4
      customType: 0
      isPPtrCurve: 0
    - path: 3066451557
      attribute: 1
      script: {fileID: 0}
      classID: 4
      customType: 0
      isPPtrCurve: 0
    - path: 517530000
      attribute: 1
      script: {fileID: 0}
      classID: 4
      customType: 0
      isPPtrCurve: 0
    - path: 168045543
      attribute: 1
      script: {fileID: 0}
      classID: 4
      customType: 0
      isPPtrCurve: 0
    - path: 3721916242
      attribute: 1
      script: {fileID: 0}
      classID: 4
      customType: 0
      isPPtrCurve: 0
    - path: 3648485994
      attribute: 2
      script: {fileID: 0}
      classID: 4
      customType: 0
      isPPtrCurve: 0
    - path: 2463065751
      attribute: 2
      script: {fileID: 0}
      classID: 4
      customType: 0
      isPPtrCurve: 0
    - path: 3012569239
      attribute: 2
      script: {fileID: 0}
      classID: 4
      customType: 0
      isPPtrCurve: 0
    - path: 4196342639
      attribute: 2
      script: {fileID: 0}
      classID: 4
      customType: 0
      isPPtrCurve: 0
    - path: 2171371179
      attribute: 1
      script: {fileID: 0}
      classID: 4
      customType: 0
      isPPtrCurve: 0
    - path: 3721916242
      attribute: 2
      script: {fileID: 0}
      classID: 4
      customType: 0
      isPPtrCurve: 0
    - path: 3066451557
      attribute: 2
      script: {fileID: 0}
      classID: 4
      customType: 0
      isPPtrCurve: 0
    pptrCurveMapping: []
  m_AnimationClipSettings:
    serializedVersion: 2
    m_AdditiveReferencePoseClip: {fileID: 0}
    m_AdditiveReferencePoseTime: 0
    m_StartTime: 0
    m_StopTime: 0.8666667
    m_OrientationOffsetY: 0
    m_Level: 0
    m_CycleOffset: 0
    m_HasAdditiveReferencePose: 0
    m_LoopTime: 1
    m_LoopBlend: 0
    m_LoopBlendOrientation: 0
    m_LoopBlendPositionY: 0
    m_LoopBlendPositionXZ: 0
    m_KeepOriginalOrientation: 0
    m_KeepOriginalPositionY: 1
    m_KeepOriginalPositionXZ: 0
    m_HeightFromFeet: 0
    m_Mirror: 0
  m_EditorCurves:
  - curve:
      serializedVersion: 2
      m_Curve:
      - time: 0
        value: -0.278
        inSlope: -0.86399996
        outSlope: -0.86399996
        tangentMode: 10
      - time: 0.083333336
        value: -0.35
        inSlope: 1.2367501
        outSlope: 1.2367501
        tangentMode: 10
      - time: 0.21666667
        value: 0.095
        inSlope: 3.1462502
        outSlope: 3.1462502
        tangentMode: 10
      - time: 0.35
        value: 0.489
        inSlope: 2.1915
        outSlope: 2.1915
        tangentMode: 10
      - time: 0.43333334
        value: 0.608
        inSlope: -0.45600033
        outSlope: -0.45600033
        tangentMode: 10
      - time: 0.51666665
        value: 0.413
        inSlope: -1.7775002
        outSlope: -1.7775002
        tangentMode: 10
      - time: 0.65
        value: 0.251
        inSlope: -1.7812495
        outSlope: -1.7812495
        tangentMode: 10
      - time: 0.78333336
        value: -0.062
        inSlope: -2.46975
        outSlope: -2.46975
        tangentMode: 10
      - time: 0.8666667
        value: -0.278
        inSlope: -2.5920005
        outSlope: -2.5920005
        tangentMode: 10
      m_PreInfinity: 2
      m_PostInfinity: 2
      m_RotationOrder: 4
    attribute: m_LocalPosition.x
    path: IK/Left_Leg-IK
    classID: 4
    script: {fileID: 0}
  - curve:
      serializedVersion: 2
      m_Curve:
      - time: 0
        value: -1.488
        inSlope: -0.059999943
        outSlope: -0.059999943
        tangentMode: 10
      - time: 0.083333336
        value: -1.493
        inSlope: 0.4800002
        outSlope: 0.4800002
        tangentMode: 10
      - time: 0.21666667
        value: -1.357
        inSlope: 0.11249989
        outSlope: 0.11249989
        tangentMode: 10
      - time: 0.35
        value: -1.463
        inSlope: -2.0714996
        outSlope: -2.0714996
        tangentMode: 10
      - time: 0.43333334
        value: -1.742
        inSlope: -0.98999935
        outSlope: -0.98999935
        tangentMode: 10
      - time: 0.51666665
        value: -1.628
        inSlope: 0.819
        outSlope: 0.819
        tangentMode: 10
      - time: 0.65
        value: -1.592
        inSlope: 0.28125012
        outSlope: 0.28125012
        tangentMode: 10
      - time: 0.78333336
        value: -1.553
        inSlope: 0.53624976
        outSlope: 0.53624976
        tangentMode: 10
      - time: 0.8666667
        value: -1.488
        inSlope: 0.77999943
        outSlope: 0.77999943
        tangentMode: 10
      m_PreInfinity: 2
      m_PostInfinity: 2
      m_RotationOrder: 4
    attribute: m_LocalPosition.y
    path: IK/Left_Leg-IK
    classID: 4
    script: {fileID: 0}
  - curve:
      serializedVersion: 2
      m_Curve:
      - time: 0
        value: 0
        inSlope: 0
        outSlope: 0
        tangentMode: 10
      - time: 0.083333336
        value: 0
        inSlope: 0
        outSlope: 0
        tangentMode: 10
      - time: 0.21666667
        value: 0
        inSlope: 0
        outSlope: 0
        tangentMode: 10
      - time: 0.35
        value: 0
        inSlope: 0
        outSlope: 0
        tangentMode: 10
      - time: 0.43333334
        value: 0
        inSlope: 0
        outSlope: 0
        tangentMode: 10
      - time: 0.51666665
        value: 0
        inSlope: 0
        outSlope: 0
        tangentMode: 10
      - time: 0.65
        value: 0
        inSlope: 0
        outSlope: 0
        tangentMode: 10
      - time: 0.78333336
        value: 0
        inSlope: 0
        outSlope: 0
        tangentMode: 10
      - time: 0.8666667
        value: 0
        inSlope: 0
        outSlope: 0
        tangentMode: 10
      m_PreInfinity: 2
      m_PostInfinity: 2
      m_RotationOrder: 4
    attribute: m_LocalPosition.z
    path: IK/Left_Leg-IK
    classID: 4
    script: {fileID: 0}
  - curve:
      serializedVersion: 2
      m_Curve:
      - time: 0
        value: 0
        inSlope: 0
        outSlope: 0
        tangentMode: 10
      - time: 0.083333336
        value: 0
        inSlope: -0.0000010011515
        outSlope: -0.0000010011515
        tangentMode: 10
      - time: 0.21666667
        value: -0.00000026697373
        inSlope: -0.0000010818909
        outSlope: -0.0000010818909
        tangentMode: 10
      - time: 0.35
        value: -0.00000028850422
        inSlope: -0.00000008073937
        outSlope: -0.00000008073937
        tangentMode: 10
      - time: 0.43333334
        value: -0.00000028850422
        inSlope: 0.0000003328895
        outSlope: 0.0000003328895
        tangentMode: 10
      - time: 0.8666667
        value: 0
        inSlope: 0.000000665779
        outSlope: 0.000000665779
        tangentMode: 10
      m_PreInfinity: 2
      m_PostInfinity: 2
      m_RotationOrder: 4
    attribute: m_LocalPosition.x
    path: Root/leg-bone-L/leg-low-bone-L/foot-bone-L/Foot_L
    classID: 4
    script: {fileID: 0}
  - curve:
      serializedVersion: 2
      m_Curve:
      - time: 0
        value: 0
        inSlope: 0
        outSlope: 0
        tangentMode: 10
      - time: 0.083333336
        value: 0
        inSlope: 0.000013137898
        outSlope: 0.000013137898
        tangentMode: 10
      - time: 0.21666667
        value: 0.0000035034393
        inSlope: 0.00001657854
        outSlope: 0.00001657854
        tangentMode: 10
      - time: 0.35
        value: 0.0000044209437
        inSlope: 0.0000034406416
        outSlope: 0.0000034406416
        tangentMode: 10
      - time: 0.43333334
        value: 0.0000044209437
        inSlope: -0.000005101089
        outSlope: -0.000005101089
        tangentMode: 10
      - time: 0.8666667
        value: 0
        inSlope: -0.000010202178
        outSlope: -0.000010202178
        tangentMode: 10
      m_PreInfinity: 2
      m_PostInfinity: 2
      m_RotationOrder: 4
    attribute: m_LocalPosition.y
    path: Root/leg-bone-L/leg-low-bone-L/foot-bone-L/Foot_L
    classID: 4
    script: {fileID: 0}
  - curve:
      serializedVersion: 2
      m_Curve:
      - time: 0
        value: 0
        inSlope: 0
        outSlope: 0
        tangentMode: 10
      - time: 0.083333336
        value: 0
        inSlope: 0
        outSlope: 0
        tangentMode: 10
      - time: 0.21666667
        value: 0
        inSlope: 0
        outSlope: 0
        tangentMode: 10
      - time: 0.35
        value: 0
        inSlope: 0
        outSlope: 0
        tangentMode: 10
      - time: 0.43333334
        value: 0
        inSlope: 0
        outSlope: 0
        tangentMode: 10
      - time: 0.8666667
        value: 0
        inSlope: 0
        outSlope: 0
        tangentMode: 10
      m_PreInfinity: 2
      m_PostInfinity: 2
      m_RotationOrder: 4
    attribute: m_LocalPosition.z
    path: Root/leg-bone-L/leg-low-bone-L/foot-bone-L/Foot_L
    classID: 4
    script: {fileID: 0}
  - curve:
      serializedVersion: 2
      m_Curve:
      - time: 0
        value: 0.778
        inSlope: -2.5440001
        outSlope: -2.5440001
        tangentMode: 10
      - time: 0.083333336
        value: 0.566
        inSlope: -2.502
        outSlope: -2.502
        tangentMode: 10
      - time: 0.21666667
        value: 0.238
        inSlope: -2.3737502
        outSlope: -2.3737502
        tangentMode: 10
      - time: 0.35
        value: -0.067
        inSlope: -1.97175
        outSlope: -1.97175
        tangentMode: 10
      - time: 0.43333334
        value: -0.205
        inSlope: 0.072000384
        outSlope: 0.072000384
        tangentMode: 10
      - time: 0.51666665
        value: -0.055
        inSlope: 1.8300004
        outSlope: 1.8300004
        tangentMode: 10
      - time: 0.65
        value: 0.193
        inSlope: 2.2799997
        outSlope: 2.2799997
        tangentMode: 10
      - time: 0.8666667
        value: 0.778
        inSlope: 2.6999996
        outSlope: 2.6999996
        tangentMode: 10
      m_PreInfinity: 2
      m_PostInfinity: 2
      m_RotationOrder: 4
    attribute: m_LocalPosition.x
    path: IK/Right_Leg-IK
    classID: 4
    script: {fileID: 0}
  - curve:
      serializedVersion: 2
      m_Curve:
      - time: 0
        value: -1.673
        inSlope: 0.31200027
        outSlope: 0.31200027
        tangentMode: 10
      - time: 0.083333336
        value: -1.647
        inSlope: -0.21150008
        outSlope: -0.21150008
        tangentMode: 10
      - time: 0.21666667
        value: -1.745
        inSlope: 0.6037501
        outSlope: 0.6037501
        tangentMode: 10
      - time: 0.35
        value: -1.486
        inSlope: 0.25125033
        outSlope: 0.25125033
        tangentMode: 10
      - time: 0.43333334
        value: -1.606
        inSlope: 0.120000124
        outSlope: 0.120000124
        tangentMode: 10
      - time: 0.51666665
        value: -1.466
        inSlope: 2.0625
        outSlope: 2.0625
        tangentMode: 10
      - time: 0.65
        value: -1.14
        inSlope: -0.007499814
        outSlope: -0.007499814
        tangentMode: 10
      - time: 0.8666667
        value: -1.673
        inSlope: -2.4599996
        outSlope: -2.4599996
        tangentMode: 10
      m_PreInfinity: 2
      m_PostInfinity: 2
      m_RotationOrder: 4
    attribute: m_LocalPosition.y
    path: IK/Right_Leg-IK
    classID: 4
    script: {fileID: 0}
  - curve:
      serializedVersion: 2
      m_Curve:
      - time: 0
        value: 0
        inSlope: 0
        outSlope: 0
        tangentMode: 10
      - time: 0.083333336
        value: 0
        inSlope: 0
        outSlope: 0
        tangentMode: 10
      - time: 0.21666667
        value: 0
        inSlope: 0
        outSlope: 0
        tangentMode: 10
      - time: 0.35
        value: 0
        inSlope: 0
        outSlope: 0
        tangentMode: 10
      - time: 0.43333334
        value: 0
        inSlope: 0
        outSlope: 0
        tangentMode: 10
      - time: 0.51666665
        value: 0
        inSlope: 0
        outSlope: 0
        tangentMode: 10
      - time: 0.65
        value: 0
        inSlope: 0
        outSlope: 0
        tangentMode: 10
      - time: 0.8666667
        value: 0
        inSlope: 0
        outSlope: 0
        tangentMode: 10
      m_PreInfinity: 2
      m_PostInfinity: 2
      m_RotationOrder: 4
    attribute: m_LocalPosition.z
    path: IK/Right_Leg-IK
    classID: 4
    script: {fileID: 0}
  - curve:
      serializedVersion: 2
      m_Curve:
      - time: 0
        value: 0.00000027173317
        inSlope: 0.000001203023
        outSlope: 0.000001203023
        tangentMode: 10
      - time: 0.35
        value: 0.0000006927912
        inSlope: 0.00000019403595
        outSlope: 0.00000019403595
        tangentMode: 10
      - time: 0.8666667
        value: 0.00000027173317
        inSlope: -0.0000008149511
        outSlope: -0.0000008149511
        tangentMode: 10
      m_PreInfinity: 2
      m_PostInfinity: 2
      m_RotationOrder: 4
    attribute: m_LocalPosition.x
    path: Root/leg-bone-R/leg-low-bone-R/foot-bone-R/Foot_R
    classID: 4
    script: {fileID: 0}
  - curve:
      serializedVersion: 2
      m_Curve:
      - time: 0
        value: 0.00000042344516
        inSlope: 0.0000705396
        outSlope: 0.0000705396
        tangentMode: 10
      - time: 0.35
        value: 0.000025112304
        inSlope: 0.000011377355
        outSlope: 0.000011377355
        tangentMode: 10
      - time: 0.8666667
        value: 0.00000042344516
        inSlope: -0.00004778489
        outSlope: -0.00004778489
        tangentMode: 10
      m_PreInfinity: 2
      m_PostInfinity: 2
      m_RotationOrder: 4
    attribute: m_LocalPosition.y
    path: Root/leg-bone-R/leg-low-bone-R/foot-bone-R/Foot_R
    classID: 4
    script: {fileID: 0}
  - curve:
      serializedVersion: 2
      m_Curve:
      - time: 0
        value: 0
        inSlope: 0
        outSlope: 0
        tangentMode: 10
      - time: 0.35
        value: 0
        inSlope: 0
        outSlope: 0
        tangentMode: 10
      - time: 0.8666667
        value: 0
        inSlope: 0
        outSlope: 0
        tangentMode: 10
      m_PreInfinity: 2
      m_PostInfinity: 2
      m_RotationOrder: 4
    attribute: m_LocalPosition.z
    path: Root/leg-bone-R/leg-low-bone-R/foot-bone-R/Foot_R
    classID: 4
    script: {fileID: 0}
  - curve:
      serializedVersion: 2
      m_Curve:
      - time: 0
        value: 0.096
        inSlope: 0.046153836
        outSlope: 0.046153836
        tangentMode: 10
      - time: 0.21666667
        value: 0.106
        inSlope: 0
        outSlope: 0
        tangentMode: 10
      - time: 0.43333334
        value: 0.096
        inSlope: 0.0000000037252903
        outSlope: 0.0000000037252903
        tangentMode: 10
      - time: 0.65
        value: 0.106
        inSlope: 0.000000007450581
        outSlope: 0.000000007450581
        tangentMode: 10
      - time: 0.8666667
        value: 0.096
        inSlope: -0.04615383
        outSlope: -0.04615383
        tangentMode: 10
      m_PreInfinity: 2
      m_PostInfinity: 2
      m_RotationOrder: 4
    attribute: m_LocalPosition.x
    path: Root
    classID: 4
    script: {fileID: 0}
  - curve:
      serializedVersion: 2
      m_Curve:
      - time: 0
        value: -0.633
        inSlope: 0.2400002
        outSlope: 0.2400002
        tangentMode: 10
      - time: 0.21666667
        value: -0.581
        inSlope: 0
        outSlope: 0
        tangentMode: 10
      - time: 0.43333334
        value: -0.633
        inSlope: 0.000000022351742
        outSlope: 0.000000022351742
        tangentMode: 10
      - time: 0.65
        value: -0.581
        inSlope: 0.000000037252903
        outSlope: 0.000000037252903
        tangentMode: 10
      - time: 0.8666667
        value: -0.633
        inSlope: -0.24000017
        outSlope: -0.24000017
        tangentMode: 10
      m_PreInfinity: 2
      m_PostInfinity: 2
      m_RotationOrder: 4
    attribute: m_LocalPosition.y
    path: Root
    classID: 4
    script: {fileID: 0}
  - curve:
      serializedVersion: 2
      m_Curve:
      - time: 0
        value: 0
        inSlope: 0
        outSlope: 0
        tangentMode: 10
      - time: 0.21666667
        value: 0
        inSlope: 0
        outSlope: 0
        tangentMode: 10
      - time: 0.43333334
        value: 0
        inSlope: 0
        outSlope: 0
        tangentMode: 10
      - time: 0.65
        value: 0
        inSlope: 0
        outSlope: 0
        tangentMode: 10
      - time: 0.8666667
        value: 0
        inSlope: 0
        outSlope: 0
        tangentMode: 10
      m_PreInfinity: 2
      m_PostInfinity: 2
      m_RotationOrder: 4
    attribute: m_LocalPosition.z
    path: Root
    classID: 4
    script: {fileID: 0}
  - curve:
      serializedVersion: 2
      m_Curve:
      - time: 0
        value: 0.327
        inSlope: -1.3707691
        outSlope: -1.3707691
        tangentMode: 10
      - time: 0.43333334
        value: -0.267
        inSlope: 0
        outSlope: 0
        tangentMode: 10
      - time: 0.8666667
        value: 0.327
        inSlope: 1.3707691
        outSlope: 1.3707691
        tangentMode: 10
      m_PreInfinity: 2
      m_PostInfinity: 2
      m_RotationOrder: 4
    attribute: m_LocalPosition.x
    path: IK/Left_Arm_IK
    classID: 4
    script: {fileID: 0}
  - curve:
      serializedVersion: 2
      m_Curve:
      - time: 0
        value: -0.55
        inSlope: -0.18461534
        outSlope: -0.18461534
        tangentMode: 10
      - time: 0.43333334
        value: -0.63
        inSlope: 0
        outSlope: 0
        tangentMode: 10
      - time: 0.8666667
        value: -0.55
        inSlope: 0.18461534
        outSlope: 0.18461534
        tangentMode: 10
      m_PreInfinity: 2
      m_PostInfinity: 2
      m_RotationOrder: 4
    attribute: m_LocalPosition.y
    path: IK/Left_Arm_IK
    classID: 4
    script: {fileID: 0}
  - curve:
      serializedVersion: 2
      m_Curve:
      - time: 0
        value: 0
        inSlope: 0
        outSlope: 0
        tangentMode: 10
      - time: 0.43333334
        value: 0
        inSlope: 0
        outSlope: 0
        tangentMode: 10
      - time: 0.8666667
        value: 0
        inSlope: 0
        outSlope: 0
        tangentMode: 10
      m_PreInfinity: 2
      m_PostInfinity: 2
      m_RotationOrder: 4
    attribute: m_LocalPosition.z
    path: IK/Left_Arm_IK
    classID: 4
    script: {fileID: 0}
  - curve:
      serializedVersion: 2
      m_Curve:
      - time: 0
        value: -0
        inSlope: 1.8138461
        outSlope: 1.8138461
        tangentMode: 10
      - time: 0.43333334
        value: 0.786
        inSlope: 0
        outSlope: 0
        tangentMode: 10
      - time: 0.8666667
        value: -0
        inSlope: -1.8138461
        outSlope: -1.8138461
        tangentMode: 10
      m_PreInfinity: 2
      m_PostInfinity: 2
      m_RotationOrder: 4
    attribute: m_LocalPosition.x
    path: IK/Right_Arm_IK
    classID: 4
    script: {fileID: 0}
  - curve:
      serializedVersion: 2
      m_Curve:
      - time: 0
        value: -0.421
        inSlope: -0.2123077
        outSlope: -0.2123077
        tangentMode: 10
      - time: 0.43333334
        value: -0.513
        inSlope: 0
        outSlope: 0
        tangentMode: 10
      - time: 0.8666667
        value: -0.421
        inSlope: 0.2123077
        outSlope: 0.2123077
        tangentMode: 10
      m_PreInfinity: 2
      m_PostInfinity: 2
      m_RotationOrder: 4
    attribute: m_LocalPosition.y
    path: IK/Right_Arm_IK
    classID: 4
    script: {fileID: 0}
  - curve:
      serializedVersion: 2
      m_Curve:
      - time: 0
        value: 0
        inSlope: 0
        outSlope: 0
        tangentMode: 10
      - time: 0.43333334
        value: 0
        inSlope: 0
        outSlope: 0
        tangentMode: 10
      - time: 0.8666667
        value: 0
        inSlope: 0
        outSlope: 0
        tangentMode: 10
      m_PreInfinity: 2
      m_PostInfinity: 2
      m_RotationOrder: 4
    attribute: m_LocalPosition.z
    path: IK/Right_Arm_IK
    classID: 4
    script: {fileID: 0}
  - curve:
      serializedVersion: 2
      m_Curve:
      - time: 0
        value: 0.032
        inSlope: -0.055384625
        outSlope: -0.055384625
        tangentMode: 10
      - time: 0.21666667
        value: 0.02
        inSlope: 0
        outSlope: 0
        tangentMode: 10
      - time: 0.43333334
        value: 0.032
        inSlope: 0.023076922
        outSlope: 0.023076922
        tangentMode: 10
      - time: 0.65
        value: 0.03
        inSlope: -0.0000000013969839
        outSlope: -0.0000000013969839
        tangentMode: 10
      - time: 0.8666667
        value: 0.032
        inSlope: 0.009230778
        outSlope: 0.009230778
        tangentMode: 10
      m_PreInfinity: 2
      m_PostInfinity: 2
      m_RotationOrder: 4
    attribute: m_LocalPosition.x
    path: Root/body-bone/neck-bone/head-bone
    classID: 4
    script: {fileID: 0}
  - curve:
      serializedVersion: 2
      m_Curve:
      - time: 0
        value: 0.666
        inSlope: -0.443077
        outSlope: -0.443077
        tangentMode: 10
      - time: 0.21666667
        value: 0.57
        inSlope: 0
        outSlope: 0
        tangentMode: 10
      - time: 0.43333334
        value: 0.666
        inSlope: 0.046153784
        outSlope: 0.046153784
        tangentMode: 10
      - time: 0.65
        value: 0.59
        inSlope: -0.000000044703484
        outSlope: -0.000000044703484
        tangentMode: 10
      - time: 0.8666667
        value: 0.666
        inSlope: 0.35076934
        outSlope: 0.35076934
        tangentMode: 10
      m_PreInfinity: 2
      m_PostInfinity: 2
      m_RotationOrder: 4
    attribute: m_LocalPosition.y
    path: Root/body-bone/neck-bone/head-bone
    classID: 4
    script: {fileID: 0}
  - curve:
      serializedVersion: 2
      m_Curve:
      - time: 0
        value: 0
        inSlope: 0
        outSlope: 0
        tangentMode: 10
      - time: 0.21666667
        value: 0
        inSlope: 0
        outSlope: 0
        tangentMode: 10
      - time: 0.43333334
        value: 0
        inSlope: 0
        outSlope: 0
        tangentMode: 10
      - time: 0.65
        value: 0
        inSlope: 0
        outSlope: 0
        tangentMode: 10
      - time: 0.8666667
        value: 0
        inSlope: 0
        outSlope: 0
        tangentMode: 10
      m_PreInfinity: 2
      m_PostInfinity: 2
      m_RotationOrder: 4
    attribute: m_LocalPosition.z
    path: Root/body-bone/neck-bone/head-bone
    classID: 4
    script: {fileID: 0}
  - curve:
      serializedVersion: 2
      m_Curve:
      - time: 0
        value: 0
        inSlope: 0
        outSlope: 0
        tangentMode: 0
      - time: 0.8666667
        value: 0
        inSlope: 0
        outSlope: 0
        tangentMode: 0
      m_PreInfinity: 2
      m_PostInfinity: 2
      m_RotationOrder: 4
    attribute: m_LocalRotation.x
    path: Root/body-bone/neck-bone/head-bone
    classID: 4
    script: {fileID: 0}
  - curve:
      serializedVersion: 2
      m_Curve:
      - time: 0
        value: 0
        inSlope: 0
        outSlope: 0
        tangentMode: 0
      - time: 0.8666667
        value: 0
        inSlope: 0
        outSlope: 0
        tangentMode: 0
      m_PreInfinity: 2
      m_PostInfinity: 2
      m_RotationOrder: 4
    attribute: m_LocalRotation.y
    path: Root/body-bone/neck-bone/head-bone
    classID: 4
    script: {fileID: 0}
  - curve:
      serializedVersion: 2
      m_Curve:
      - time: 0
        value: 0.07410889
        inSlope: 0
        outSlope: 0
        tangentMode: 0
      - time: 0.8666667
        value: 0.07410889
        inSlope: 0
        outSlope: 0
        tangentMode: 0
      m_PreInfinity: 2
      m_PostInfinity: 2
      m_RotationOrder: 4
    attribute: m_LocalRotation.z
    path: Root/body-bone/neck-bone/head-bone
    classID: 4
    script: {fileID: 0}
  - curve:
      serializedVersion: 2
      m_Curve:
      - time: 0
        value: 0.99725014
        inSlope: 0
        outSlope: 0
        tangentMode: 0
      - time: 0.8666667
        value: 0.99725014
        inSlope: 0
        outSlope: 0
        tangentMode: 0
      m_PreInfinity: 2
      m_PostInfinity: 2
      m_RotationOrder: 4
    attribute: m_LocalRotation.w
    path: Root/body-bone/neck-bone/head-bone
    classID: 4
    script: {fileID: 0}
  - curve:
      serializedVersion: 2
      m_Curve:
      - time: 0
        value: 0
        inSlope: 0
        outSlope: 0
        tangentMode: 0
      - time: 0.083333336
        value: 0
        inSlope: 0
        outSlope: 0
        tangentMode: 0
      - time: 0.21666667
        value: 0
        inSlope: 0
        outSlope: 0
        tangentMode: 0
      - time: 0.35
        value: -0
        inSlope: -0
        outSlope: -0
        tangentMode: 0
      - time: 0.43333334
        value: -0
        inSlope: -0
        outSlope: -0
        tangentMode: 0
      - time: 0.51666665
        value: -0
        inSlope: -0
        outSlope: -0
        tangentMode: 0
      - time: 0.8666667
        value: 0
        inSlope: 0
        outSlope: 0
        tangentMode: 0
      m_PreInfinity: 2
      m_PostInfinity: 2
      m_RotationOrder: 4
    attribute: m_LocalRotation.x
    path: Root/leg-bone-L/leg-low-bone-L/foot-bone-L/Foot_L
    classID: 4
    script: {fileID: 0}
  - curve:
      serializedVersion: 2
      m_Curve:
      - time: 0
        value: 0
        inSlope: 0
        outSlope: 0
        tangentMode: 0
      - time: 0.083333336
        value: 0
        inSlope: 0
        outSlope: 0
        tangentMode: 0
      - time: 0.21666667
        value: 0
        inSlope: 0
        outSlope: 0
        tangentMode: 0
      - time: 0.35
        value: -0
        inSlope: -0
        outSlope: -0
        tangentMode: 0
      - time: 0.43333334
        value: -0
        inSlope: -0
        outSlope: -0
        tangentMode: 0
      - time: 0.51666665
        value: -0
        inSlope: -0
        outSlope: -0
        tangentMode: 0
      - time: 0.8666667
        value: 0
        inSlope: 0
        outSlope: 0
        tangentMode: 0
      m_PreInfinity: 2
      m_PostInfinity: 2
      m_RotationOrder: 4
    attribute: m_LocalRotation.y
    path: Root/leg-bone-L/leg-low-bone-L/foot-bone-L/Foot_L
    classID: 4
    script: {fileID: 0}
  - curve:
      serializedVersion: 2
      m_Curve:
      - time: 0
        value: 0.30187032
        inSlope: 0
        outSlope: 0.011086464
        tangentMode: 0
      - time: 0.083333336
        value: 0.5409741
        inSlope: 0.009298325
        outSlope: -0.003129244
        tangentMode: 0
      - time: 0.21666667
        value: 0.40984297
        inSlope: -0.0049173837
        outSlope: 0.0538677
        tangentMode: 0
      - time: 0.35
        value: -0.15384872
        inSlope: 0.05587936
        outSlope: -0.0050067897
        tangentMode: 0
      - time: 0.43333334
        value: -0.29112002
        inSlope: -0.0050067897
        outSlope: 0.0071525592
        tangentMode: 0
      - time: 0.51666665
        value: -0.09063258
        inSlope: 0.007778408
        outSlope: -0.023437396
        tangentMode: 0
      - time: 0.8666667
        value: 0.30187032
        inSlope: -0.024012156
        outSlope: 0
        tangentMode: 0
      m_PreInfinity: 2
      m_PostInfinity: 2
      m_RotationOrder: 4
    attribute: m_LocalRotation.z
    path: Root/leg-bone-L/leg-low-bone-L/foot-bone-L/Foot_L
    classID: 4
    script: {fileID: 0}
  - curve:
      serializedVersion: 2
      m_Curve:
      - time: 0
        value: -0.953349
        inSlope: 0
        outSlope: 0.0035762787
        tangentMode: 0
      - time: 0.083333336
        value: -0.84103924
        inSlope: 0.0064373016
        outSlope: -0.0022351744
        tangentMode: 0
      - time: 0.21666667
        value: -0.9121561
        inSlope: -0.0022351744
        outSlope: 0.024139883
        tangentMode: 0
      - time: 0.35
        value: -0.9880944
        inSlope: -0.008493663
        outSlope: 0.0007152557
        tangentMode: 0
      - time: 0.43333334
        value: -0.95668656
        inSlope: 0.0014305114
        outSlope: -0.0021457677
        tangentMode: 0
      - time: 0.51666665
        value: -0.9958844
        inSlope: -0.0007152559
        outSlope: 0.0022138867
        tangentMode: 0
      - time: 0.8666667
        value: -0.953349
        inSlope: -0.007663454
        outSlope: 0
        tangentMode: 0
      m_PreInfinity: 2
      m_PostInfinity: 2
      m_RotationOrder: 4
    attribute: m_LocalRotation.w
    path: Root/leg-bone-L/leg-low-bone-L/foot-bone-L/Foot_L
    classID: 4
    script: {fileID: 0}
  - curve:
      serializedVersion: 2
      m_Curve:
      - time: 0
        value: 0
        inSlope: 0
        outSlope: 0
        tangentMode: 0
      - time: 0.43333334
        value: 0
        inSlope: 0
        outSlope: 0
        tangentMode: 0
      - time: 0.8666667
        value: 0
        inSlope: 0
        outSlope: 0
        tangentMode: 0
      m_PreInfinity: 2
      m_PostInfinity: 2
      m_RotationOrder: 4
    attribute: m_LocalRotation.x
    path: Root/body-arm-bone-L/arm-bone-L/arm-low-bone-L/fist-bone-L/Fist_L
    classID: 4
    script: {fileID: 0}
  - curve:
      serializedVersion: 2
      m_Curve:
      - time: 0
        value: 0
        inSlope: 0
        outSlope: 0
        tangentMode: 0
      - time: 0.43333334
        value: 0
        inSlope: 0
        outSlope: 0
        tangentMode: 0
      - time: 0.8666667
        value: 0
        inSlope: 0
        outSlope: 0
        tangentMode: 0
      m_PreInfinity: 2
      m_PostInfinity: 2
      m_RotationOrder: 4
    attribute: m_LocalRotation.y
    path: Root/body-arm-bone-L/arm-bone-L/arm-low-bone-L/fist-bone-L/Fist_L
    classID: 4
    script: {fileID: 0}
  - curve:
      serializedVersion: 2
      m_Curve:
      - time: 0
        value: 0.40753338
        inSlope: 0
        outSlope: 0.0019944631
        tangentMode: 0
      - time: 0.43333334
        value: 0.71994543
        inSlope: 0.0017881393
        outSlope: -0.0017881393
        tangentMode: 0
      - time: 0.8666667
        value: 0.40753338
        inSlope: -0.0019944631
        outSlope: 0
        tangentMode: 0
      m_PreInfinity: 2
      m_PostInfinity: 2
      m_RotationOrder: 4
    attribute: m_LocalRotation.z
    path: Root/body-arm-bone-L/arm-bone-L/arm-low-bone-L/fist-bone-L/Fist_L
    classID: 4
    script: {fileID: 0}
  - curve:
      serializedVersion: 2
      m_Curve:
      - time: 0
        value: -0.9131903
        inSlope: 0
        outSlope: 0.00082529505
        tangentMode: 0
      - time: 0.43333334
        value: -0.69403064
        inSlope: 0.0020632376
        outSlope: -0.0020632376
        tangentMode: 0
      - time: 0.8666667
        value: -0.9131903
        inSlope: -0.00082529505
        outSlope: 0
        tangentMode: 0
      m_PreInfinity: 2
      m_PostInfinity: 2
      m_RotationOrder: 4
    attribute: m_LocalRotation.w
    path: Root/body-arm-bone-L/arm-bone-L/arm-low-bone-L/fist-bone-L/Fist_L
    classID: 4
    script: {fileID: 0}
  - curve:
      serializedVersion: 2
      m_Curve:
      - time: 0
        value: 0
        inSlope: 0
        outSlope: 0
        tangentMode: 0
      - time: 0.43333334
        value: -0
        inSlope: -0
        outSlope: -0
        tangentMode: 0
      - time: 0.8666667
        value: 0
        inSlope: 0
        outSlope: 0
        tangentMode: 0
      m_PreInfinity: 2
      m_PostInfinity: 2
      m_RotationOrder: 4
    attribute: m_LocalRotation.x
    path: Root/body-arm-bone-R/arm-bone-R/arm-low-bone-R/fist-bone-R/Fist_R
    classID: 4
    script: {fileID: 0}
  - curve:
      serializedVersion: 2
      m_Curve:
      - time: 0
        value: 0
        inSlope: 0
        outSlope: 0
        tangentMode: 0
      - time: 0.43333334
        value: -0
        inSlope: -0
        outSlope: -0
        tangentMode: 0
      - time: 0.8666667
        value: 0
        inSlope: 0
        outSlope: 0
        tangentMode: 0
      m_PreInfinity: 2
      m_PostInfinity: 2
      m_RotationOrder: 4
    attribute: m_LocalRotation.y
    path: Root/body-arm-bone-R/arm-bone-R/arm-low-bone-R/fist-bone-R/Fist_R
    classID: 4
    script: {fileID: 0}
  - curve:
      serializedVersion: 2
      m_Curve:
      - time: 0
        value: 0.5555541
        inSlope: 0
        outSlope: 0.014717762
        tangentMode: 0
      - time: 0.43333334
        value: 0.051445764
        inSlope: 0.01648011
        outSlope: -0.017984556
        tangentMode: 0
      - time: 0.8666667
        value: 0.5555541
        inSlope: -0.013754918
        outSlope: 0
        tangentMode: 0
      m_PreInfinity: 2
      m_PostInfinity: 2
      m_RotationOrder: 4
    attribute: m_LocalRotation.z
    path: Root/body-arm-bone-R/arm-bone-R/arm-low-bone-R/fist-bone-R/Fist_R
    classID: 4
    script: {fileID: 0}
  - curve:
      serializedVersion: 2
      m_Curve:
      - time: 0
        value: -0.8314804
        inSlope: 0
        outSlope: 0.009765992
        tangentMode: 0
      - time: 0.43333334
        value: -0.99867576
        inSlope: 0.00096284423
        outSlope: -0.00096284423
        tangentMode: 0
      - time: 0.8666667
        value: -0.8314804
        inSlope: -0.009215795
        outSlope: 0
        tangentMode: 0
      m_PreInfinity: 2
      m_PostInfinity: 2
      m_RotationOrder: 4
    attribute: m_LocalRotation.w
    path: Root/body-arm-bone-R/arm-bone-R/arm-low-bone-R/fist-bone-R/Fist_R
    classID: 4
    script: {fileID: 0}
  - curve:
      serializedVersion: 2
      m_Curve:
      - time: 0
        value: -0.251
        inSlope: 0
        outSlope: 0
        tangentMode: 10
      m_PreInfinity: 2
      m_PostInfinity: 2
      m_RotationOrder: 4
    attribute: m_LocalPosition.x
    path: IK
    classID: 4
    script: {fileID: 0}
  - curve:
      serializedVersion: 2
      m_Curve:
      - time: 0
        value: -0.012
        inSlope: 0
        outSlope: 0
        tangentMode: 10
      m_PreInfinity: 2
      m_PostInfinity: 2
      m_RotationOrder: 4
    attribute: m_LocalPosition.y
    path: IK
    classID: 4
    script: {fileID: 0}
  - curve:
      serializedVersion: 2
      m_Curve:
      - time: 0
        value: 0.125
        inSlope: 0
        outSlope: 0
        tangentMode: 10
      m_PreInfinity: 2
      m_PostInfinity: 2
      m_RotationOrder: 4
    attribute: m_LocalPosition.z
    path: IK
    classID: 4
    script: {fileID: 0}
  - curve:
      serializedVersion: 2
      m_Curve:
      - time: 0
        value: 0
        inSlope: 0
        outSlope: 0
        tangentMode: 0
      - time: 0.8666667
        value: 0
        inSlope: 0
        outSlope: 0
        tangentMode: 0
      m_PreInfinity: 2
      m_PostInfinity: 2
      m_RotationOrder: 4
    attribute: m_LocalRotation.x
    path: Root
    classID: 4
    script: {fileID: 0}
  - curve:
      serializedVersion: 2
      m_Curve:
      - time: 0
        value: 0
        inSlope: 0
        outSlope: 0
        tangentMode: 0
      - time: 0.8666667
        value: 0
        inSlope: 0
        outSlope: 0
        tangentMode: 0
      m_PreInfinity: 2
      m_PostInfinity: 2
      m_RotationOrder: 4
    attribute: m_LocalRotation.y
    path: Root
    classID: 4
    script: {fileID: 0}
  - curve:
      serializedVersion: 2
      m_Curve:
      - time: 0
        value: 0.09323902
        inSlope: 0
        outSlope: 0
        tangentMode: 0
      - time: 0.8666667
        value: 0.09323902
        inSlope: 0
        outSlope: 0
        tangentMode: 0
      m_PreInfinity: 2
      m_PostInfinity: 2
      m_RotationOrder: 4
    attribute: m_LocalRotation.z
    path: Root
    classID: 4
    script: {fileID: 0}
  - curve:
      serializedVersion: 2
      m_Curve:
      - time: 0
        value: -0.99564373
        inSlope: 0
        outSlope: 0
        tangentMode: 0
      - time: 0.8666667
        value: -0.99564373
        inSlope: 0
        outSlope: 0
        tangentMode: 0
      m_PreInfinity: 2
      m_PostInfinity: 2
      m_RotationOrder: 4
    attribute: m_LocalRotation.w
    path: Root
    classID: 4
    script: {fileID: 0}
  - curve:
      serializedVersion: 2
      m_Curve:
      - time: 0
        value: 0
        inSlope: 0
        outSlope: 0
        tangentMode: 0
      - time: 0.000000014901161
        value: 0
        inSlope: 0
        outSlope: 0
        tangentMode: 0
      - time: 0.06666667
        value: 0
        inSlope: 0
        outSlope: 0
        tangentMode: 0
      - time: 0.083333336
        value: 0
        inSlope: 0
        outSlope: 0
        tangentMode: 0
      - time: 0.2
        value: 0
        inSlope: 0
        outSlope: 0
        tangentMode: 0
      - time: 0.4166667
        value: -0
        inSlope: -0
        outSlope: -0
        tangentMode: 0
      - time: 0.43333334
        value: -0
        inSlope: -0
        outSlope: -0
        tangentMode: 0
      - time: 0.5
        value: -0
        inSlope: -0
        outSlope: -0
        tangentMode: 0
      - time: 0.51666665
        value: -0
        inSlope: -0
        outSlope: -0
        tangentMode: 0
      - time: 0.6333333
        value: -0
        inSlope: -0
        outSlope: -0
        tangentMode: 0
      - time: 0.65
        value: -0
        inSlope: -0
        outSlope: -0
        tangentMode: 0
      - time: 0.85
        value: 0
        inSlope: 0
        outSlope: 0
        tangentMode: 0
      - time: 0.8666667
        value: 0
        inSlope: 0
        outSlope: 0
        tangentMode: 0
      m_PreInfinity: 2
      m_PostInfinity: 2
      m_RotationOrder: 4
    attribute: m_LocalRotation.x
    path: Root/leg-bone-R/leg-low-bone-R/foot-bone-R/Foot_R
    classID: 4
    script: {fileID: 0}
  - curve:
      serializedVersion: 2
      m_Curve:
      - time: 0
        value: 0
        inSlope: 0
        outSlope: 0
        tangentMode: 0
      - time: 0.000000014901161
        value: 0
        inSlope: 0
        outSlope: 0
        tangentMode: 0
      - time: 0.06666667
        value: 0
        inSlope: 0
        outSlope: 0
        tangentMode: 0
      - time: 0.083333336
        value: 0
        inSlope: 0
        outSlope: 0
        tangentMode: 0
      - time: 0.2
        value: 0
        inSlope: 0
        outSlope: 0
        tangentMode: 0
      - time: 0.4166667
        value: -0
        inSlope: -0
        outSlope: -0
        tangentMode: 0
      - time: 0.43333334
        value: -0
        inSlope: -0
        outSlope: -0
        tangentMode: 0
      - time: 0.5
        value: -0
        inSlope: -0
        outSlope: -0
        tangentMode: 0
      - time: 0.51666665
        value: -0
        inSlope: -0
        outSlope: -0
        tangentMode: 0
      - time: 0.6333333
        value: -0
        inSlope: -0
        outSlope: -0
        tangentMode: 0
      - time: 0.65
        value: -0
        inSlope: -0
        outSlope: -0
        tangentMode: 0
      - time: 0.85
        value: 0
        inSlope: 0
        outSlope: 0
        tangentMode: 0
      - time: 0.8666667
        value: 0
        inSlope: 0
        outSlope: 0
        tangentMode: 0
      m_PreInfinity: 2
      m_PostInfinity: 2
      m_RotationOrder: 4
    attribute: m_LocalRotation.y
    path: Root/leg-bone-R/leg-low-bone-R/foot-bone-R/Foot_R
    classID: 4
    script: {fileID: 0}
  - curve:
      serializedVersion: 2
      m_Curve:
      - time: 0
        value: 0.15885122
        inSlope: 0
        outSlope: 0
        tangentMode: 0
      - time: 0.000000014901161
        value: 0.15885122
        inSlope: 0
        outSlope: -0.009387733
        tangentMode: 0
      - time: 0.06666667
        value: -0.0516349
        inSlope: -0.008437784
        outSlope: 0
        tangentMode: 0
      - time: 0.083333336
        value: -0.0499497
        inSlope: 0.19311906
        outSlope: 0.19362995
        tangentMode: 0
      - time: 0.2
        value: -0.012387611
        inSlope: 0.00082222477
        outSlope: 0.03940354
        tangentMode: 0
      - time: 0.4166667
        value: -0.5226438
        inSlope: -2.8439667
        outSlope: -2.8681781
        tangentMode: 0
      - time: 0.43333334
        value: -0.41071853
        inSlope: 0.039339103
        outSlope: 0.003129244
        tangentMode: 0
      - time: 0.5
        value: -0.33873776
        inSlope: 0.003129244
        outSlope: 0.014305129
        tangentMode: 0
      - time: 0.51666665
        value: -0.27647582
        inSlope: 0.014305129
        outSlope: 0.0058753146
        tangentMode: 0
      - time: 0.6333333
        value: 0.01483514
        inSlope: 0.006130763
        outSlope: -0
        tangentMode: 0
      - time: 0.65
        value: -0.0034903535
        inSlope: -0
        outSlope: -0.04529952
        tangentMode: 0
      - time: 0.85
        value: 0.15885122
        inSlope: -0.04388391
        outSlope: 0
        tangentMode: 0
      - time: 0.8666667
        value: 0.15885122
        inSlope: 0
        outSlope: 0
        tangentMode: 0
      m_PreInfinity: 2
      m_PostInfinity: 2
      m_RotationOrder: 4
    attribute: m_LocalRotation.z
    path: Root/leg-bone-R/leg-low-bone-R/foot-bone-R/Foot_R
    classID: 4
    script: {fileID: 0}
  - curve:
      serializedVersion: 2
      m_Curve:
      - time: 0
        value: 0.98730254
        inSlope: 0
        outSlope: 0
        tangentMode: 0
      - time: 0.000000014901161
        value: 0.98730254
        inSlope: 0
        outSlope: 0.0017881397
        tangentMode: 0
      - time: 0.06666667
        value: 0.99866605
        inSlope: 0
        outSlope: 0
        tangentMode: 0
      - time: 0.083333336
        value: 0.99875176
        inSlope: 0.010728837
        outSlope: 0.009707042
        tangentMode: 0
      - time: 0.2
        value: 0.9999233
        inSlope: 0
        outSlope: 0.00027509834
        tangentMode: 0
      - time: 0.4166667
        value: 0.85255116
        inSlope: -1.7419227
        outSlope: -1.7595308
        tangentMode: 0
      - time: 0.43333334
        value: 0.9117622
        inSlope: 0.01788141
        outSlope: 0.0017881395
        tangentMode: 0
      - time: 0.5
        value: 0.94088084
        inSlope: 0.00089406973
        outSlope: 0.0035762822
        tangentMode: 0
      - time: 0.51666665
        value: 0.9610209
        inSlope: 0.0035762822
        outSlope: 0.0015326907
        tangentMode: 0
      - time: 0.6333333
        value: 0.99988997
        inSlope: -0
        outSlope: -0
        tangentMode: 0
      - time: 0.65
        value: 0.9999939
        inSlope: -0
        outSlope: -0.00029802317
        tangentMode: 0
      - time: 0.85
        value: 0.98730254
        inSlope: 0.0071525555
        outSlope: 0
        tangentMode: 0
      - time: 0.8666667
        value: 0.98730254
        inSlope: 0
        outSlope: 0
        tangentMode: 0
      m_PreInfinity: 2
      m_PostInfinity: 2
      m_RotationOrder: 4
    attribute: m_LocalRotation.w
    path: Root/leg-bone-R/leg-low-bone-R/foot-bone-R/Foot_R
    classID: 4
    script: {fileID: 0}
  m_EulerEditorCurves:
  - curve:
      serializedVersion: 2
      m_Curve:
      - time: 0.000000014901161
        value: 18.280445
        inSlope: 0
        outSlope: 0
        tangentMode: 0
      - time: 0.06666667
        value: -5.9195557
        inSlope: 0
        outSlope: 0
        tangentMode: 0
      - time: 0.2
        value: -1.4195518
        inSlope: 0
        outSlope: 0
        tangentMode: 0
      - time: 0.4166667
        value: 296.98044
        inSlope: -387.2531
        outSlope: -387.2531
        tangentMode: 0
      - time: 0.43333334
        value: 311.5
        inSlope: 0
        outSlope: 0
        tangentMode: 0
      - time: 0.5
        value: 320.4
        inSlope: 0
        outSlope: 0
        tangentMode: 0
      - time: 0.51666665
        value: 327.9
        inSlope: 0
        outSlope: 0
        tangentMode: 0
      - time: 0.6333333
        value: 361.7
        inSlope: 0
        outSlope: 0
        tangentMode: 0
      - time: 0.65
        value: 359.6
        inSlope: 0
        outSlope: 0
        tangentMode: 0
      - time: 0.85
        value: 18.280445
        inSlope: 0
        outSlope: 0
        tangentMode: 0
      m_PreInfinity: 2
      m_PostInfinity: 2
      m_RotationOrder: 4
    attribute: localEulerAngles.z
    path: Root/leg-bone-R/leg-low-bone-R/foot-bone-R/Foot_R
    classID: 4
    script: {fileID: 0}
  - curve:
      serializedVersion: 2
      m_Curve:
      - time: 0
        value: 0
        inSlope: 0
        outSlope: 0
        tangentMode: 0
      - time: 0.083333336
        value: 0
        inSlope: 0
        outSlope: 0
        tangentMode: 0
      - time: 0.43333334
        value: 0
        inSlope: 0
        outSlope: 0
        tangentMode: 0
      - time: 0.5
        value: 0
        inSlope: 0
        outSlope: 0
        tangentMode: 0
      - time: 0.51666665
        value: 0
        inSlope: 0
        outSlope: 0
        tangentMode: 0
      - time: 0.6333333
        value: 0
        inSlope: 0
        outSlope: 0
        tangentMode: 0
      - time: 0.65
        value: 0
        inSlope: 0
        outSlope: 0
        tangentMode: 0
      - time: 0.8666667
        value: 0
        inSlope: 0
        outSlope: 0
        tangentMode: 0
      m_PreInfinity: 2
      m_PostInfinity: 2
      m_RotationOrder: 4
    attribute: localEulerAngles.y
    path: Root/leg-bone-R/leg-low-bone-R/foot-bone-R/Foot_R
    classID: 4
    script: {fileID: 0}
  - curve:
      serializedVersion: 2
      m_Curve:
      - time: 0
        value: -0
        inSlope: 0
        outSlope: 0
        tangentMode: 0
      - time: 0.083333336
        value: -0
        inSlope: 0
        outSlope: 0
        tangentMode: 0
      - time: 0.43333334
        value: 0
        inSlope: 0
        outSlope: 0
        tangentMode: 0
      - time: 0.5
        value: 0
        inSlope: 0
        outSlope: 0
        tangentMode: 0
      - time: 0.51666665
        value: 0
        inSlope: 0
        outSlope: 0
        tangentMode: 0
      - time: 0.6333333
        value: 0
        inSlope: 0
        outSlope: 0
        tangentMode: 0
      - time: 0.65
        value: 0
        inSlope: 0
        outSlope: 0
        tangentMode: 0
      - time: 0.8666667
        value: -0
        inSlope: 0
        outSlope: 0
        tangentMode: 0
      m_PreInfinity: 2
      m_PostInfinity: 2
      m_RotationOrder: 4
    attribute: localEulerAngles.x
    path: Root/leg-bone-R/leg-low-bone-R/foot-bone-R/Foot_R
    classID: 4
    script: {fileID: 0}
  - curve:
      serializedVersion: 2
      m_Curve:
      - time: 0
        value: 0
        inSlope: 0
        outSlope: 0
        tangentMode: 0
      - time: 0.083333336
        value: -0
        inSlope: 0
        outSlope: 0
        tangentMode: 0
      - time: 0.21666667
        value: -0
        inSlope: 0
        outSlope: 0
        tangentMode: 0
      - time: 0.35
        value: -0
        inSlope: 0
        outSlope: 0
        tangentMode: 0
      - time: 0.43333334
        value: -0
        inSlope: 0
        outSlope: 0
        tangentMode: 0
      - time: 0.51666665
        value: -0
        inSlope: 0
        outSlope: 0
        tangentMode: 0
      - time: 0.8666667
        value: 0
        inSlope: 0
        outSlope: 0
        tangentMode: 0
      m_PreInfinity: 2
      m_PostInfinity: 2
      m_RotationOrder: 4
    attribute: localEulerAngles.x
    path: Root/leg-bone-L/leg-low-bone-L/foot-bone-L/Foot_L
    classID: 4
    script: {fileID: 0}
  - curve:
      serializedVersion: 2
      m_Curve:
      - time: 0
        value: 0
        inSlope: 0
        outSlope: 0
        tangentMode: 0
      - time: 0.083333336
        value: 0
        inSlope: 0
        outSlope: 0
        tangentMode: 0
      - time: 0.21666667
        value: 0
        inSlope: 0
        outSlope: 0
        tangentMode: 0
      - time: 0.35
        value: -0
        inSlope: 0
        outSlope: 0
        tangentMode: 0
      - time: 0.43333334
        value: -0
        inSlope: 0
        outSlope: 0
        tangentMode: 0
      - time: 0.51666665
        value: 0
        inSlope: 0
        outSlope: 0
        tangentMode: 0
      - time: 0.8666667
        value: 0
        inSlope: 0
        outSlope: 0
        tangentMode: 0
      m_PreInfinity: 2
      m_PostInfinity: 2
      m_RotationOrder: 4
    attribute: localEulerAngles.y
    path: Root/leg-bone-L/leg-low-bone-L/foot-bone-L/Foot_L
    classID: 4
    script: {fileID: 0}
  - curve:
      serializedVersion: 2
      m_Curve:
      - time: 0
        value: 324.86002
        inSlope: 0
        outSlope: 0
        tangentMode: 0
      - time: 0.083333336
        value: 294.50003
        inSlope: 0
        outSlope: 0
        tangentMode: 0
      - time: 0.21666667
        value: 311.61002
        inSlope: 0
        outSlope: 0
        tangentMode: 0
      - time: 0.35
        value: 17.700064
        inSlope: 0
        outSlope: 0
        tangentMode: 0
      - time: 0.43333334
        value: 33.85004
        inSlope: 0
        outSlope: 0
        tangentMode: 0
      - time: 0.51666665
        value: 10.4
        inSlope: 0
        outSlope: 0
        tangentMode: 0
      - time: 0.8666667
        value: 324.86002
        inSlope: 0
        outSlope: 0
        tangentMode: 0
      m_PreInfinity: 2
      m_PostInfinity: 2
      m_RotationOrder: 4
    attribute: localEulerAngles.z
    path: Root/leg-bone-L/leg-low-bone-L/foot-bone-L/Foot_L
    classID: 4
    script: {fileID: 0}
  - curve:
      serializedVersion: 2
      m_Curve:
      - time: 0
        value: -0
        inSlope: 0
        outSlope: 0
        tangentMode: 0
      - time: 0.43333334
        value: -0
        inSlope: 0
        outSlope: 0
        tangentMode: 0
      - time: 0.8666667
        value: -0
        inSlope: 0
        outSlope: 0
        tangentMode: 0
      m_PreInfinity: 2
      m_PostInfinity: 2
      m_RotationOrder: 4
    attribute: localEulerAngles.x
    path: Root/body-arm-bone-L/arm-bone-L/arm-low-bone-L/fist-bone-L/Fist_L
    classID: 4
    script: {fileID: 0}
  - curve:
      serializedVersion: 2
      m_Curve:
      - time: 0
        value: 0
        inSlope: 0
        outSlope: 0
        tangentMode: 0
      - time: 0.43333334
        value: 0
        inSlope: 0
        outSlope: 0
        tangentMode: 0
      - time: 0.8666667
        value: 0
        inSlope: 0
        outSlope: 0
        tangentMode: 0
      m_PreInfinity: 2
      m_PostInfinity: 2
      m_RotationOrder: 4
    attribute: localEulerAngles.y
    path: Root/body-arm-bone-L/arm-bone-L/arm-low-bone-L/fist-bone-L/Fist_L
    classID: 4
    script: {fileID: 0}
  - curve:
      serializedVersion: 2
      m_Curve:
      - time: 0
        value: 311.90002
        inSlope: 0
        outSlope: 0
        tangentMode: 0
      - time: 0.43333334
        value: 267.90002
        inSlope: 0
        outSlope: 0
        tangentMode: 0
      - time: 0.8666667
        value: 311.90002
        inSlope: 0
        outSlope: 0
        tangentMode: 0
      m_PreInfinity: 2
      m_PostInfinity: 2
      m_RotationOrder: 4
    attribute: localEulerAngles.z
    path: Root/body-arm-bone-L/arm-bone-L/arm-low-bone-L/fist-bone-L/Fist_L
    classID: 4
    script: {fileID: 0}
  - curve:
      serializedVersion: 2
      m_Curve:
      - time: 0
        value: -0
        inSlope: 0
        outSlope: 0
        tangentMode: 0
      - time: 0.8666667
        value: -0
        inSlope: 0
        outSlope: 0
        tangentMode: 0
      m_PreInfinity: 2
      m_PostInfinity: 2
      m_RotationOrder: 4
    attribute: localEulerAngles.x
    path: Root/body-bone/neck-bone/head-bone
    classID: 4
    script: {fileID: 0}
  - curve:
      serializedVersion: 2
      m_Curve:
      - time: 0
        value: 0
        inSlope: 0
        outSlope: 0
        tangentMode: 0
      - time: 0.8666667
        value: 0
        inSlope: 0
        outSlope: 0
        tangentMode: 0
      m_PreInfinity: 2
      m_PostInfinity: 2
      m_RotationOrder: 4
    attribute: localEulerAngles.y
    path: Root/body-bone/neck-bone/head-bone
    classID: 4
    script: {fileID: 0}
  - curve:
      serializedVersion: 2
      m_Curve:
      - time: 0
        value: 8.500045
        inSlope: 0
        outSlope: 0
        tangentMode: 0
      - time: 0.8666667
        value: 8.500045
        inSlope: 0
        outSlope: 0
        tangentMode: 0
      m_PreInfinity: 2
      m_PostInfinity: 2
      m_RotationOrder: 4
    attribute: localEulerAngles.z
    path: Root/body-bone/neck-bone/head-bone
    classID: 4
    script: {fileID: 0}
  - curve:
      serializedVersion: 2
      m_Curve:
      - time: 0
        value: 292.5022
        inSlope: 0
        outSlope: 0
        tangentMode: 0
      - time: 0.43333334
        value: -5.8978534
        inSlope: 0
        outSlope: 0
        tangentMode: 0
      - time: 0.8666667
        value: 292.5022
        inSlope: 0
        outSlope: 0
        tangentMode: 0
      m_PreInfinity: 2
      m_PostInfinity: 2
      m_RotationOrder: 4
    attribute: localEulerAngles.z
    path: Root/body-arm-bone-R/arm-bone-R/arm-low-bone-R/fist-bone-R/Fist_R
    classID: 4
    script: {fileID: 0}
  - curve:
      serializedVersion: 2
      m_Curve:
      - time: 0
        value: 0
        inSlope: 0
        outSlope: 0
        tangentMode: 0
      - time: 0.43333334
        value: -0
        inSlope: 0
        outSlope: 0
        tangentMode: 0
      - time: 0.8666667
        value: 0
        inSlope: 0
        outSlope: 0
        tangentMode: 0
      m_PreInfinity: 2
      m_PostInfinity: 2
      m_RotationOrder: 4
    attribute: localEulerAngles.y
    path: Root/body-arm-bone-R/arm-bone-R/arm-low-bone-R/fist-bone-R/Fist_R
    classID: 4
    script: {fileID: 0}
  - curve:
      serializedVersion: 2
      m_Curve:
      - time: 0
        value: 0
        inSlope: 0
        outSlope: 0
        tangentMode: 0
      - time: 0.43333334
        value: -0
        inSlope: 0
        outSlope: 0
        tangentMode: 0
      - time: 0.8666667
        value: 0
        inSlope: 0
        outSlope: 0
        tangentMode: 0
      m_PreInfinity: 2
      m_PostInfinity: 2
      m_RotationOrder: 4
    attribute: localEulerAngles.x
    path: Root/body-arm-bone-R/arm-bone-R/arm-low-bone-R/fist-bone-R/Fist_R
    classID: 4
    script: {fileID: 0}
  - curve:
      serializedVersion: 2
      m_Curve:
      - time: 0
        value: -0
        inSlope: 0
        outSlope: 0
        tangentMode: 0
      - time: 0.8666667
        value: -0
        inSlope: 0
        outSlope: 0
        tangentMode: 0
      m_PreInfinity: 2
      m_PostInfinity: 2
      m_RotationOrder: 4
    attribute: localEulerAngles.x
    path: Root
    classID: 4
    script: {fileID: 0}
  - curve:
      serializedVersion: 2
      m_Curve:
      - time: 0
        value: 0
        inSlope: 0
        outSlope: 0
        tangentMode: 0
      - time: 0.8666667
        value: 0
        inSlope: 0
        outSlope: 0
        tangentMode: 0
      m_PreInfinity: 2
      m_PostInfinity: 2
      m_RotationOrder: 4
    attribute: localEulerAngles.y
    path: Root
    classID: 4
    script: {fileID: 0}
  - curve:
      serializedVersion: 2
      m_Curve:
      - time: 0
        value: 349.30002
        inSlope: 0
        outSlope: 0
        tangentMode: 0
      - time: 0.8666667
        value: 349.30002
        inSlope: 0
        outSlope: 0
        tangentMode: 0
      m_PreInfinity: 2
      m_PostInfinity: 2
      m_RotationOrder: 4
    attribute: localEulerAngles.z
    path: Root
    classID: 4
    script: {fileID: 0}
  m_HasGenericRootTransform: 0
  m_HasMotionFloatCurves: 0
  m_GenerateMotionCurves: 0
  m_Events:
  - time: 0
    functionName: StepSoundPlay
    data: 
    objectReferenceParameter: {fileID: 0}
    floatParameter: 0
    intParameter: 0
    messageOptions: 0
  - time: 0.43333334
    functionName: StepSoundPlay
    data: 
    objectReferenceParameter: {fileID: 0}
    floatParameter: 0
    intParameter: 0
    messageOptions: 0
